D:\ICT397(C++)\ASSIGNMENT\SOURCETREE\GAME_ENGINE09\ENGINE\DEBUG\IMAGE.OBJ
D:\ICT397(C++)\ASSIGNMENT\SOURCETREE\GAME_ENGINE09\ENGINE\DEBUG\LABEL.OBJ
D:\ICT397(C++)\ASSIGNMENT\SOURCETREE\GAME_ENGINE09\ENGINE\DEBUG\MASTER.OBJ
D:\ICT397(C++)\ASSIGNMENT\SOURCETREE\GAME_ENGINE09\ENGINE\DEBUG\MESHGENERATOR.OBJ
D:\ICT397(C++)\ASSIGNMENT\SOURCETREE\GAME_ENGINE09\ENGINE\DEBUG\OBJ_MODEL.OBJ
D:\ICT397(C++)\ASSIGNMENT\SOURCETREE\GAME_ENGINE09\ENGINE\DEBUG\OPENGL.OBJ
D:\ICT397(C++)\ASSIGNMENT\SOURCETREE\GAME_ENGINE09\ENGINE\DEBUG\USERINTERFACE.OBJ
D:\ICT397(C++)\ASSIGNMENT\SOURCETREE\GAME_ENGINE09\ENGINE\DEBUG\FBX_LOADER.OBJ
D:\ICT397(C++)\ASSIGNMENT\SOURCETREE\GAME_ENGINE09\ENGINE\DEBUG\PHYSICS.OBJ
D:\ICT397(C++)\ASSIGNMENT\SOURCETREE\GAME_ENGINE09\ENGINE\DEBUG\SCENE.OBJ
D:\ICT397(C++)\ASSIGNMENT\SOURCETREE\GAME_ENGINE09\ENGINE\DEBUG\SHADER.OBJ
D:\ICT397(C++)\ASSIGNMENT\SOURCETREE\GAME_ENGINE09\ENGINE\DEBUG\SHADERPROGRAM.OBJ
D:\ICT397(C++)\ASSIGNMENT\SOURCETREE\GAME_ENGINE09\ENGINE\DEBUG\TIME.OBJ
D:\ICT397(C++)\ASSIGNMENT\SOURCETREE\GAME_ENGINE09\ENGINE\DEBUG\GRAPHICSENGINE.OBJ
D:\ICT397(C++)\ASSIGNMENT\SOURCETREE\GAME_ENGINE09\ENGINE\DEBUG\LIGHT.OBJ
D:\ICT397(C++)\ASSIGNMENT\SOURCETREE\GAME_ENGINE09\ENGINE\DEBUG\INPUT_GL.OBJ
D:\ICT397(C++)\ASSIGNMENT\SOURCETREE\GAME_ENGINE09\ENGINE\DEBUG\INPUT_WIN.OBJ
D:\ICT397(C++)\ASSIGNMENT\SOURCETREE\GAME_ENGINE09\ENGINE\DEBUG\DIRECTMEDIALAYER.OBJ
D:\ICT397(C++)\ASSIGNMENT\SOURCETREE\GAME_ENGINE09\ENGINE\DEBUG\LUASCRIPT.OBJ
D:\ICT397(C++)\ASSIGNMENT\SOURCETREE\GAME_ENGINE09\ENGINE\DEBUG\SCRIPT.OBJ
D:\ICT397(C++)\ASSIGNMENT\SOURCETREE\GAME_ENGINE09\ENGINE\DEBUG\SERIALIZATION.OBJ
D:\ICT397(C++)\ASSIGNMENT\SOURCETREE\GAME_ENGINE09\ENGINE\DEBUG\MESH.OBJ
D:\ICT397(C++)\ASSIGNMENT\SOURCETREE\GAME_ENGINE09\ENGINE\DEBUG\MESHRENDERER.OBJ
D:\ICT397(C++)\ASSIGNMENT\SOURCETREE\GAME_ENGINE09\ENGINE\DEBUG\MODELMANAGER.OBJ
D:\ICT397(C++)\ASSIGNMENT\SOURCETREE\GAME_ENGINE09\ENGINE\DEBUG\COLLIDER.OBJ
D:\ICT397(C++)\ASSIGNMENT\SOURCETREE\GAME_ENGINE09\ENGINE\DEBUG\COLLIDERAABB.OBJ
D:\ICT397(C++)\ASSIGNMENT\SOURCETREE\GAME_ENGINE09\ENGINE\DEBUG\COLLISIONENGINE.OBJ
D:\ICT397(C++)\ASSIGNMENT\SOURCETREE\GAME_ENGINE09\ENGINE\DEBUG\PHYSICSENGINE.OBJ
D:\ICT397(C++)\ASSIGNMENT\SOURCETREE\GAME_ENGINE09\ENGINE\DEBUG\RENDERER.OBJ
D:\ICT397(C++)\ASSIGNMENT\SOURCETREE\GAME_ENGINE09\ENGINE\DEBUG\SCENEMANAGER.OBJ
D:\ICT397(C++)\ASSIGNMENT\SOURCETREE\GAME_ENGINE09\ENGINE\DEBUG\SHADERMANAGER.OBJ
D:\ICT397(C++)\ASSIGNMENT\SOURCETREE\GAME_ENGINE09\ENGINE\DEBUG\TERRAIN.OBJ
D:\ICT397(C++)\ASSIGNMENT\SOURCETREE\GAME_ENGINE09\ENGINE\DEBUG\TERRAINFAULTFORMATION.OBJ
D:\ICT397(C++)\ASSIGNMENT\SOURCETREE\GAME_ENGINE09\ENGINE\DEBUG\TERRAINHEIGHTMAP.OBJ
D:\ICT397(C++)\ASSIGNMENT\SOURCETREE\GAME_ENGINE09\ENGINE\DEBUG\TRANSFORM.OBJ
D:\ICT397(C++)\ASSIGNMENT\SOURCETREE\GAME_ENGINE09\ENGINE\DEBUG\DIALOGWINDOW.OBJ
D:\ICT397(C++)\ASSIGNMENT\SOURCETREE\GAME_ENGINE09\ENGINE\DEBUG\EDITORMANAGER.OBJ
D:\ICT397(C++)\ASSIGNMENT\SOURCETREE\GAME_ENGINE09\ENGINE\DEBUG\HIERARCHY_C.OBJ
D:\ICT397(C++)\ASSIGNMENT\SOURCETREE\GAME_ENGINE09\ENGINE\DEBUG\CONTROLLERGL.OBJ
D:\ICT397(C++)\ASSIGNMENT\SOURCETREE\GAME_ENGINE09\ENGINE\DEBUG\OPENSCENE_C.OBJ
D:\ICT397(C++)\ASSIGNMENT\SOURCETREE\GAME_ENGINE09\ENGINE\DEBUG\PROCEDURE.OBJ
D:\ICT397(C++)\ASSIGNMENT\SOURCETREE\GAME_ENGINE09\ENGINE\DEBUG\PROJECT_C.OBJ
D:\ICT397(C++)\ASSIGNMENT\SOURCETREE\GAME_ENGINE09\ENGINE\DEBUG\SETTINGS_C.OBJ
D:\ICT397(C++)\ASSIGNMENT\SOURCETREE\GAME_ENGINE09\ENGINE\DEBUG\TOOLBOX_C.OBJ
D:\ICT397(C++)\ASSIGNMENT\SOURCETREE\GAME_ENGINE09\ENGINE\DEBUG\VIEW.OBJ
D:\ICT397(C++)\ASSIGNMENT\SOURCETREE\GAME_ENGINE09\ENGINE\DEBUG\WINDOW.OBJ
D:\ICT397(C++)\ASSIGNMENT\SOURCETREE\GAME_ENGINE09\ENGINE\DEBUG\ENGINE.OBJ
D:\ICT397(C++)\ASSIGNMENT\SOURCETREE\GAME_ENGINE09\ENGINE\DEBUG\FNT_LOADER.OBJ
D:\ICT397(C++)\ASSIGNMENT\SOURCETREE\GAME_ENGINE09\ENGINE\DEBUG\FONT.OBJ
D:\ICT397(C++)\ASSIGNMENT\SOURCETREE\GAME_ENGINE09\ENGINE\DEBUG\FRAMEBUFFER.OBJ
D:\ICT397(C++)\ASSIGNMENT\SOURCETREE\GAME_ENGINE09\ENGINE\DEBUG\GAMEOBJECT.OBJ
D:\ICT397(C++)\ASSIGNMENT\SOURCETREE\GAME_ENGINE09\ENGINE\DEBUG\GBUFFER.OBJ
D:\ICT397(C++)\ASSIGNMENT\SOURCETREE\GAME_ENGINE09\ENGINE\DEBUG\GL.OBJ
D:\ICT397(C++)\ASSIGNMENT\SOURCETREE\GAME_ENGINE09\ENGINE\DEBUG\INOBJECT.OBJ
D:\ICT397(C++)\ASSIGNMENT\SOURCETREE\GAME_ENGINE09\ENGINE\DEBUG\INPUT.OBJ
D:\ICT397(C++)\ASSIGNMENT\SOURCETREE\GAME_ENGINE09\ENGINE\DEBUG\CAMERA.OBJ
D:\ICT397(C++)\ASSIGNMENT\SOURCETREE\GAME_ENGINE09\ENGINE\DEBUG\CHARACTER.OBJ
D:\ICT397(C++)\ASSIGNMENT\SOURCETREE\GAME_ENGINE09\ENGINE\DEBUG\COMPONENT.OBJ
D:\ICT397(C++)\ASSIGNMENT\SOURCETREE\GAME_ENGINE09\ENGINE\DEBUG\DEBUG.OBJ
D:\ICT397(C++)\ASSIGNMENT\SOURCETREE\GAME_ENGINE09\ENGINE\DEBUG\BOTTOM_C.OBJ
D:\ICT397(C++)\ASSIGNMENT\SOURCETREE\GAME_ENGINE09\ENGINE\DEBUG\COMPMENU_C.OBJ
D:\ICT397(C++)\ASSIGNMENT\SOURCETREE\GAME_ENGINE09\ENGINE\DEBUG\CONSOLE_C.OBJ
D:\ICT397(C++)\ASSIGNMENT\SOURCETREE\GAME_ENGINE09\ENGINE\DEBUG\CONTROLLER.OBJ
D:\ICT397(C++)\ASSIGNMENT\SOURCETREE\GAME_ENGINE09\ENGINE\DEBUG\CONTROLLERMAIN.OBJ
D:\ICT397(C++)\ASSIGNMENT\SOURCETREE\GAME_ENGINE09\ENGINE\DEBUG\VC110.PDB
D:\ICT397(C++)\ASSIGNMENT\SOURCETREE\GAME_ENGINE09\ENGINE\DEBUG\SCRIPTFUNCTIONS.OBJ
D:\ICT397(C++)\ASSIGNMENT\SOURCETREE\GAME_ENGINE09\ENGINE\DEBUG\LUASCRIPTFUNCTIONS.OBJ
D:\ICT397(C++)\ASSIGNMENT\SOURCETREE\GAME_ENGINE09\ENGINE\DEBUG\WINDOWCLASS.OBJ
D:\ICT397(C++)\Assignment\SourceTree\Game_Engine09\Debug\Engine.lib
D:\ICT397(C++)\Assignment\SourceTree\Game_Engine09\Debug\Engine.exp
D:\ICT397(C++)\ASSIGNMENT\SOURCETREE\GAME_ENGINE09\DEBUG\ENGINE.EXE
D:\ICT397(C++)\ASSIGNMENT\SOURCETREE\GAME_ENGINE09\ENGINE\DEBUG\MAIN.RES
D:\ICT397(C++)\Assignment\SourceTree\Game_Engine09\Engine\Debug\Bottom_c.obj
D:\ICT397(C++)\Assignment\SourceTree\Game_Engine09\Engine\Debug\Camera.obj
D:\ICT397(C++)\Assignment\SourceTree\Game_Engine09\Engine\Debug\Character.obj
D:\ICT397(C++)\Assignment\SourceTree\Game_Engine09\Engine\Debug\Collider.obj
D:\ICT397(C++)\Assignment\SourceTree\Game_Engine09\Engine\Debug\ColliderAABB.obj
D:\ICT397(C++)\Assignment\SourceTree\Game_Engine09\Engine\Debug\CollisionEngine.obj
D:\ICT397(C++)\Assignment\SourceTree\Game_Engine09\Engine\Debug\Compmenu_c.obj
D:\ICT397(C++)\Assignment\SourceTree\Game_Engine09\Engine\Debug\Component.obj
D:\ICT397(C++)\Assignment\SourceTree\Game_Engine09\Engine\Debug\Console_c.obj
D:\ICT397(C++)\Assignment\SourceTree\Game_Engine09\Engine\Debug\Controller.obj
D:\ICT397(C++)\Assignment\SourceTree\Game_Engine09\Engine\Debug\ControllerForm.obj
D:\ICT397(C++)\Assignment\SourceTree\Game_Engine09\Engine\Debug\ControllerGL.obj
D:\ICT397(C++)\Assignment\SourceTree\Game_Engine09\Engine\Debug\ControllerMain.obj
D:\ICT397(C++)\Assignment\SourceTree\Game_Engine09\Engine\Debug\Debug.obj
D:\ICT397(C++)\Assignment\SourceTree\Game_Engine09\Engine\Debug\DialogWindow.obj
D:\ICT397(C++)\Assignment\SourceTree\Game_Engine09\Engine\Debug\DirectMediaLayer.obj
D:\ICT397(C++)\Assignment\SourceTree\Game_Engine09\Engine\Debug\EditorManager.obj
D:\ICT397(C++)\Assignment\SourceTree\Game_Engine09\Engine\Debug\Engine.obj
D:\ICT397(C++)\Assignment\SourceTree\Game_Engine09\Engine\Debug\ExampleComponent.obj
D:\ICT397(C++)\Assignment\SourceTree\Game_Engine09\Engine\Debug\FBX_loader.obj
D:\ICT397(C++)\Assignment\SourceTree\Game_Engine09\Engine\Debug\FirstPersonController.obj
D:\ICT397(C++)\Assignment\SourceTree\Game_Engine09\Engine\Debug\FNT_loader.obj
D:\ICT397(C++)\Assignment\SourceTree\Game_Engine09\Engine\Debug\Font.obj
D:\ICT397(C++)\Assignment\SourceTree\Game_Engine09\Engine\Debug\FrameBuffer.obj
D:\ICT397(C++)\Assignment\SourceTree\Game_Engine09\Engine\Debug\GameObject.obj
D:\ICT397(C++)\Assignment\SourceTree\Game_Engine09\Engine\Debug\GBuffer.obj
D:\ICT397(C++)\Assignment\SourceTree\Game_Engine09\Engine\Debug\GL.obj
D:\ICT397(C++)\Assignment\SourceTree\Game_Engine09\Engine\Debug\GraphicsEngine.obj
D:\ICT397(C++)\Assignment\SourceTree\Game_Engine09\Engine\Debug\Hierarchy_c.obj
D:\ICT397(C++)\Assignment\SourceTree\Game_Engine09\Engine\Debug\Image.obj
D:\ICT397(C++)\Assignment\SourceTree\Game_Engine09\Engine\Debug\InObject.obj
D:\ICT397(C++)\Assignment\SourceTree\Game_Engine09\Engine\Debug\Input.obj
D:\ICT397(C++)\Assignment\SourceTree\Game_Engine09\Engine\Debug\Input_GL.obj
D:\ICT397(C++)\Assignment\SourceTree\Game_Engine09\Engine\Debug\Input_Win.obj
D:\ICT397(C++)\Assignment\SourceTree\Game_Engine09\Engine\Debug\Interactable.obj
D:\ICT397(C++)\Assignment\SourceTree\Game_Engine09\Engine\Debug\Label.obj
D:\ICT397(C++)\Assignment\SourceTree\Game_Engine09\Engine\Debug\Light.obj
D:\ICT397(C++)\Assignment\SourceTree\Game_Engine09\Engine\Debug\Log.obj
D:\ICT397(C++)\Assignment\SourceTree\Game_Engine09\Engine\Debug\LuaScript.obj
D:\ICT397(C++)\Assignment\SourceTree\Game_Engine09\Engine\Debug\LuaScriptFunctions.obj
D:\ICT397(C++)\Assignment\SourceTree\Game_Engine09\Engine\Debug\main.obj
D:\ICT397(C++)\Assignment\SourceTree\Game_Engine09\Engine\Debug\Master.obj
D:\ICT397(C++)\Assignment\SourceTree\Game_Engine09\Engine\Debug\Mesh.obj
D:\ICT397(C++)\Assignment\SourceTree\Game_Engine09\Engine\Debug\MeshGenerator.obj
D:\ICT397(C++)\Assignment\SourceTree\Game_Engine09\Engine\Debug\MeshRenderer.obj
D:\ICT397(C++)\Assignment\SourceTree\Game_Engine09\Engine\Debug\ModelManager.obj
D:\ICT397(C++)\Assignment\SourceTree\Game_Engine09\Engine\Debug\OBJ_loader.obj
D:\ICT397(C++)\Assignment\SourceTree\Game_Engine09\Engine\Debug\OBJ_model.obj
D:\ICT397(C++)\Assignment\SourceTree\Game_Engine09\Engine\Debug\OpenGL.obj
D:\ICT397(C++)\Assignment\SourceTree\Game_Engine09\Engine\Debug\OpenScene_c.obj
D:\ICT397(C++)\Assignment\SourceTree\Game_Engine09\Engine\Debug\Physics.obj
D:\ICT397(C++)\Assignment\SourceTree\Game_Engine09\Engine\Debug\PhysicsEngine.obj
D:\ICT397(C++)\Assignment\SourceTree\Game_Engine09\Engine\Debug\Procedure.obj
D:\ICT397(C++)\Assignment\SourceTree\Game_Engine09\Engine\Debug\Project_c.obj
D:\ICT397(C++)\Assignment\SourceTree\Game_Engine09\Engine\Debug\Renderer.obj
D:\ICT397(C++)\Assignment\SourceTree\Game_Engine09\Engine\Debug\Scene.obj
D:\ICT397(C++)\Assignment\SourceTree\Game_Engine09\Engine\Debug\SceneManager.obj
D:\ICT397(C++)\Assignment\SourceTree\Game_Engine09\Engine\Debug\Script.obj
D:\ICT397(C++)\Assignment\SourceTree\Game_Engine09\Engine\Debug\ScriptFunctions.obj
D:\ICT397(C++)\Assignment\SourceTree\Game_Engine09\Engine\Debug\Serialization.obj
D:\ICT397(C++)\Assignment\SourceTree\Game_Engine09\Engine\Debug\Settings_c.obj
D:\ICT397(C++)\Assignment\SourceTree\Game_Engine09\Engine\Debug\Shader.obj
D:\ICT397(C++)\Assignment\SourceTree\Game_Engine09\Engine\Debug\ShaderManager.obj
D:\ICT397(C++)\Assignment\SourceTree\Game_Engine09\Engine\Debug\ShaderProgram.obj
D:\ICT397(C++)\Assignment\SourceTree\Game_Engine09\Engine\Debug\Sound.obj
D:\ICT397(C++)\Assignment\SourceTree\Game_Engine09\Engine\Debug\Terrain.obj
D:\ICT397(C++)\Assignment\SourceTree\Game_Engine09\Engine\Debug\TerrainFaultFormation.obj
D:\ICT397(C++)\Assignment\SourceTree\Game_Engine09\Engine\Debug\TerrainHeightmap.obj
D:\ICT397(C++)\Assignment\SourceTree\Game_Engine09\Engine\Debug\ThirdPersonController.obj
D:\ICT397(C++)\Assignment\SourceTree\Game_Engine09\Engine\Debug\Time.obj
D:\ICT397(C++)\Assignment\SourceTree\Game_Engine09\Engine\Debug\Toolbox_c.obj
D:\ICT397(C++)\Assignment\SourceTree\Game_Engine09\Engine\Debug\Transform.obj
D:\ICT397(C++)\Assignment\SourceTree\Game_Engine09\Engine\Debug\UI.obj
D:\ICT397(C++)\Assignment\SourceTree\Game_Engine09\Engine\Debug\UserInterface.obj
D:\ICT397(C++)\Assignment\SourceTree\Game_Engine09\Engine\Debug\VertexBuffer.obj
D:\ICT397(C++)\Assignment\SourceTree\Game_Engine09\Engine\Debug\View.obj
D:\ICT397(C++)\Assignment\SourceTree\Game_Engine09\Engine\Debug\Water.obj
D:\ICT397(C++)\Assignment\SourceTree\Game_Engine09\Engine\Debug\wcharUtil.obj
D:\ICT397(C++)\Assignment\SourceTree\Game_Engine09\Engine\Debug\Window.obj
D:\ICT397(C++)\Assignment\SourceTree\Game_Engine09\Engine\Debug\WindowClass.obj
D:\ICT397(C++)\Assignment\SourceTree\Game_Engine09\Engine\Debug\cl.command.1.tlog
D:\ICT397(C++)\Assignment\SourceTree\Game_Engine09\Engine\Debug\CL.read.1.tlog
D:\ICT397(C++)\Assignment\SourceTree\Game_Engine09\Engine\Debug\CL.write.1.tlog
D:\ICT397(C++)\Assignment\SourceTree\Game_Engine09\Engine\Debug\Engine.write.1.tlog
D:\ICT397(C++)\Assignment\SourceTree\Game_Engine09\Engine\Debug\link-cvtres.read.1.tlog
D:\ICT397(C++)\Assignment\SourceTree\Game_Engine09\Engine\Debug\link-cvtres.write.1.tlog
D:\ICT397(C++)\Assignment\SourceTree\Game_Engine09\Engine\Debug\link-mt.read.1.tlog
D:\ICT397(C++)\Assignment\SourceTree\Game_Engine09\Engine\Debug\link-mt.write.1.tlog
D:\ICT397(C++)\Assignment\SourceTree\Game_Engine09\Engine\Debug\link-rc.read.1.tlog
D:\ICT397(C++)\Assignment\SourceTree\Game_Engine09\Engine\Debug\link-rc.write.1.tlog
D:\ICT397(C++)\Assignment\SourceTree\Game_Engine09\Engine\Debug\link.10440-cvtres.read.1.tlog
D:\ICT397(C++)\Assignment\SourceTree\Game_Engine09\Engine\Debug\link.10440-cvtres.write.1.tlog
D:\ICT397(C++)\Assignment\SourceTree\Game_Engine09\Engine\Debug\link.10440-mt.read.1.tlog
D:\ICT397(C++)\Assignment\SourceTree\Game_Engine09\Engine\Debug\link.10440-mt.write.1.tlog
D:\ICT397(C++)\Assignment\SourceTree\Game_Engine09\Engine\Debug\link.10440-rc.read.1.tlog
D:\ICT397(C++)\Assignment\SourceTree\Game_Engine09\Engine\Debug\link.10440-rc.write.1.tlog
D:\ICT397(C++)\Assignment\SourceTree\Game_Engine09\Engine\Debug\link.10440.read.1.tlog
D:\ICT397(C++)\Assignment\SourceTree\Game_Engine09\Engine\Debug\link.10440.write.1.tlog
D:\ICT397(C++)\Assignment\SourceTree\Game_Engine09\Engine\Debug\link.15756-cvtres.read.1.tlog
D:\ICT397(C++)\Assignment\SourceTree\Game_Engine09\Engine\Debug\link.15756-cvtres.write.1.tlog
D:\ICT397(C++)\Assignment\SourceTree\Game_Engine09\Engine\Debug\link.15756-mt.read.1.tlog
D:\ICT397(C++)\Assignment\SourceTree\Game_Engine09\Engine\Debug\link.15756-mt.write.1.tlog
D:\ICT397(C++)\Assignment\SourceTree\Game_Engine09\Engine\Debug\link.15756-rc.read.1.tlog
D:\ICT397(C++)\Assignment\SourceTree\Game_Engine09\Engine\Debug\link.15756-rc.write.1.tlog
D:\ICT397(C++)\Assignment\SourceTree\Game_Engine09\Engine\Debug\link.15756.read.1.tlog
D:\ICT397(C++)\Assignment\SourceTree\Game_Engine09\Engine\Debug\link.15756.write.1.tlog
D:\ICT397(C++)\Assignment\SourceTree\Game_Engine09\Engine\Debug\link.20936-cvtres.read.1.tlog
D:\ICT397(C++)\Assignment\SourceTree\Game_Engine09\Engine\Debug\link.20936-cvtres.write.1.tlog
D:\ICT397(C++)\Assignment\SourceTree\Game_Engine09\Engine\Debug\link.20936-mt.read.1.tlog
D:\ICT397(C++)\Assignment\SourceTree\Game_Engine09\Engine\Debug\link.20936-mt.write.1.tlog
D:\ICT397(C++)\Assignment\SourceTree\Game_Engine09\Engine\Debug\link.20936-rc.read.1.tlog
D:\ICT397(C++)\Assignment\SourceTree\Game_Engine09\Engine\Debug\link.20936-rc.write.1.tlog
D:\ICT397(C++)\Assignment\SourceTree\Game_Engine09\Engine\Debug\link.20936.read.1.tlog
D:\ICT397(C++)\Assignment\SourceTree\Game_Engine09\Engine\Debug\link.20936.write.1.tlog
D:\ICT397(C++)\Assignment\SourceTree\Game_Engine09\Engine\Debug\link.22876-cvtres.read.1.tlog
D:\ICT397(C++)\Assignment\SourceTree\Game_Engine09\Engine\Debug\link.22876-cvtres.write.1.tlog
D:\ICT397(C++)\Assignment\SourceTree\Game_Engine09\Engine\Debug\link.22876-mt.read.1.tlog
D:\ICT397(C++)\Assignment\SourceTree\Game_Engine09\Engine\Debug\link.22876-mt.write.1.tlog
D:\ICT397(C++)\Assignment\SourceTree\Game_Engine09\Engine\Debug\link.22876-rc.read.1.tlog
D:\ICT397(C++)\Assignment\SourceTree\Game_Engine09\Engine\Debug\link.22876-rc.write.1.tlog
D:\ICT397(C++)\Assignment\SourceTree\Game_Engine09\Engine\Debug\link.22876.read.1.tlog
D:\ICT397(C++)\Assignment\SourceTree\Game_Engine09\Engine\Debug\link.22876.write.1.tlog
D:\ICT397(C++)\Assignment\SourceTree\Game_Engine09\Engine\Debug\link.29588-cvtres.read.1.tlog
D:\ICT397(C++)\Assignment\SourceTree\Game_Engine09\Engine\Debug\link.29588-cvtres.write.1.tlog
D:\ICT397(C++)\Assignment\SourceTree\Game_Engine09\Engine\Debug\link.29588-mt.read.1.tlog
D:\ICT397(C++)\Assignment\SourceTree\Game_Engine09\Engine\Debug\link.29588-mt.write.1.tlog
D:\ICT397(C++)\Assignment\SourceTree\Game_Engine09\Engine\Debug\link.29588-rc.read.1.tlog
D:\ICT397(C++)\Assignment\SourceTree\Game_Engine09\Engine\Debug\link.29588-rc.write.1.tlog
D:\ICT397(C++)\Assignment\SourceTree\Game_Engine09\Engine\Debug\link.29588.read.1.tlog
D:\ICT397(C++)\Assignment\SourceTree\Game_Engine09\Engine\Debug\link.29588.write.1.tlog
D:\ICT397(C++)\Assignment\SourceTree\Game_Engine09\Engine\Debug\link.5992-cvtres.read.1.tlog
D:\ICT397(C++)\Assignment\SourceTree\Game_Engine09\Engine\Debug\link.5992-cvtres.write.1.tlog
D:\ICT397(C++)\Assignment\SourceTree\Game_Engine09\Engine\Debug\link.5992-mt.read.1.tlog
D:\ICT397(C++)\Assignment\SourceTree\Game_Engine09\Engine\Debug\link.5992-mt.write.1.tlog
D:\ICT397(C++)\Assignment\SourceTree\Game_Engine09\Engine\Debug\link.5992-rc.read.1.tlog
D:\ICT397(C++)\Assignment\SourceTree\Game_Engine09\Engine\Debug\link.5992-rc.write.1.tlog
D:\ICT397(C++)\Assignment\SourceTree\Game_Engine09\Engine\Debug\link.5992.read.1.tlog
D:\ICT397(C++)\Assignment\SourceTree\Game_Engine09\Engine\Debug\link.5992.write.1.tlog
D:\ICT397(C++)\Assignment\SourceTree\Game_Engine09\Engine\Debug\link.command.1.tlog
D:\ICT397(C++)\Assignment\SourceTree\Game_Engine09\Engine\Debug\link.read.1.tlog
D:\ICT397(C++)\Assignment\SourceTree\Game_Engine09\Engine\Debug\link.write.1.tlog
D:\ICT397(C++)\Assignment\SourceTree\Game_Engine09\Engine\Debug\rc.command.1.tlog
D:\ICT397(C++)\Assignment\SourceTree\Game_Engine09\Engine\Debug\rc.read.1.tlog
D:\ICT397(C++)\Assignment\SourceTree\Game_Engine09\Engine\Debug\rc.write.1.tlog
D:\ICT397(C++)\Assignment\SourceTree\Game_Engine09\Engine\Debug\main.res
D:\ICT397(C++)\Assignment\SourceTree\Game_Engine09\Engine\Debug\vc110.idb
D:\ICT397(C++)\Assignment\SourceTree\Game_Engine09\Engine\Debug\vc110.pdb
D:\ICT397(C++)\Assignment\SourceTree\Game_Engine09\Debug\Engine.pdb
D:\ICT397(C++)\Assignment\SourceTree\Game_Engine09\Debug\Engine.exe
