# 3ds Max Wavefront OBJ Exporter v0.97b - (c)2007 guruware
# File Created: 25.04.2017 22:48:46

mtllib alienShip.mtl

#
# object Cylinder001
#

v  112.1059 5.4723 50.9211
v  112.1059 11.2603 47.4230
v  93.9844 16.1034 31.2021
v  93.9844 5.4723 33.6592
v  112.1059 16.3502 37.3505
v  93.9844 25.4522 24.1271
v  112.1059 20.1281 21.9185
v  93.9844 32.3911 13.2876
v  112.1059 22.1382 2.9884
v  93.9844 36.0833 -0.0091
v  112.1059 22.1382 -17.1566
v  93.9844 36.0832 -14.1591
v  112.1059 20.1281 -36.0867
v  93.9844 32.3911 -27.4558
v  112.1059 16.3502 -51.5187
v  93.9844 25.4522 -38.2953
v  112.1059 11.2603 -61.5912
v  93.9844 16.1034 -45.3704
v  112.1059 5.4723 -65.0893
v  93.9844 5.4723 -47.8275
v  112.1059 -0.3157 -61.5912
v  93.9844 -5.1588 -45.3704
v  112.1059 -5.4056 -51.5187
v  93.9844 -14.5076 -38.2954
v  112.1059 -9.1835 -36.0867
v  93.9844 -21.4466 -27.4558
v  112.1059 -11.1937 -17.1566
v  93.9844 -25.1387 -14.1591
v  112.1059 -11.1937 2.9884
v  93.9844 -25.1387 -0.0091
v  112.1059 -9.1835 21.9185
v  93.9844 -21.4466 13.2875
v  112.1059 -5.4057 37.3504
v  93.9844 -14.5076 24.1271
v  112.1059 -0.3158 47.4229
v  93.9844 -5.1588 31.2021
v  75.8629 16.1034 102.8693
v  75.8629 5.4723 105.4026
v  75.8629 25.4522 25.0947
v  75.8629 50.9237 13.9191
v  75.8629 54.6159 0.2102
v  75.8629 54.6159 -14.3785
v  75.8629 50.9237 -28.0874
v  75.8629 25.4522 -39.2630
v  75.8629 16.1034 -119.3012
v  75.8629 5.4723 -121.8345
v  75.8629 -5.1588 -46.5573
v  75.8629 -14.5076 -39.2630
v  75.8629 -21.4466 -28.0874
v  75.8629 -25.1387 -14.3785
v  75.8629 -25.1387 0.2102
v  75.8629 -21.4466 13.9191
v  75.8629 -14.5076 25.0947
v  75.8629 -5.1588 32.3891
v  57.7414 16.1034 103.2649
v  57.7414 5.4723 105.8236
v  57.7414 25.4522 25.4172
v  57.7414 50.9237 14.1296
v  57.7414 54.6159 0.2833
v  57.7414 54.6159 -14.4516
v  57.7414 50.9237 -28.2979
v  57.7414 25.4522 -39.5855
v  57.7414 16.1034 -119.6968
v  57.7414 5.4723 -122.2555
v  57.7414 -5.1588 -46.9529
v  57.7414 -14.5076 -39.5855
v  57.7414 -21.4466 -28.2979
v  57.7414 -25.1387 -14.4516
v  57.7414 -25.1387 0.2833
v  57.7414 -21.4466 14.1296
v  57.7414 -14.5076 25.4172
v  57.7414 -5.1588 32.7847
v  39.6198 16.1034 104.4518
v  39.6198 5.4723 107.0866
v  39.6198 25.4522 26.3848
v  39.6198 50.9237 14.7611
v  39.6198 54.6159 0.5027
v  39.6198 54.6159 -14.6709
v  39.6198 50.9237 -28.9294
v  39.6198 25.4522 -40.5530
v  39.6198 16.1034 -120.8837
v  39.6198 5.4723 -123.5185
v  39.6198 -5.1588 -48.1398
v  39.6198 -14.5076 -40.5530
v  39.6198 -21.4466 -28.9294
v  39.6198 -25.1387 -14.6709
v  39.6198 -25.1387 0.5026
v  39.6198 -21.4466 14.7611
v  39.6198 -14.5076 26.3848
v  39.6198 -5.1588 33.9715
v  21.4983 16.1034 104.4518
v  21.4983 5.4723 107.0866
v  21.4983 25.4522 26.3848
v  21.4983 50.9237 14.7611
v  21.4983 54.6159 0.5026
v  21.4983 54.6159 -14.6709
v  21.4983 50.9237 -28.9294
v  21.4983 25.4522 -40.5530
v  21.4983 16.1034 -120.8836
v  21.4983 5.4723 -123.5185
v  21.4983 -5.1588 -48.1398
v  21.4983 -14.5076 -40.5530
v  21.4983 -21.4466 -28.9294
v  21.4983 -25.1387 -14.6709
v  21.4983 -25.1387 0.5026
v  21.4983 -21.4466 14.7611
v  21.4983 -14.5076 26.3847
v  21.4983 -5.1588 33.9715
v  3.3768 16.1034 34.3672
v  3.3768 5.4723 37.0274
v  3.3768 25.4522 26.7073
v  3.3768 32.3911 14.9716
v  3.3768 36.0832 0.5758
v  3.3768 36.0832 -14.7440
v  3.3768 32.3911 -29.1399
v  3.3768 25.4522 -40.8756
v  3.3768 16.1034 -48.5355
v  3.3768 5.4723 -51.1957
v  3.3768 -5.1588 -48.5355
v  3.3768 -14.5076 -40.8756
v  3.3768 -21.4466 -29.1399
v  3.3768 -25.1387 -14.7440
v  3.3768 -25.1387 0.5757
v  3.3768 -21.4466 14.9716
v  3.3768 -14.5076 26.7073
v  3.3768 -5.1588 34.3672
v  -14.7447 15.8965 34.3671
v  -14.7447 5.4723 37.0274
v  -14.7447 25.0634 26.7073
v  -14.7447 31.8674 14.9716
v  -14.7447 35.4877 0.5757
v  -14.7447 35.4877 -14.7440
v  -14.7447 31.8674 -29.1399
v  -14.7447 25.0634 -40.8755
v  -14.7447 15.8965 -48.5354
v  -14.7447 5.4723 -51.1957
v  -14.7447 -4.9520 -48.5354
v  -14.7447 -14.1189 -40.8755
v  -14.7447 -20.9228 -29.1399
v  -14.7447 -24.5431 -14.7440
v  -14.7447 -24.5431 0.5757
v  -14.7447 -20.9228 14.9716
v  -14.7447 -14.1189 26.7072
v  -14.7447 -4.9520 34.3671
v  -32.8663 15.5863 33.9784
v  -32.8663 5.4723 36.6137
v  -32.8663 24.4804 26.3903
v  -32.8663 31.0818 14.7648
v  -32.8663 34.5944 0.5039
v  -32.8663 34.5944 -14.6722
v  -32.8663 31.0818 -28.9331
v  -32.8663 24.4804 -40.5586
v  -32.8663 15.5863 -48.1467
v  -32.8663 5.4723 -50.7820
v  -32.8663 -4.6417 -48.1467
v  -32.8663 -13.5358 -40.5586
v  -32.8663 -20.1373 -28.9331
v  -32.8663 -23.6499 -14.6722
v  -32.8663 -23.6499 0.5039
v  -32.8663 -20.1373 14.7648
v  -32.8663 -13.5359 26.3903
v  -32.8663 -4.6418 33.9784
v  -50.9878 14.5063 27.2527
v  -50.9878 5.4723 29.4563
v  -50.9878 22.4507 20.9075
v  -50.9878 28.3472 11.1861
v  -50.9878 31.4847 -0.7390
v  -50.9878 31.4847 -13.4293
v  -50.9878 28.3472 -25.3544
v  -50.9878 22.4507 -35.0758
v  -50.9878 14.5063 -41.4210
v  -50.9878 5.4723 -43.6246
v  -50.9878 -3.5617 -41.4210
v  -50.9878 -11.5061 -35.0758
v  -50.9878 -17.4027 -25.3544
v  -50.9878 -20.5402 -13.4293
v  -50.9878 -20.5402 -0.7390
v  -50.9878 -17.4027 11.1861
v  -50.9878 -11.5062 20.9075
v  -50.9878 -3.5618 27.2527
v  -69.1093 7.7243 11.2554
v  -69.1093 5.4723 12.4324
v  -69.1093 9.7047 7.8664
v  -69.1093 11.1746 2.6741
v  -69.1093 11.9567 -3.6951
v  -69.1093 11.9567 -10.4732
v  -69.1093 11.1746 -16.8424
v  -69.1093 9.7047 -22.0347
v  -69.1093 7.7243 -25.4237
v  -69.1093 5.4723 -26.6007
v  -69.1093 3.2202 -25.4237
v  -69.1093 1.2398 -22.0347
v  -69.1093 -0.2301 -16.8425
v  -69.1093 -1.0122 -10.4732
v  -69.1093 -1.0122 -3.6951
v  -69.1093 -0.2301 2.6741
v  -69.1093 1.2398 7.8664
v  -69.1093 3.2202 11.2554
# 198 vertices

vn -0.6577 -0.0240 0.7529
vn -0.4222 0.5674 0.7070
vn 0.0387 0.6922 0.7207
vn 0.3327 -0.0221 0.9428
vn 0.1860 0.8907 0.4148
vn 0.0694 0.7108 0.7000
vn 0.5068 0.8424 0.1831
vn 0.5556 0.7711 0.3108
vn 0.6043 0.7954 0.0466
vn 0.6516 0.7535 0.0872
vn 0.5757 0.8143 -0.0742
vn 0.6603 0.7447 -0.0976
vn 0.3870 0.8918 -0.2342
vn 0.4846 0.7621 -0.4294
vn -0.0532 0.8890 -0.4549
vn 0.2123 0.8568 -0.4699
vn -0.5319 0.5349 -0.6565
vn 0.4707 0.4719 -0.7455
vn -0.6577 0.0240 -0.7529
vn 0.0557 -0.2956 -0.9537
vn -0.4222 -0.5674 -0.7070
vn -0.2758 -0.4476 -0.8507
vn 0.1860 -0.8907 -0.4148
vn -0.0209 -0.7755 -0.6310
vn 0.5068 -0.8424 -0.1831
vn 0.2046 -0.9113 -0.3573
vn 0.6043 -0.7954 -0.0466
vn 0.2973 -0.9486 -0.1086
vn 0.5757 -0.8143 0.0742
vn 0.3084 -0.9437 0.1201
vn 0.3870 -0.8918 0.2342
vn 0.2538 -0.9001 0.3542
vn -0.0532 -0.8890 0.4549
vn 0.0951 -0.7814 0.6168
vn -0.5319 -0.5349 0.6565
vn -0.0084 -0.6796 0.7335
vn 0.5134 0.6220 0.5913
vn 0.4998 -0.4653 0.7306
vn 0.1153 0.7545 0.6461
vn 0.3039 0.7632 0.5702
vn 0.3760 0.9189 0.1193
vn 0.3759 0.9191 -0.1187
vn 0.3236 0.7427 -0.5863
vn 0.0868 0.8369 -0.5404
vn 0.5134 0.6200 -0.5933
vn 0.5071 -0.4709 -0.7219
vn 0.1442 -0.8102 -0.5681
vn 0.0249 -0.7421 -0.6699
vn 0.0106 -0.9165 -0.3999
vn 0.0020 -0.9912 -0.1323
vn 0.0013 -0.9914 0.1312
vn 0.0089 -0.9168 0.3992
vn 0.0229 -0.7421 0.6699
vn 0.0201 -0.8661 0.4995
vn 0.0290 0.7509 0.6598
vn 0.0375 -0.5652 0.8241
vn 0.0195 0.8024 0.5964
vn 0.0147 0.7619 0.6475
vn 0.0013 0.9915 0.1299
vn 0.0019 0.9917 -0.1288
vn 0.0164 0.7627 -0.6465
vn 0.0208 0.8021 -0.5969
vn 0.0295 0.7525 -0.6580
vn 0.0380 -0.5677 -0.8224
vn 0.0203 -0.8652 -0.5010
vn 0.0226 -0.7484 -0.6629
vn 0.0088 -0.9192 -0.3936
vn 0.0013 -0.9915 -0.1299
vn 0.0019 -0.9917 0.1288
vn 0.0102 -0.9195 0.3929
vn 0.0245 -0.7483 0.6629
vn 0.0216 -0.8633 0.5043
vn 0.0228 0.7432 0.6687
vn 0.0288 -0.5503 0.8345
vn 0.0156 0.8114 0.5844
vn 0.0130 0.7626 0.6467
vn 0.0016 0.9918 0.1276
vn 0.0008 0.9919 -0.1268
vn 0.0104 0.7633 -0.6460
vn 0.0138 0.8114 -0.5843
vn 0.0218 0.7446 -0.6671
vn 0.0278 -0.5526 -0.8330
vn 0.0158 -0.8737 -0.4863
vn 0.0191 -0.7535 -0.6571
vn 0.0083 -0.9216 -0.3881
vn 0.0016 -0.9918 -0.1276
vn 0.0008 -0.9919 0.1268
vn 0.0060 -0.9218 0.3876
vn 0.0162 -0.7536 0.6571
vn 0.0144 -0.8720 0.4893
vn -0.5026 0.6221 0.6004
vn -0.4953 -0.4653 0.7336
vn -0.0704 0.8402 0.5377
vn -0.3168 0.7517 0.5784
vn -0.3755 0.9197 0.1146
vn -0.3753 0.9198 -0.1144
vn -0.2959 0.7736 -0.5603
vn -0.0796 0.7606 -0.6443
vn -0.5080 0.6250 -0.5927
vn -0.4924 -0.4624 -0.7374
vn 0.0049 -0.8696 -0.4937
vn 0.0053 -0.7568 -0.6537
vn 0.0020 -0.9230 -0.3848
vn 0.0003 -0.9920 -0.1262
vn 0.0005 -0.9920 0.1259
vn 0.0027 -0.9230 0.3847
vn 0.0063 -0.7568 0.6537
vn -0.1045 -0.8163 0.5681
vn -0.6424 0.3591 0.6770
vn -0.4486 -0.2607 0.8549
vn -0.1289 0.8481 0.5139
vn -0.2502 0.8393 0.4827
vn -0.4117 0.9037 0.1172
vn -0.4114 0.9040 -0.1165
vn -0.3888 0.8473 -0.3617
vn -0.0864 0.6921 -0.7166
vn -0.3493 0.6309 -0.6928
vn -0.6661 -0.0005 -0.7458
vn -0.1939 -0.6387 -0.7446
vn -0.0028 -0.7592 -0.6509
vn -0.0112 -0.9239 -0.3824
vn -0.0158 -0.9920 -0.1254
vn -0.0155 -0.9921 0.1247
vn -0.0104 -0.9241 0.3819
vn -0.0018 -0.7592 0.6508
vn 0.0071 -0.4491 0.8934
vn -0.0166 0.4556 0.8900
vn -0.0124 0.0008 0.9999
vn -0.0261 0.7643 0.6443
vn -0.0351 0.9257 0.3767
vn -0.0404 0.9915 0.1234
vn -0.0404 0.9917 -0.1223
vn -0.0351 0.9259 -0.3760
vn -0.0260 0.7643 -0.6443
vn -0.0165 0.4547 -0.8905
vn -0.0124 -0.0008 -0.9999
vn -0.0166 -0.4556 -0.8900
vn -0.0261 -0.7643 -0.6443
vn -0.0351 -0.9257 -0.3767
vn -0.0404 -0.9915 -0.1234
vn -0.0404 -0.9917 0.1223
vn -0.0351 -0.9259 0.3760
vn -0.0260 -0.7643 0.6443
vn -0.0165 -0.4547 0.8905
vn -0.1778 0.4462 0.8771
vn -0.1922 -0.0005 0.9814
vn -0.1495 0.7551 0.6384
vn -0.1244 0.9190 0.3741
vn -0.1118 0.9862 0.1220
vn -0.1141 0.9858 -0.1229
vn -0.1305 0.9180 -0.3746
vn -0.1571 0.7540 -0.6378
vn -0.1830 0.4463 -0.8760
vn -0.1922 0.0005 -0.9814
vn -0.1778 -0.4462 -0.8771
vn -0.1495 -0.7551 -0.6384
vn -0.1244 -0.9190 -0.3741
vn -0.1118 -0.9862 -0.1220
vn -0.1141 -0.9858 0.1229
vn -0.1305 -0.9180 0.3746
vn -0.1571 -0.7540 0.6378
vn -0.1830 -0.4463 0.8760
vn -0.5211 0.3877 0.7604
vn -0.5251 0.0009 0.8510
vn -0.5026 0.6593 0.5592
vn -0.4846 0.8094 0.3317
vn -0.4725 0.8745 0.1097
vn -0.4670 0.8776 -0.1086
vn -0.4694 0.8176 -0.3335
vn -0.4828 0.6682 -0.5660
vn -0.5066 0.3908 -0.7686
vn -0.5251 -0.0009 -0.8510
vn -0.5211 -0.3877 -0.7604
vn -0.5026 -0.6593 -0.5592
vn -0.4846 -0.8094 -0.3317
vn -0.4725 -0.8745 -0.1097
vn -0.4670 -0.8776 0.1086
vn -0.4694 -0.8176 0.3335
vn -0.4828 -0.6682 0.5660
vn -0.5066 -0.3908 0.7686
vn -0.6464 0.5391 0.5399
vn -0.7043 0.0273 0.7093
vn -0.6567 0.6882 0.3084
vn -0.6972 0.6989 0.1593
vn -0.7257 0.6860 0.0534
vn -0.7354 0.6765 -0.0396
vn -0.7282 0.6703 -0.1430
vn -0.7106 0.6427 -0.2863
vn -0.7047 0.4876 -0.5155
vn -0.7043 -0.0273 -0.7093
vn -0.6464 -0.5391 -0.5399
vn -0.6567 -0.6882 -0.3084
vn -0.6972 -0.6989 -0.1593
vn -0.7257 -0.6860 -0.0534
vn -0.7354 -0.6765 0.0396
vn -0.7282 -0.6703 0.1430
vn -0.7106 -0.6427 0.2863
vn -0.7047 -0.4876 0.5155
vn 1.0000 0.0000 0.0000
vn -1.0000 -0.0000 -0.0000
# 200 vertex normals

vt 0.7500 0.0000 1.0000
vt 0.8056 0.0000 1.0000
vt 0.8056 0.1000 1.0000
vt 0.7500 0.1000 1.0000
vt 0.8611 0.0000 1.0000
vt 0.8611 0.1000 1.0000
vt 0.9167 0.0000 1.0000
vt 0.9167 0.1000 1.0000
vt 0.9722 0.0000 1.0000
vt 0.9722 0.1000 1.0000
vt 1.0278 0.0000 1.0000
vt 1.0278 0.1000 1.0000
vt 0.0278 0.0000 1.0000
vt 0.0833 0.0000 1.0000
vt 0.0833 0.1000 1.0000
vt 0.0278 0.1000 1.0000
vt 0.1389 0.0000 1.0000
vt 0.1389 0.1000 1.0000
vt 0.1944 0.0000 1.0000
vt 0.1944 0.1000 1.0000
vt 0.2500 0.0000 1.0000
vt 0.2500 0.1000 1.0000
vt 0.3056 0.0000 1.0000
vt 0.3056 0.1000 1.0000
vt 0.3611 0.0000 1.0000
vt 0.3611 0.1000 1.0000
vt 0.4167 0.0000 1.0000
vt 0.4167 0.1000 1.0000
vt 0.4722 0.0000 1.0000
vt 0.4722 0.1000 1.0000
vt 0.5278 0.0000 1.0000
vt 0.5278 0.1000 1.0000
vt 0.5833 0.0000 1.0000
vt 0.5833 0.1000 1.0000
vt 0.6389 0.0000 1.0000
vt 0.6389 0.1000 1.0000
vt 0.6944 0.0000 1.0000
vt 0.6944 0.1000 1.0000
vt 0.8056 0.2000 1.0000
vt 0.7500 0.2000 1.0000
vt 0.8611 0.2000 1.0000
vt 0.9167 0.2000 1.0000
vt 0.9722 0.2000 1.0000
vt 1.0278 0.2000 1.0000
vt 0.0833 0.2000 1.0000
vt 0.0278 0.2000 1.0000
vt 0.1389 0.2000 1.0000
vt 0.1944 0.2000 1.0000
vt 0.2500 0.2000 1.0000
vt 0.3056 0.2000 1.0000
vt 0.3611 0.2000 1.0000
vt 0.4167 0.2000 1.0000
vt 0.4722 0.2000 1.0000
vt 0.5278 0.2000 1.0000
vt 0.5833 0.2000 1.0000
vt 0.6389 0.2000 1.0000
vt 0.6944 0.2000 1.0000
vt 0.8056 0.3000 1.0000
vt 0.7500 0.3000 1.0000
vt 0.8611 0.3000 1.0000
vt 0.9167 0.3000 1.0000
vt 0.9722 0.3000 1.0000
vt 1.0278 0.3000 1.0000
vt 0.0833 0.3000 1.0000
vt 0.0278 0.3000 1.0000
vt 0.1389 0.3000 1.0000
vt 0.1944 0.3000 1.0000
vt 0.2500 0.3000 1.0000
vt 0.3056 0.3000 1.0000
vt 0.3611 0.3000 1.0000
vt 0.4167 0.3000 1.0000
vt 0.4722 0.3000 1.0000
vt 0.5278 0.3000 1.0000
vt 0.5833 0.3000 1.0000
vt 0.6389 0.3000 1.0000
vt 0.6944 0.3000 1.0000
vt 0.8056 0.4000 1.0000
vt 0.7500 0.4000 1.0000
vt 0.8611 0.4000 1.0000
vt 0.9167 0.4000 1.0000
vt 0.9722 0.4000 1.0000
vt 1.0278 0.4000 1.0000
vt 0.0833 0.4000 1.0000
vt 0.0278 0.4000 1.0000
vt 0.1389 0.4000 1.0000
vt 0.1944 0.4000 1.0000
vt 0.2500 0.4000 1.0000
vt 0.3056 0.4000 1.0000
vt 0.3611 0.4000 1.0000
vt 0.4167 0.4000 1.0000
vt 0.4722 0.4000 1.0000
vt 0.5278 0.4000 1.0000
vt 0.5833 0.4000 1.0000
vt 0.6389 0.4000 1.0000
vt 0.6944 0.4000 1.0000
vt 0.8056 0.5000 1.0000
vt 0.7500 0.5000 1.0000
vt 0.8611 0.5000 1.0000
vt 0.9167 0.5000 1.0000
vt 0.9722 0.5000 1.0000
vt 1.0278 0.5000 1.0000
vt 0.0833 0.5000 1.0000
vt 0.0278 0.5000 1.0000
vt 0.1389 0.5000 1.0000
vt 0.1944 0.5000 1.0000
vt 0.2500 0.5000 1.0000
vt 0.3056 0.5000 1.0000
vt 0.3611 0.5000 1.0000
vt 0.4167 0.5000 1.0000
vt 0.4722 0.5000 1.0000
vt 0.5278 0.5000 1.0000
vt 0.5833 0.5000 1.0000
vt 0.6389 0.5000 1.0000
vt 0.6944 0.5000 1.0000
vt 0.8056 0.6000 1.0000
vt 0.7500 0.6000 1.0000
vt 0.8611 0.6000 1.0000
vt 0.9167 0.6000 1.0000
vt 0.9722 0.6000 1.0000
vt 1.0278 0.6000 1.0000
vt 0.0833 0.6000 1.0000
vt 0.0278 0.6000 1.0000
vt 0.1389 0.6000 1.0000
vt 0.1944 0.6000 1.0000
vt 0.2500 0.6000 1.0000
vt 0.3056 0.6000 1.0000
vt 0.3611 0.6000 1.0000
vt 0.4167 0.6000 1.0000
vt 0.4722 0.6000 1.0000
vt 0.5278 0.6000 1.0000
vt 0.5833 0.6000 1.0000
vt 0.6389 0.6000 1.0000
vt 0.6944 0.6000 1.0000
vt 0.8056 0.7000 1.0000
vt 0.7500 0.7000 1.0000
vt 0.8611 0.7000 1.0000
vt 0.9167 0.7000 1.0000
vt 0.9722 0.7000 1.0000
vt 1.0278 0.7000 1.0000
vt 0.0833 0.7000 1.0000
vt 0.0278 0.7000 1.0000
vt 0.1389 0.7000 1.0000
vt 0.1944 0.7000 1.0000
vt 0.2500 0.7000 1.0000
vt 0.3056 0.7000 1.0000
vt 0.3611 0.7000 1.0000
vt 0.4167 0.7000 1.0000
vt 0.4722 0.7000 1.0000
vt 0.5278 0.7000 1.0000
vt 0.5833 0.7000 1.0000
vt 0.6389 0.7000 1.0000
vt 0.6944 0.7000 1.0000
vt 0.8056 0.8000 1.0000
vt 0.7500 0.8000 1.0000
vt 0.8611 0.8000 1.0000
vt 0.9167 0.8000 1.0000
vt 0.9722 0.8000 1.0000
vt 1.0278 0.8000 1.0000
vt 0.0833 0.8000 1.0000
vt 0.0278 0.8000 1.0000
vt 0.1389 0.8000 1.0000
vt 0.1944 0.8000 1.0000
vt 0.2500 0.8000 1.0000
vt 0.3056 0.8000 1.0000
vt 0.3611 0.8000 1.0000
vt 0.4167 0.8000 1.0000
vt 0.4722 0.8000 1.0000
vt 0.5278 0.8000 1.0000
vt 0.5833 0.8000 1.0000
vt 0.6389 0.8000 1.0000
vt 0.6944 0.8000 1.0000
vt 0.8056 0.9000 1.0000
vt 0.7500 0.9000 1.0000
vt 0.8611 0.9000 1.0000
vt 0.9167 0.9000 1.0000
vt 0.9722 0.9000 1.0000
vt 1.0278 0.9000 1.0000
vt 0.0833 0.9000 1.0000
vt 0.0278 0.9000 1.0000
vt 0.1389 0.9000 1.0000
vt 0.1944 0.9000 1.0000
vt 0.2500 0.9000 1.0000
vt 0.3056 0.9000 1.0000
vt 0.3611 0.9000 1.0000
vt 0.4167 0.9000 1.0000
vt 0.4722 0.9000 1.0000
vt 0.5278 0.9000 1.0000
vt 0.5833 0.9000 1.0000
vt 0.6389 0.9000 1.0000
vt 0.6944 0.9000 1.0000
vt 0.8056 1.0000 1.0000
vt 0.7500 1.0000 1.0000
vt 0.8611 1.0000 1.0000
vt 0.9167 1.0000 1.0000
vt 0.9722 1.0000 1.0000
vt 1.0278 1.0000 1.0000
vt 0.0833 1.0000 1.0000
vt 0.0278 1.0000 1.0000
vt 0.1389 1.0000 1.0000
vt 0.1944 1.0000 1.0000
vt 0.2500 1.0000 1.0000
vt 0.3056 1.0000 1.0000
vt 0.3611 1.0000 1.0000
vt 0.4167 1.0000 1.0000
vt 0.4722 1.0000 1.0000
vt 0.5278 1.0000 1.0000
vt 0.5833 1.0000 1.0000
vt 0.6389 1.0000 1.0000
vt 0.6944 1.0000 1.0000
vt 0.8214 0.8830 -0.2500
vt 0.9330 0.7500 -0.2500
vt 0.9924 0.5868 -0.2500
vt 0.9924 0.4132 -0.2500
vt 0.9330 0.2500 -0.2500
vt 0.8214 0.1170 -0.2500
vt 0.6710 0.0302 -0.2500
vt 0.5000 0.0000 -0.2500
vt 0.3290 0.0302 -0.2500
vt 0.1786 0.1170 -0.2500
vt 0.0670 0.2500 -0.2500
vt 0.0076 0.4132 -0.2500
vt 0.0076 0.5868 -0.2500
vt 0.0670 0.7500 -0.2500
vt 0.1786 0.8830 -0.2500
vt 0.3290 0.9698 -0.2500
vt 0.5000 1.0000 -0.2500
vt 0.6710 0.9698 -0.2500
vt 0.3290 0.9698 0.2500
vt 0.1786 0.8830 0.2500
vt 0.0670 0.7500 0.2500
vt 0.0076 0.5868 0.2500
vt 0.0076 0.4132 0.2500
vt 0.0670 0.2500 0.2500
vt 0.1786 0.1170 0.2500
vt 0.3290 0.0302 0.2500
vt 0.5000 0.0000 0.2500
vt 0.6710 0.0302 0.2500
vt 0.8214 0.1170 0.2500
vt 0.9330 0.2500 0.2500
vt 0.9924 0.4132 0.2500
vt 0.9924 0.5868 0.2500
vt 0.9330 0.7500 0.2500
vt 0.8214 0.8830 0.2500
vt 0.6710 0.9698 0.2500
vt 0.5000 1.0000 0.2500
# 245 texture coords

g Cylinder001
usemtl 08___Default
s 8
f 1/1/1 2/2/2 3/3/3 
f 3/3/3 4/4/4 1/1/1 
f 2/2/2 5/5/5 6/6/6 
f 6/6/6 3/3/3 2/2/2 
f 5/5/5 7/7/7 8/8/8 
f 8/8/8 6/6/6 5/5/5 
f 7/7/7 9/9/9 10/10/10 
f 10/10/10 8/8/8 7/7/7 
f 9/9/9 11/11/11 12/12/12 
f 12/12/12 10/10/10 9/9/9 
f 11/13/11 13/14/13 14/15/14 
f 14/15/14 12/16/12 11/13/11 
f 13/14/13 15/17/15 16/18/16 
f 16/18/16 14/15/14 13/14/13 
f 15/17/15 17/19/17 18/20/18 
f 18/20/18 16/18/16 15/17/15 
f 17/19/17 19/21/19 20/22/20 
f 20/22/20 18/20/18 17/19/17 
f 19/21/19 21/23/21 22/24/22 
f 22/24/22 20/22/20 19/21/19 
f 21/23/21 23/25/23 24/26/24 
f 24/26/24 22/24/22 21/23/21 
f 23/25/23 25/27/25 26/28/26 
f 26/28/26 24/26/24 23/25/23 
f 25/27/25 27/29/27 28/30/28 
f 28/30/28 26/28/26 25/27/25 
f 27/29/27 29/31/29 30/32/30 
f 30/32/30 28/30/28 27/29/27 
f 29/31/29 31/33/31 32/34/32 
f 32/34/32 30/32/30 29/31/29 
f 31/33/31 33/35/33 34/36/34 
f 34/36/34 32/34/32 31/33/31 
f 33/35/33 35/37/35 36/38/36 
f 36/38/36 34/36/34 33/35/33 
f 35/37/35 1/1/1 4/4/4 
f 4/4/4 36/38/36 35/37/35 
f 4/4/4 3/3/3 37/39/37 
f 37/39/37 38/40/38 4/4/4 
f 3/3/3 6/6/6 39/41/39 
f 39/41/39 37/39/37 3/3/3 
usemtl 07___Default
f 6/6/6 8/8/8 40/42/40 
f 40/42/40 39/41/39 6/6/6 
f 8/8/8 10/10/10 41/43/41 
f 41/43/41 40/42/40 8/8/8 
f 10/10/10 12/12/12 42/44/42 
f 42/44/42 41/43/41 10/10/10 
f 12/16/12 14/15/14 43/45/43 
f 43/45/43 42/46/42 12/16/12 
f 14/15/14 16/18/16 44/47/44 
f 44/47/44 43/45/43 14/15/14 
usemtl 08___Default
f 16/18/16 18/20/18 45/48/45 
f 45/48/45 44/47/44 16/18/16 
f 18/20/18 20/22/20 46/49/46 
f 46/49/46 45/48/45 18/20/18 
f 20/22/20 22/24/22 47/50/47 
f 47/50/47 46/49/46 20/22/20 
f 22/24/22 24/26/24 48/51/48 
f 48/51/48 47/50/47 22/24/22 
f 24/26/24 26/28/26 49/52/49 
f 49/52/49 48/51/48 24/26/24 
f 26/28/26 28/30/28 50/53/50 
f 50/53/50 49/52/49 26/28/26 
f 28/30/28 30/32/30 51/54/51 
f 51/54/51 50/53/50 28/30/28 
f 30/32/30 32/34/32 52/55/52 
f 52/55/52 51/54/51 30/32/30 
f 32/34/32 34/36/34 53/56/53 
f 53/56/53 52/55/52 32/34/32 
f 34/36/34 36/38/36 54/57/54 
f 54/57/54 53/56/53 34/36/34 
f 36/38/36 4/4/4 38/40/38 
f 38/40/38 54/57/54 36/38/36 
f 38/40/38 37/39/37 55/58/55 
f 55/58/55 56/59/56 38/40/38 
f 37/39/37 39/41/39 57/60/57 
f 57/60/57 55/58/55 37/39/37 
usemtl 07___Default
f 39/41/39 40/42/40 58/61/58 
f 58/61/58 57/60/57 39/41/39 
f 40/42/40 41/43/41 59/62/59 
f 59/62/59 58/61/58 40/42/40 
f 41/43/41 42/44/42 60/63/60 
f 60/63/60 59/62/59 41/43/41 
f 42/46/42 43/45/43 61/64/61 
f 61/64/61 60/65/60 42/46/42 
f 43/45/43 44/47/44 62/66/62 
f 62/66/62 61/64/61 43/45/43 
usemtl 08___Default
f 44/47/44 45/48/45 63/67/63 
f 63/67/63 62/66/62 44/47/44 
f 45/48/45 46/49/46 64/68/64 
f 64/68/64 63/67/63 45/48/45 
f 46/49/46 47/50/47 65/69/65 
f 65/69/65 64/68/64 46/49/46 
f 47/50/47 48/51/48 66/70/66 
f 66/70/66 65/69/65 47/50/47 
f 48/51/48 49/52/49 67/71/67 
f 67/71/67 66/70/66 48/51/48 
f 49/52/49 50/53/50 68/72/68 
f 68/72/68 67/71/67 49/52/49 
f 50/53/50 51/54/51 69/73/69 
f 69/73/69 68/72/68 50/53/50 
f 51/54/51 52/55/52 70/74/70 
f 70/74/70 69/73/69 51/54/51 
f 52/55/52 53/56/53 71/75/71 
f 71/75/71 70/74/70 52/55/52 
f 53/56/53 54/57/54 72/76/72 
f 72/76/72 71/75/71 53/56/53 
f 54/57/54 38/40/38 56/59/56 
f 56/59/56 72/76/72 54/57/54 
f 56/59/56 55/58/55 73/77/73 
f 73/77/73 74/78/74 56/59/56 
f 55/58/55 57/60/57 75/79/75 
f 75/79/75 73/77/73 55/58/55 
usemtl 07___Default
f 57/60/57 58/61/58 76/80/76 
f 76/80/76 75/79/75 57/60/57 
f 58/61/58 59/62/59 77/81/77 
f 77/81/77 76/80/76 58/61/58 
f 59/62/59 60/63/60 78/82/78 
f 78/82/78 77/81/77 59/62/59 
f 60/65/60 61/64/61 79/83/79 
f 79/83/79 78/84/78 60/65/60 
f 61/64/61 62/66/62 80/85/80 
f 80/85/80 79/83/79 61/64/61 
usemtl 08___Default
f 62/66/62 63/67/63 81/86/81 
f 81/86/81 80/85/80 62/66/62 
f 63/67/63 64/68/64 82/87/82 
f 82/87/82 81/86/81 63/67/63 
f 64/68/64 65/69/65 83/88/83 
f 83/88/83 82/87/82 64/68/64 
f 65/69/65 66/70/66 84/89/84 
f 84/89/84 83/88/83 65/69/65 
f 66/70/66 67/71/67 85/90/85 
f 85/90/85 84/89/84 66/70/66 
f 67/71/67 68/72/68 86/91/86 
f 86/91/86 85/90/85 67/71/67 
f 68/72/68 69/73/69 87/92/87 
f 87/92/87 86/91/86 68/72/68 
f 69/73/69 70/74/70 88/93/88 
f 88/93/88 87/92/87 69/73/69 
f 70/74/70 71/75/71 89/94/89 
f 89/94/89 88/93/88 70/74/70 
f 71/75/71 72/76/72 90/95/90 
f 90/95/90 89/94/89 71/75/71 
f 72/76/72 56/59/56 74/78/74 
f 74/78/74 90/95/90 72/76/72 
f 74/78/74 73/77/73 91/96/91 
f 91/96/91 92/97/92 74/78/74 
f 73/77/73 75/79/75 93/98/93 
f 93/98/93 91/96/91 73/77/73 
usemtl 07___Default
f 75/79/75 76/80/76 94/99/94 
f 94/99/94 93/98/93 75/79/75 
f 76/80/76 77/81/77 95/100/95 
f 95/100/95 94/99/94 76/80/76 
f 77/81/77 78/82/78 96/101/96 
f 96/101/96 95/100/95 77/81/77 
f 78/84/78 79/83/79 97/102/97 
f 97/102/97 96/103/96 78/84/78 
f 79/83/79 80/85/80 98/104/98 
f 98/104/98 97/102/97 79/83/79 
usemtl 08___Default
f 80/85/80 81/86/81 99/105/99 
f 99/105/99 98/104/98 80/85/80 
f 81/86/81 82/87/82 100/106/100 
f 100/106/100 99/105/99 81/86/81 
f 82/87/82 83/88/83 101/107/101 
f 101/107/101 100/106/100 82/87/82 
f 83/88/83 84/89/84 102/108/102 
f 102/108/102 101/107/101 83/88/83 
f 84/89/84 85/90/85 103/109/103 
f 103/109/103 102/108/102 84/89/84 
f 85/90/85 86/91/86 104/110/104 
f 104/110/104 103/109/103 85/90/85 
f 86/91/86 87/92/87 105/111/105 
f 105/111/105 104/110/104 86/91/86 
f 87/92/87 88/93/88 106/112/106 
f 106/112/106 105/111/105 87/92/87 
f 88/93/88 89/94/89 107/113/107 
f 107/113/107 106/112/106 88/93/88 
f 89/94/89 90/95/90 108/114/108 
f 108/114/108 107/113/107 89/94/89 
f 90/95/90 74/78/74 92/97/92 
f 92/97/92 108/114/108 90/95/90 
f 92/97/92 91/96/91 109/115/109 
f 109/115/109 110/116/110 92/97/92 
f 91/96/91 93/98/93 111/117/111 
f 111/117/111 109/115/109 91/96/91 
usemtl 07___Default
f 93/98/93 94/99/94 112/118/112 
f 112/118/112 111/117/111 93/98/93 
f 94/99/94 95/100/95 113/119/113 
f 113/119/113 112/118/112 94/99/94 
f 95/100/95 96/101/96 114/120/114 
f 114/120/114 113/119/113 95/100/95 
f 96/103/96 97/102/97 115/121/115 
f 115/121/115 114/122/114 96/103/96 
f 97/102/97 98/104/98 116/123/116 
f 116/123/116 115/121/115 97/102/97 
usemtl 08___Default
f 98/104/98 99/105/99 117/124/117 
f 117/124/117 116/123/116 98/104/98 
f 99/105/99 100/106/100 118/125/118 
f 118/125/118 117/124/117 99/105/99 
f 100/106/100 101/107/101 119/126/119 
f 119/126/119 118/125/118 100/106/100 
f 101/107/101 102/108/102 120/127/120 
f 120/127/120 119/126/119 101/107/101 
f 102/108/102 103/109/103 121/128/121 
f 121/128/121 120/127/120 102/108/102 
f 103/109/103 104/110/104 122/129/122 
f 122/129/122 121/128/121 103/109/103 
f 104/110/104 105/111/105 123/130/123 
f 123/130/123 122/129/122 104/110/104 
f 105/111/105 106/112/106 124/131/124 
f 124/131/124 123/130/123 105/111/105 
f 106/112/106 107/113/107 125/132/125 
f 125/132/125 124/131/124 106/112/106 
f 107/113/107 108/114/108 126/133/126 
f 126/133/126 125/132/125 107/113/107 
f 108/114/108 92/97/92 110/116/110 
f 110/116/110 126/133/126 108/114/108 
f 110/116/110 109/115/109 127/134/127 
f 127/134/127 128/135/128 110/116/110 
f 109/115/109 111/117/111 129/136/129 
f 129/136/129 127/134/127 109/115/109 
f 111/117/111 112/118/112 130/137/130 
f 130/137/130 129/136/129 111/117/111 
f 112/118/112 113/119/113 131/138/131 
f 131/138/131 130/137/130 112/118/112 
f 113/119/113 114/120/114 132/139/132 
f 132/139/132 131/138/131 113/119/113 
f 114/122/114 115/121/115 133/140/133 
f 133/140/133 132/141/132 114/122/114 
f 115/121/115 116/123/116 134/142/134 
f 134/142/134 133/140/133 115/121/115 
f 116/123/116 117/124/117 135/143/135 
f 135/143/135 134/142/134 116/123/116 
f 117/124/117 118/125/118 136/144/136 
f 136/144/136 135/143/135 117/124/117 
f 118/125/118 119/126/119 137/145/137 
f 137/145/137 136/144/136 118/125/118 
f 119/126/119 120/127/120 138/146/138 
f 138/146/138 137/145/137 119/126/119 
f 120/127/120 121/128/121 139/147/139 
f 139/147/139 138/146/138 120/127/120 
f 121/128/121 122/129/122 140/148/140 
f 140/148/140 139/147/139 121/128/121 
f 122/129/122 123/130/123 141/149/141 
f 141/149/141 140/148/140 122/129/122 
f 123/130/123 124/131/124 142/150/142 
f 142/150/142 141/149/141 123/130/123 
f 124/131/124 125/132/125 143/151/143 
f 143/151/143 142/150/142 124/131/124 
f 125/132/125 126/133/126 144/152/144 
f 144/152/144 143/151/143 125/132/125 
f 126/133/126 110/116/110 128/135/128 
f 128/135/128 144/152/144 126/133/126 
f 128/135/128 127/134/127 145/153/145 
f 145/153/145 146/154/146 128/135/128 
f 127/134/127 129/136/129 147/155/147 
f 147/155/147 145/153/145 127/134/127 
f 129/136/129 130/137/130 148/156/148 
f 148/156/148 147/155/147 129/136/129 
f 130/137/130 131/138/131 149/157/149 
f 149/157/149 148/156/148 130/137/130 
f 131/138/131 132/139/132 150/158/150 
f 150/158/150 149/157/149 131/138/131 
f 132/141/132 133/140/133 151/159/151 
f 151/159/151 150/160/150 132/141/132 
f 133/140/133 134/142/134 152/161/152 
f 152/161/152 151/159/151 133/140/133 
f 134/142/134 135/143/135 153/162/153 
f 153/162/153 152/161/152 134/142/134 
f 135/143/135 136/144/136 154/163/154 
f 154/163/154 153/162/153 135/143/135 
f 136/144/136 137/145/137 155/164/155 
f 155/164/155 154/163/154 136/144/136 
f 137/145/137 138/146/138 156/165/156 
f 156/165/156 155/164/155 137/145/137 
f 138/146/138 139/147/139 157/166/157 
f 157/166/157 156/165/156 138/146/138 
f 139/147/139 140/148/140 158/167/158 
f 158/167/158 157/166/157 139/147/139 
f 140/148/140 141/149/141 159/168/159 
f 159/168/159 158/167/158 140/148/140 
f 141/149/141 142/150/142 160/169/160 
f 160/169/160 159/168/159 141/149/141 
f 142/150/142 143/151/143 161/170/161 
f 161/170/161 160/169/160 142/150/142 
f 143/151/143 144/152/144 162/171/162 
f 162/171/162 161/170/161 143/151/143 
f 144/152/144 128/135/128 146/154/146 
f 146/154/146 162/171/162 144/152/144 
f 146/154/146 145/153/145 163/172/163 
f 163/172/163 164/173/164 146/154/146 
f 145/153/145 147/155/147 165/174/165 
f 165/174/165 163/172/163 145/153/145 
f 147/155/147 148/156/148 166/175/166 
f 166/175/166 165/174/165 147/155/147 
f 148/156/148 149/157/149 167/176/167 
f 167/176/167 166/175/166 148/156/148 
f 149/157/149 150/158/150 168/177/168 
f 168/177/168 167/176/167 149/157/149 
f 150/160/150 151/159/151 169/178/169 
f 169/178/169 168/179/168 150/160/150 
f 151/159/151 152/161/152 170/180/170 
f 170/180/170 169/178/169 151/159/151 
f 152/161/152 153/162/153 171/181/171 
f 171/181/171 170/180/170 152/161/152 
f 153/162/153 154/163/154 172/182/172 
f 172/182/172 171/181/171 153/162/153 
f 154/163/154 155/164/155 173/183/173 
f 173/183/173 172/182/172 154/163/154 
f 155/164/155 156/165/156 174/184/174 
f 174/184/174 173/183/173 155/164/155 
f 156/165/156 157/166/157 175/185/175 
f 175/185/175 174/184/174 156/165/156 
f 157/166/157 158/167/158 176/186/176 
f 176/186/176 175/185/175 157/166/157 
f 158/167/158 159/168/159 177/187/177 
f 177/187/177 176/186/176 158/167/158 
f 159/168/159 160/169/160 178/188/178 
f 178/188/178 177/187/177 159/168/159 
f 160/169/160 161/170/161 179/189/179 
f 179/189/179 178/188/178 160/169/160 
f 161/170/161 162/171/162 180/190/180 
f 180/190/180 179/189/179 161/170/161 
f 162/171/162 146/154/146 164/173/164 
f 164/173/164 180/190/180 162/171/162 
f 164/173/164 163/172/163 181/191/181 
f 181/191/181 182/192/182 164/173/164 
f 163/172/163 165/174/165 183/193/183 
f 183/193/183 181/191/181 163/172/163 
f 165/174/165 166/175/166 184/194/184 
f 184/194/184 183/193/183 165/174/165 
f 166/175/166 167/176/167 185/195/185 
f 185/195/185 184/194/184 166/175/166 
f 167/176/167 168/177/168 186/196/186 
f 186/196/186 185/195/185 167/176/167 
f 168/179/168 169/178/169 187/197/187 
f 187/197/187 186/198/186 168/179/168 
f 169/178/169 170/180/170 188/199/188 
f 188/199/188 187/197/187 169/178/169 
f 170/180/170 171/181/171 189/200/189 
f 189/200/189 188/199/188 170/180/170 
f 171/181/171 172/182/172 190/201/190 
f 190/201/190 189/200/189 171/181/171 
f 172/182/172 173/183/173 191/202/191 
f 191/202/191 190/201/190 172/182/172 
f 173/183/173 174/184/174 192/203/192 
f 192/203/192 191/202/191 173/183/173 
f 174/184/174 175/185/175 193/204/193 
f 193/204/193 192/203/192 174/184/174 
f 175/185/175 176/186/176 194/205/194 
f 194/205/194 193/204/193 175/185/175 
f 176/186/176 177/187/177 195/206/195 
f 195/206/195 194/205/194 176/186/176 
f 177/187/177 178/188/178 196/207/196 
f 196/207/196 195/206/195 177/187/177 
f 178/188/178 179/189/179 197/208/197 
f 197/208/197 196/207/196 178/188/178 
f 179/189/179 180/190/180 198/209/198 
f 198/209/198 197/208/197 179/189/179 
f 180/190/180 164/173/164 182/192/182 
f 182/192/182 198/209/198 180/190/180 
s 1
f 33/210/199 31/211/199 29/212/199 
f 29/212/199 27/213/199 25/214/199 
f 25/214/199 23/215/199 21/216/199 
f 29/212/199 25/214/199 21/216/199 
f 21/216/199 19/217/199 17/218/199 
f 17/218/199 15/219/199 13/220/199 
f 21/216/199 17/218/199 13/220/199 
f 13/220/199 11/221/199 9/222/199 
f 9/222/199 7/223/199 5/224/199 
f 13/220/199 9/222/199 5/224/199 
f 21/216/199 13/220/199 5/224/199 
f 29/212/199 21/216/199 5/224/199 
f 5/224/199 2/225/199 1/226/199 
f 29/212/199 5/224/199 1/226/199 
f 33/210/199 29/212/199 1/226/199 
f 35/227/199 33/210/199 1/226/199 
f 181/228/200 183/229/200 184/230/200 
f 184/230/200 185/231/200 186/232/200 
f 186/232/200 187/233/200 188/234/200 
f 184/230/200 186/232/200 188/234/200 
f 188/234/200 189/235/200 190/236/200 
f 190/236/200 191/237/200 192/238/200 
f 188/234/200 190/236/200 192/238/200 
f 192/238/200 193/239/200 194/240/200 
f 194/240/200 195/241/200 196/242/200 
f 192/238/200 194/240/200 196/242/200 
f 188/234/200 192/238/200 196/242/200 
f 184/230/200 188/234/200 196/242/200 
f 196/242/200 197/243/200 198/244/200 
f 184/230/200 196/242/200 198/244/200 
f 181/228/200 184/230/200 198/244/200 
f 182/245/200 181/228/200 198/244/200 
# 392 faces

