# 3ds Max Wavefront OBJ Exporter v0.97b - (c)2007 guruware
# File Created: 09.11.2016 13:29:15

mtllib Cabinet_Olesia.mtl

#
# object Line002
#

v  -287.6696 166.0244 -677.2367
v  -287.6696 166.0244 -711.3500
v  -287.6696 373.4982 -605.7418
v  -287.6695 2022.6001 -330.6315
v  -287.6695 2029.8867 -350.0269
v  -287.6695 2006.3254 -382.7740
v  -287.6695 2085.4709 -256.2388
v  -287.6695 1949.4470 -179.3584
v  -287.6695 2165.5928 -114.1951
v  -287.6695 1871.9121 -61.0387
v  -287.6695 2246.3423 40.2074
v  -287.6695 1787.1396 27.3902
v  -287.6694 2327.5271 203.9235
v  -287.6694 2409.0425 373.9811
v  -287.6694 2458.3037 478.4661
v  -287.6694 2375.2959 542.7208
v  -287.6694 2234.5298 646.5328
v  -287.6695 1693.1716 86.0336
v  -287.6694 2097.5234 737.4072
v  -287.6694 1965.9905 809.6778
v  -287.6695 1592.8315 113.2641
v  -287.6694 1842.2313 858.2795
v  -287.6694 1728.4995 879.7034
v  -287.6694 1624.5034 872.4142
v  -287.6695 1513.6216 828.9450
v  -287.6695 1384.8352 746.8818
v  -287.6695 1483.8889 111.6688
v  -287.6695 1244.5516 639.4122
v  -287.6695 1370.9771 61.6255
v  -287.6695 1098.0912 522.7955
v  -287.6695 947.8450 412.7739
v  -287.6695 1253.9463 -30.7868
v  -287.6695 792.9905 324.8871
v  -287.6695 1113.2559 -150.2447
v  -287.6695 634.7719 280.2650
v  -287.6695 929.4586 -291.4869
v  -287.6695 487.6727 284.8523
v  -287.6695 -4.5028 657.5671
v  -287.6695 166.0244 510.7072
v  -287.6696 166.0244 269.2875
v  -287.6695 70.3543 559.1241
v  -287.6696 153.4511 466.6859
v  -287.6695 248.6800 385.4575
v  -287.6696 166.5568 222.8478
v  -287.6695 359.6339 322.1482
v  -287.6696 167.2905 155.1794
v  -287.6696 167.9774 83.9958
v  -287.6696 168.5795 8.5064
v  -287.6696 169.0568 -71.9537
v  -287.6696 169.3697 -157.8940
v  -287.6696 687.5427 -446.4514
v  -287.6696 169.4814 -249.7267
v  -287.6696 169.3684 -339.3437
v  -287.6696 169.0436 -419.1478
v  -287.6696 168.5359 -490.0447
v  -287.6696 167.8863 -552.7026
v  -287.6696 167.1468 -607.9359
v  -287.6696 166.3725 -656.9448
v  -468.6295 72.2741 713.6229
v  -468.6295 3.3519 811.9897
v  467.3705 3.3518 811.9896
v  467.3705 72.2740 713.6228
v  -468.6296 3.3519 248.9275
v  467.3705 3.3518 248.9275
v  -468.6296 32.1474 184.8000
v  467.3705 32.1473 184.8000
v  -468.6296 59.7595 119.7854
v  467.3705 59.7594 119.7854
v  -468.6296 85.0049 52.9965
v  467.3705 85.0048 52.9965
v  -468.6296 106.7001 -16.4537
v  467.3705 106.7001 -16.4538
v  -468.6296 123.6617 -89.4525
v  467.3705 123.6617 -89.4526
v  -468.6296 134.7066 -166.8870
v  467.3705 134.7066 -166.8870
v  -468.6296 138.6513 -249.6441
v  467.3705 138.6512 -249.6442
v  -468.6296 134.7066 -329.4875
v  467.3705 134.7066 -329.4875
v  -468.6296 123.6619 -398.7632
v  467.3705 123.6618 -398.7632
v  -468.6296 106.7001 -459.2326
v  467.3705 106.7001 -459.2326
v  -468.6296 85.0050 -512.6569
v  467.3705 85.0049 -512.6569
v  -468.6296 59.7594 -560.7974
v  467.3705 59.7593 -560.7974
v  -468.6296 32.1474 -605.4151
v  467.3705 32.1473 -605.4152
v  -468.6296 3.3519 -648.2718
v  467.3705 3.3518 -648.2719
v  -468.6296 3.3519 -849.6442
v  467.3705 3.3518 -849.6442
v  -468.6296 412.1289 -692.7196
v  467.3705 412.1289 -692.7197
v  -468.6296 734.7920 -529.0576
v  467.3705 734.7920 -529.0576
v  -468.6295 984.1486 -369.3268
v  467.3705 984.1486 -369.3268
v  -468.6295 1173.0068 -224.1955
v  467.3705 1173.0068 -224.1956
v  -468.6295 1314.1748 -104.3321
v  467.3705 1314.1748 -104.3321
v  -468.6295 1420.4602 -20.4047
v  467.3705 1420.4602 -20.4048
v  -468.6295 1504.6710 16.9181
v  467.3705 1504.6710 16.9181
v  -468.6295 1580.8481 18.0336
v  467.3705 1580.8481 18.0336
v  -468.6295 1654.7466 -2.0211
v  467.3705 1654.7463 -2.0212
v  -468.6295 1726.7462 -46.9546
v  467.3705 1726.7462 -46.9547
v  -468.6295 1797.2268 -120.4752
v  467.3705 1797.2267 -120.4752
v  -468.6295 1866.5681 -226.2914
v  467.3705 1866.5680 -226.2915
v  -468.6295 1935.1500 -368.1116
v  467.3705 1935.1499 -368.1116
v  -468.6295 2003.3519 -549.6442
v  467.3705 2003.3518 -549.6442
v  -468.6295 2085.2734 -435.7852
v  467.3705 2085.2734 -435.7852
v  -468.6295 2167.1951 -304.8121
v  467.3706 2167.1951 -304.8122
v  -468.6295 2249.1167 -159.5774
v  467.3706 2249.1167 -159.5775
v  -468.6295 2331.0383 -2.9334
v  467.3706 2331.0383 -2.9334
v  -468.6295 2412.9597 162.2677
v  467.3706 2412.9597 162.2676
v  -468.6295 2494.8813 333.1734
v  467.3706 2494.8813 333.1734
v  -468.6294 2576.8030 506.9315
v  467.3706 2576.8030 506.9315
v  -468.6294 2432.5991 618.5568
v  467.3706 2432.5991 618.5568
v  -468.6295 2289.0376 724.4303
v  467.3706 2289.0376 724.4302
v  -468.6295 2146.7610 818.8004
v  467.3706 2146.7610 818.8003
v  -468.6295 2006.4117 895.9150
v  467.3706 2006.4117 895.9150
v  -468.6295 1868.6322 950.0227
v  467.3706 1868.6322 950.0226
v  -468.6295 1734.0648 975.3716
v  467.3706 1734.0647 975.3715
v  -468.6295 1603.3519 966.2097
v  467.3706 1603.3518 966.2097
v  -468.6295 1470.3342 914.0626
v  467.3706 1470.3342 914.0625
v  -468.6295 1330.2954 824.8294
v  467.3706 1330.2954 824.8293
v  -468.6295 1186.0446 714.3203
v  467.3706 1186.0444 714.3202
v  -468.6295 1040.3895 598.3450
v  467.3705 1040.3894 598.3450
v  -468.6295 896.1384 492.7135
v  467.3705 896.1384 492.7134
v  -468.6295 756.0999 413.2354
v  467.3705 756.0999 413.2353
v  -468.6295 623.0820 375.7206
v  467.3705 623.0820 375.7205
v  -468.6295 502.6818 379.4753
v  467.3705 502.6818 379.4753
v  -468.6295 396.9895 410.2620
v  467.3705 396.9895 410.2619
v  -468.6295 303.5540 463.5755
v  467.3705 303.5539 463.5754
v  -468.6295 219.9237 534.9103
v  467.3705 219.9237 534.9103
v  -468.6295 143.6475 619.7613
v  467.3705 143.6474 619.7613
v  467.3705 166.0243 453.6481
v  467.3705 -4.5029 657.5671
v  467.3705 166.0243 269.2875
v  467.3705 166.5567 222.8478
v  467.3705 167.2904 155.1794
v  467.3705 167.9774 83.9957
v  467.3705 168.5794 8.5064
v  467.3705 169.0567 -71.9538
v  467.3705 169.3697 -157.8941
v  467.3705 169.4814 -249.7267
v  467.3705 169.3684 -339.3437
v  467.3705 169.0435 -419.1478
v  467.3705 168.5358 -490.0448
v  467.3705 167.8862 -552.7026
v  467.3705 167.1468 -607.9359
v  467.3705 166.3724 -656.9449
v  467.3705 166.0243 -677.2368
v  467.3705 166.0243 -711.3501
v  467.3705 373.4981 -605.7419
v  467.3705 687.5427 -446.4514
v  467.3705 929.4586 -291.4870
v  467.3705 1113.2559 -150.2448
v  467.3705 1253.9463 -30.7868
v  467.3705 1370.9771 61.6255
v  467.3705 1483.8887 111.6688
v  467.3705 1592.8314 113.2641
v  467.3706 1693.1716 86.0335
v  467.3706 1787.1396 27.3901
v  467.3706 1871.9119 -61.0387
v  467.3706 1949.4469 -179.3585
v  467.3705 2022.6000 -330.6315
v  467.3705 2036.0500 -360.6679
v  467.3705 2006.3254 -382.7740
v  467.3706 2085.4709 -256.2388
v  467.3706 2165.5928 -114.1952
v  467.3706 2246.3423 40.2074
v  467.3706 2327.5271 203.9234
v  467.3706 2409.0425 373.9810
v  467.3706 2458.3037 478.4660
v  467.3706 2375.2959 542.7207
v  467.3706 2234.5298 646.5327
v  467.3706 2097.5234 737.4071
v  467.3706 1965.9902 809.6777
v  467.3706 1842.2312 858.2794
v  467.3706 1728.4995 879.7034
v  467.3706 1624.5034 872.4142
v  467.3706 1513.6216 828.9449
v  467.3706 1384.8352 746.8818
v  467.3706 1244.5515 639.4121
v  467.3705 1098.0911 522.7955
v  467.3705 947.8450 412.7739
v  467.3705 792.9904 324.8871
v  467.3705 634.7719 280.2650
v  467.3705 487.6727 284.8522
v  467.3705 359.6339 322.1482
v  467.3705 248.6800 385.4575
v  467.3705 153.4510 466.6859
v  467.3705 70.3542 559.1241
# 232 vertices

vn 1.0000 -0.0000 -0.0000
vn -1.0000 0.0000 0.0000
vn 0.0000 0.8190 0.5738
vn -0.0000 -1.0000 0.0000
vn -0.0000 -0.9123 -0.4096
vn -0.0000 -0.9204 -0.3909
vn -0.0000 -0.9354 -0.3536
vn -0.0000 -0.9545 -0.2982
vn -0.0000 -0.9741 -0.2263
vn -0.0000 -0.9900 -0.1412
vn -0.0000 -0.9989 -0.0476
vn -0.0000 -0.9988 0.0493
vn -0.0000 -0.9875 0.1574
vn -0.0000 -0.9628 0.2701
vn -0.0000 -0.9265 0.3763
vn -0.0000 -0.8856 0.4644
vn -0.0000 -0.8503 0.5262
vn -0.0000 -0.8300 0.5577
vn -0.0000 0.3584 -0.9336
vn -0.0000 0.4524 -0.8918
vn -0.0000 0.5394 -0.8421
vn -0.0000 0.6093 -0.7929
vn -0.0000 0.6472 -0.7623
vn -0.0000 0.6197 -0.7848
vn -0.0000 0.4052 -0.9142
vn -0.0000 0.0146 -0.9999
vn -0.0000 -0.2619 -0.9651
vn -0.0000 -0.5294 -0.8483
vn -0.0000 -0.7219 -0.6920
vn -0.0000 -0.8364 -0.5481
vn -0.0000 -0.9003 -0.4354
vn -0.0000 -0.9361 -0.3517
vn 0.0000 0.8117 -0.5840
vn 0.0000 0.8478 -0.5303
vn 0.0000 0.8710 -0.4913
vn 0.0000 0.8861 -0.4634
vn 0.0000 0.8959 -0.4443
vn 0.0000 0.9018 -0.4322
vn 0.0000 0.9045 -0.4264
vn 0.0000 0.6121 0.7908
vn 0.0000 0.5935 0.8048
vn 0.0000 0.5527 0.8333
vn 0.0000 0.4815 0.8764
vn 0.0000 0.3655 0.9308
vn 0.0000 0.1851 0.9827
vn 0.0000 -0.0699 0.9976
vn 0.0000 -0.3650 0.9310
vn 0.0000 -0.5374 0.8433
vn 0.0000 -0.6081 0.7938
vn 0.0000 -0.6229 0.7823
vn 0.0000 -0.5908 0.8068
vn 0.0000 -0.4936 0.8697
vn 0.0000 -0.2714 0.9625
vn 0.0000 0.0312 0.9995
vn 0.0000 0.2797 0.9601
vn 0.0000 0.4956 0.8686
vn 0.0000 0.6490 0.7608
vn 0.0000 0.7437 0.6685
vn 0.0000 0.7960 0.6053
vn 0.0484 0.7662 0.6408
vn 0.0000 0.6526 0.7577
vn 0.0000 1.0000 -0.0000
vn 0.0000 0.9999 0.0115
vn 0.0000 0.9999 0.0108
vn 0.0000 1.0000 0.0096
vn 0.0000 1.0000 0.0080
vn 0.0000 1.0000 0.0059
vn 0.0000 1.0000 0.0036
vn 0.0000 1.0000 0.0012
vn 0.0000 1.0000 -0.0013
vn 0.0000 1.0000 -0.0041
vn 0.0000 1.0000 -0.0072
vn 0.0000 0.9999 -0.0104
vn 0.0000 0.9999 -0.0134
vn 0.0000 0.9999 -0.0158
vn 0.0000 0.9999 -0.0171
vn 0.0000 -0.4536 0.8912
vn 0.0000 -0.4524 0.8918
vn 0.0000 -0.5394 0.8421
vn 0.0000 -0.6093 0.7929
vn 0.0000 -0.6472 0.7623
vn 0.0000 -0.6197 0.7848
vn 0.0000 -0.4052 0.9142
vn 0.0000 -0.0146 0.9999
vn 0.0000 0.2619 0.9651
vn 0.0000 0.5294 0.8483
vn 0.0000 0.7219 0.6920
vn 0.0000 0.8364 0.5481
vn 0.0000 0.9003 0.4354
vn -0.0017 0.9127 0.4087
vn 0.0000 0.9361 0.3517
vn -0.0000 0.5968 -0.8024
vn -0.0149 0.8116 -0.5840
vn -0.0000 -0.8478 0.5303
vn -0.0000 -0.8710 0.4913
vn -0.0000 -0.8861 0.4634
vn -0.0000 -0.8959 0.4443
vn -0.0000 -0.9018 0.4322
vn -0.0000 -0.9045 0.4264
vn -0.0000 -0.6121 -0.7908
vn -0.0000 -0.5935 -0.8048
vn -0.0000 -0.5527 -0.8333
vn -0.0000 -0.4815 -0.8764
vn -0.0000 -0.3655 -0.9308
vn -0.0000 -0.1851 -0.9827
vn -0.0000 0.0699 -0.9976
vn -0.0000 0.3650 -0.9310
vn -0.0000 0.5374 -0.8433
vn -0.0000 0.6081 -0.7938
vn -0.0000 0.6229 -0.7823
vn -0.0000 0.5908 -0.8068
vn -0.0000 0.4936 -0.8697
vn -0.0000 0.2714 -0.9625
vn -0.0000 -0.0312 -0.9995
vn -0.0000 -0.2797 -0.9601
vn -0.0000 -0.4956 -0.8686
vn -0.0000 -0.6490 -0.7608
vn -0.0000 -0.7437 -0.6685
vn -0.0000 -0.7960 -0.6053
# 119 vertex normals

vt 0.0349 0.3770 0.0000
vt 0.0349 0.3701 0.0000
vt 0.0767 0.3914 0.0000
vt 0.4090 0.4469 0.0000
vt 0.4105 0.4429 0.0000
vt 0.4057 0.4363 0.0000
vt 0.4217 0.4618 0.0000
vt 0.3943 0.4773 0.0000
vt 0.4378 0.4905 0.0000
vt 0.3786 0.5012 0.0000
vt 0.4541 0.5216 0.0000
vt 0.3615 0.5190 0.0000
vt 0.4704 0.5546 0.0000
vt 0.4869 0.5888 0.0000
vt 0.4968 0.6099 0.0000
vt 0.4801 0.6228 0.0000
vt 0.4517 0.6438 0.0000
vt 0.3426 0.5308 0.0000
vt 0.4241 0.6621 0.0000
vt 0.3976 0.6766 0.0000
vt 0.3224 0.5363 0.0000
vt 0.3727 0.6864 0.0000
vt 0.3497 0.6908 0.0000
vt 0.3288 0.6893 0.0000
vt 0.3064 0.6805 0.0000
vt 0.2805 0.6640 0.0000
vt 0.3004 0.5360 0.0000
vt 0.2522 0.6423 0.0000
vt 0.2777 0.5259 0.0000
vt 0.2227 0.6188 0.0000
vt 0.1924 0.5967 0.0000
vt 0.2541 0.5073 0.0000
vt 0.1612 0.5790 0.0000
vt 0.2257 0.4832 0.0000
vt 0.1293 0.5700 0.0000
vt 0.1887 0.4547 0.0000
vt 0.0997 0.5709 0.0000
vt 0.0005 0.6460 0.0000
vt 0.0349 0.6164 0.0000
vt 0.0349 0.5677 0.0000
vt 0.0156 0.6262 0.0000
vt 0.0323 0.6075 0.0000
vt 0.0515 0.5912 0.0000
vt 0.0350 0.5584 0.0000
vt 0.0739 0.5784 0.0000
vt 0.0351 0.5448 0.0000
vt 0.0353 0.5304 0.0000
vt 0.0354 0.5152 0.0000
vt 0.0355 0.4990 0.0000
vt 0.0355 0.4817 0.0000
vt 0.1400 0.4235 0.0000
vt 0.0356 0.4632 0.0000
vt 0.0355 0.4451 0.0000
vt 0.0355 0.4290 0.0000
vt 0.0354 0.4147 0.0000
vt 0.0352 0.4021 0.0000
vt 0.0351 0.3910 0.0000
vt 0.0349 0.3811 0.0000
vt 0.7404 0.9279 0.0000
vt 0.7404 0.9037 0.0000
vt 0.9290 0.9037 0.0000
vt 0.9290 0.9279 0.0000
vt 0.8335 0.7488 0.0000
vt 0.7200 0.7488 0.0000
vt 0.7200 0.5601 0.0000
vt 0.8335 0.5601 0.0000
vt 0.7071 0.7488 0.0000
vt 0.7071 0.5601 0.0000
vt 0.6940 0.7488 0.0000
vt 0.6940 0.5601 0.0000
vt 0.6806 0.7488 0.0000
vt 0.6806 0.5601 0.0000
vt 0.6666 0.7488 0.0000
vt 0.6666 0.5601 0.0000
vt 0.6519 0.7488 0.0000
vt 0.6519 0.5601 0.0000
vt 0.6362 0.7488 0.0000
vt 0.6362 0.5601 0.0000
vt 0.6196 0.7488 0.0000
vt 0.6196 0.5601 0.0000
vt 0.6035 0.7488 0.0000
vt 0.6035 0.5601 0.0000
vt 0.5895 0.7488 0.0000
vt 0.5895 0.5601 0.0000
vt 0.5773 0.7488 0.0000
vt 0.5773 0.5601 0.0000
vt 0.5666 0.7488 0.0000
vt 0.5666 0.5601 0.0000
vt 0.5569 0.7488 0.0000
vt 0.5569 0.5601 0.0000
vt 0.5479 0.7488 0.0000
vt 0.5479 0.5601 0.0000
vt 0.5392 0.7488 0.0000
vt 0.5392 0.5601 0.0000
vt 0.4987 0.7488 0.0000
vt 0.4987 0.5601 0.0000
vt 0.8460 0.5588 0.0000
vt 0.7636 0.5588 0.0000
vt 0.7636 0.3701 0.0000
vt 0.8460 0.3701 0.0000
vt 0.6986 0.5588 0.0000
vt 0.6986 0.3701 0.0000
vt 0.6483 0.5588 0.0000
vt 0.6483 0.3701 0.0000
vt 0.6102 0.5588 0.0000
vt 0.6102 0.3701 0.0000
vt 0.5818 0.5588 0.0000
vt 0.5818 0.3701 0.0000
vt 0.5604 0.5588 0.0000
vt 0.5604 0.3701 0.0000
vt 0.5434 0.5588 0.0000
vt 0.5434 0.3701 0.0000
vt 0.5281 0.5588 0.0000
vt 0.5281 0.3701 0.0000
vt 0.5132 0.5588 0.0000
vt 0.5132 0.3701 0.0000
vt 0.4987 0.5588 0.0000
vt 0.4987 0.3701 0.0000
vt 0.2778 0.9475 0.0000
vt 0.2778 0.9326 0.0000
vt 0.4664 0.9326 0.0000
vt 0.4664 0.9475 0.0000
vt 0.2778 0.9113 0.0000
vt 0.4664 0.9113 0.0000
vt 0.2778 0.8827 0.0000
vt 0.4664 0.8827 0.0000
vt 0.2778 0.8462 0.0000
vt 0.4664 0.8462 0.0000
vt 0.7390 0.9388 0.0000
vt 0.7107 0.9388 0.0000
vt 0.7107 0.7502 0.0000
vt 0.7390 0.7502 0.0000
vt 0.6796 0.9388 0.0000
vt 0.6796 0.7502 0.0000
vt 0.6463 0.9388 0.0000
vt 0.6463 0.7502 0.0000
vt 0.6110 0.9388 0.0000
vt 0.6110 0.7502 0.0000
vt 0.5743 0.9388 0.0000
vt 0.5743 0.7502 0.0000
vt 0.5367 0.9388 0.0000
vt 0.5367 0.7502 0.0000
vt 0.4987 0.9388 0.0000
vt 0.4987 0.7502 0.0000
vt 0.9975 0.1891 0.0000
vt 0.9684 0.1891 0.0000
vt 0.9684 0.0005 0.0000
vt 0.9975 0.0005 0.0000
vt 0.9395 0.1891 0.0000
vt 0.9395 0.0005 0.0000
vt 0.9108 0.1891 0.0000
vt 0.9108 0.0005 0.0000
vt 0.8825 0.1891 0.0000
vt 0.8825 0.0005 0.0000
vt 0.8548 0.1891 0.0000
vt 0.8548 0.0005 0.0000
vt 0.8277 0.1891 0.0000
vt 0.8277 0.0005 0.0000
vt 0.8013 0.1891 0.0000
vt 0.8013 0.0005 0.0000
vt 0.7745 0.1891 0.0000
vt 0.7745 0.0005 0.0000
vt 0.7463 0.1891 0.0000
vt 0.7463 0.0005 0.0000
vt 0.7172 0.1891 0.0000
vt 0.7172 0.0005 0.0000
vt 0.6879 0.1891 0.0000
vt 0.6879 0.0005 0.0000
vt 0.6588 0.1891 0.0000
vt 0.6588 0.0005 0.0000
vt 0.6306 0.1891 0.0000
vt 0.6306 0.0005 0.0000
vt 0.6038 0.1891 0.0000
vt 0.6038 0.0005 0.0000
vt 0.5795 0.1891 0.0000
vt 0.5795 0.0005 0.0000
vt 0.5582 0.1891 0.0000
vt 0.5582 0.0005 0.0000
vt 0.5394 0.1891 0.0000
vt 0.5394 0.0005 0.0000
vt 0.5225 0.1891 0.0000
vt 0.5225 0.0005 0.0000
vt 0.7404 0.9745 0.0000
vt 0.7404 0.9517 0.0000
vt 0.9290 0.9517 0.0000
vt 0.9290 0.9745 0.0000
vt 0.1785 0.2064 0.0000
vt 0.1281 0.2247 0.0000
vt 0.1228 0.2063 0.0000
vt 0.0994 0.2125 0.0000
vt 0.0021 0.3354 0.0000
vt 0.0021 0.2219 0.0000
vt 0.0349 0.2260 0.0000
vt 0.0349 0.2631 0.0000
vt 0.0079 0.2090 0.0000
vt 0.0350 0.2166 0.0000
vt 0.0135 0.1959 0.0000
vt 0.0351 0.2030 0.0000
vt 0.0185 0.1824 0.0000
vt 0.0353 0.1886 0.0000
vt 0.0229 0.1684 0.0000
vt 0.0354 0.1734 0.0000
vt 0.0263 0.1537 0.0000
vt 0.0355 0.1572 0.0000
vt 0.0286 0.1381 0.0000
vt 0.0355 0.1399 0.0000
vt 0.0293 0.1214 0.0000
vt 0.0356 0.1214 0.0000
vt 0.0286 0.1053 0.0000
vt 0.0355 0.1033 0.0000
vt 0.0263 0.0914 0.0000
vt 0.0355 0.0873 0.0000
vt 0.0229 0.0792 0.0000
vt 0.0354 0.0730 0.0000
vt 0.0185 0.0684 0.0000
vt 0.0352 0.0603 0.0000
vt 0.0135 0.0587 0.0000
vt 0.0351 0.0492 0.0000
vt 0.0079 0.0497 0.0000
vt 0.0349 0.0393 0.0000
vt 0.0021 0.0411 0.0000
vt 0.0349 0.0352 0.0000
vt 0.0021 0.0005 0.0000
vt 0.0349 0.0284 0.0000
vt 0.0845 0.0321 0.0000
vt 0.0767 0.0497 0.0000
vt 0.1495 0.0651 0.0000
vt 0.1400 0.0818 0.0000
vt 0.1997 0.0973 0.0000
vt 0.1887 0.1130 0.0000
vt 0.2378 0.1265 0.0000
vt 0.2257 0.1414 0.0000
vt 0.2662 0.1507 0.0000
vt 0.2541 0.1655 0.0000
vt 0.2877 0.1676 0.0000
vt 0.2777 0.1841 0.0000
vt 0.3046 0.1751 0.0000
vt 0.3004 0.1942 0.0000
vt 0.3200 0.1754 0.0000
vt 0.3224 0.1945 0.0000
vt 0.3349 0.1713 0.0000
vt 0.3426 0.1891 0.0000
vt 0.3494 0.1623 0.0000
vt 0.3615 0.1772 0.0000
vt 0.3636 0.1474 0.0000
vt 0.3786 0.1594 0.0000
vt 0.3776 0.1261 0.0000
vt 0.3943 0.1356 0.0000
vt 0.3914 0.0975 0.0000
vt 0.4090 0.1051 0.0000
vt 0.4051 0.0610 0.0000
vt 0.4117 0.0990 0.0000
vt 0.4216 0.0839 0.0000
vt 0.4057 0.0946 0.0000
vt 0.4381 0.1103 0.0000
vt 0.4217 0.1201 0.0000
vt 0.4546 0.1396 0.0000
vt 0.4378 0.1487 0.0000
vt 0.4712 0.1711 0.0000
vt 0.4541 0.1798 0.0000
vt 0.4877 0.2044 0.0000
vt 0.4704 0.2128 0.0000
vt 0.5042 0.2389 0.0000
vt 0.4869 0.2471 0.0000
vt 0.5207 0.2739 0.0000
vt 0.4968 0.2681 0.0000
vt 0.4916 0.2964 0.0000
vt 0.4801 0.2811 0.0000
vt 0.4627 0.3177 0.0000
vt 0.4517 0.3020 0.0000
vt 0.4340 0.3367 0.0000
vt 0.4241 0.3203 0.0000
vt 0.4057 0.3523 0.0000
vt 0.3976 0.3349 0.0000
vt 0.3780 0.3632 0.0000
vt 0.3727 0.3447 0.0000
vt 0.3509 0.3683 0.0000
vt 0.3497 0.3490 0.0000
vt 0.3245 0.3664 0.0000
vt 0.3288 0.3475 0.0000
vt 0.2977 0.3559 0.0000
vt 0.3064 0.3388 0.0000
vt 0.2695 0.3379 0.0000
vt 0.2805 0.3222 0.0000
vt 0.2404 0.3157 0.0000
vt 0.2522 0.3006 0.0000
vt 0.2111 0.2923 0.0000
vt 0.2227 0.2771 0.0000
vt 0.1820 0.2710 0.0000
vt 0.1924 0.2549 0.0000
vt 0.1538 0.2550 0.0000
vt 0.1612 0.2372 0.0000
vt 0.1270 0.2474 0.0000
vt 0.1293 0.2282 0.0000
vt 0.1027 0.2482 0.0000
vt 0.0997 0.2291 0.0000
vt 0.0814 0.2544 0.0000
vt 0.0739 0.2366 0.0000
vt 0.0626 0.2651 0.0000
vt 0.0515 0.2494 0.0000
vt 0.0457 0.2795 0.0000
vt 0.0323 0.2658 0.0000
vt 0.0304 0.2966 0.0000
vt 0.0156 0.2844 0.0000
vt 0.0160 0.3155 0.0000
vt 0.0005 0.3042 0.0000
vt 0.0005 0.8462 0.0000
vt 0.0416 0.8462 0.0000
vt 0.0301 0.9983 0.0000
vt 0.0005 0.9983 0.0000
vt 0.0787 0.8462 0.0000
vt 0.0787 0.9983 0.0000
vt 0.0881 0.8462 0.0000
vt 0.0881 0.9983 0.0000
vt 0.1017 0.8462 0.0000
vt 0.1017 0.9983 0.0000
vt 0.1161 0.8462 0.0000
vt 0.1161 0.9983 0.0000
vt 0.1313 0.8462 0.0000
vt 0.1313 0.9983 0.0000
vt 0.1475 0.8462 0.0000
vt 0.1475 0.9983 0.0000
vt 0.1648 0.8462 0.0000
vt 0.1648 0.9983 0.0000
vt 0.1833 0.8462 0.0000
vt 0.1833 0.9983 0.0000
vt 0.2014 0.8462 0.0000
vt 0.2014 0.9983 0.0000
vt 0.2175 0.8462 0.0000
vt 0.2175 0.9983 0.0000
vt 0.2318 0.8462 0.0000
vt 0.2318 0.9983 0.0000
vt 0.2444 0.8462 0.0000
vt 0.2444 0.9983 0.0000
vt 0.2555 0.8462 0.0000
vt 0.2555 0.9983 0.0000
vt 0.2654 0.8462 0.0000
vt 0.2654 0.9983 0.0000
vt 0.2695 0.8462 0.0000
vt 0.2695 0.9983 0.0000
vt 0.2764 0.8462 0.0000
vt 0.2764 0.9983 0.0000
vt 0.5225 0.1905 0.0000
vt 0.5643 0.1905 0.0000
vt 0.5643 0.3427 0.0000
vt 0.5225 0.3427 0.0000
vt 0.6276 0.1905 0.0000
vt 0.6276 0.3427 0.0000
vt 0.6764 0.1905 0.0000
vt 0.6764 0.3427 0.0000
vt 0.7134 0.1905 0.0000
vt 0.7134 0.3427 0.0000
vt 0.7418 0.1905 0.0000
vt 0.7418 0.3427 0.0000
vt 0.7654 0.1905 0.0000
vt 0.7654 0.3427 0.0000
vt 0.7881 0.1905 0.0000
vt 0.7881 0.3427 0.0000
vt 0.8101 0.1905 0.0000
vt 0.8101 0.3427 0.0000
vt 0.8303 0.1905 0.0000
vt 0.8303 0.3427 0.0000
vt 0.8492 0.1905 0.0000
vt 0.8492 0.3427 0.0000
vt 0.9995 0.3701 0.0000
vt 0.9995 0.3880 0.0000
vt 0.8473 0.3880 0.0000
vt 0.8473 0.3701 0.0000
vt 0.9995 0.4118 0.0000
vt 0.8473 0.4118 0.0000
vt 0.9995 0.4423 0.0000
vt 0.8473 0.4423 0.0000
vt 0.9995 0.4483 0.0000
vt 0.8473 0.4462 0.0000
vt 0.9995 0.4528 0.0000
vt 0.8473 0.4528 0.0000
vt 0.7404 0.7502 0.0000
vt 0.7704 0.7502 0.0000
vt 0.7704 0.9023 0.0000
vt 0.7404 0.9023 0.0000
vt 0.8033 0.7502 0.0000
vt 0.8033 0.9023 0.0000
vt 0.8383 0.7502 0.0000
vt 0.8383 0.9023 0.0000
vt 0.8749 0.7502 0.0000
vt 0.8749 0.9023 0.0000
vt 0.9127 0.7502 0.0000
vt 0.9127 0.9023 0.0000
vt 0.9358 0.7502 0.0000
vt 0.9358 0.9023 0.0000
vt 0.0005 0.6926 0.0000
vt 0.0172 0.6926 0.0000
vt 0.0172 0.8448 0.0000
vt 0.0005 0.8448 0.0000
vt 0.0456 0.6926 0.0000
vt 0.0456 0.8448 0.0000
vt 0.0732 0.6926 0.0000
vt 0.0732 0.8448 0.0000
vt 0.0997 0.6926 0.0000
vt 0.0997 0.8448 0.0000
vt 0.1247 0.6926 0.0000
vt 0.1247 0.8448 0.0000
vt 0.1476 0.6926 0.0000
vt 0.1476 0.8448 0.0000
vt 0.1685 0.6926 0.0000
vt 0.1685 0.8448 0.0000
vt 0.1909 0.6926 0.0000
vt 0.1909 0.8448 0.0000
vt 0.2168 0.6926 0.0000
vt 0.2168 0.8448 0.0000
vt 0.2451 0.6926 0.0000
vt 0.2451 0.8448 0.0000
vt 0.2746 0.6926 0.0000
vt 0.2746 0.8448 0.0000
vt 0.3049 0.6926 0.0000
vt 0.3049 0.8448 0.0000
vt 0.3361 0.6926 0.0000
vt 0.3361 0.8448 0.0000
vt 0.3680 0.6926 0.0000
vt 0.3680 0.8448 0.0000
vt 0.3976 0.6926 0.0000
vt 0.3976 0.8448 0.0000
vt 0.4234 0.6926 0.0000
vt 0.4234 0.8448 0.0000
vt 0.4458 0.6926 0.0000
vt 0.4458 0.8448 0.0000
vt 0.4650 0.6926 0.0000
vt 0.4650 0.8448 0.0000
vt 0.9871 0.5601 0.0000
vt 0.9871 0.5852 0.0000
vt 0.8349 0.5852 0.0000
vt 0.8349 0.5601 0.0000
vt 0.9871 0.6100 0.0000
vt 0.8349 0.6100 0.0000
# 434 texture coords

g Line002
usemtl 07___Default
f 1/1/1 2/2/1 3/3/1 
f 4/4/1 5/5/2 6/6/2 
f 4/4/1 6/6/2 7/7/1 
f 8/8/1 4/4/1 7/7/1 
f 8/8/1 7/7/1 9/9/1 
f 10/10/1 8/8/1 9/9/1 
f 10/10/1 9/9/1 11/11/1 
f 12/12/1 10/10/1 11/11/1 
f 12/12/1 11/11/1 13/13/1 
f 12/12/1 13/13/1 14/14/1 
f 14/14/1 15/15/1 16/16/1 
f 12/12/1 14/14/1 16/16/1 
f 12/12/1 16/16/1 17/17/1 
f 18/18/1 12/12/1 17/17/1 
f 18/18/1 17/17/1 19/19/1 
f 18/18/1 19/19/1 20/20/1 
f 21/21/1 18/18/1 20/20/1 
f 21/21/1 20/20/1 22/22/1 
f 21/21/1 22/22/1 23/23/1 
f 21/21/1 23/23/1 24/24/1 
f 21/21/1 24/24/1 25/25/1 
f 21/21/1 25/25/1 26/26/1 
f 27/27/1 21/21/1 26/26/1 
f 27/27/1 26/26/1 28/28/1 
f 29/29/1 27/27/1 28/28/1 
f 29/29/1 28/28/1 30/30/1 
f 29/29/1 30/30/1 31/31/1 
f 32/32/1 29/29/1 31/31/1 
f 32/32/1 31/31/1 33/33/1 
f 34/34/1 32/32/1 33/33/1 
f 34/34/1 33/33/1 35/35/1 
f 36/36/1 34/34/1 35/35/1 
f 36/36/1 35/35/1 37/37/1 
f 38/38/2 39/39/2 40/40/1 
f 41/41/1 38/38/2 40/40/1 
f 42/42/1 41/41/1 40/40/1 
f 43/43/1 42/42/1 40/40/1 
f 43/43/1 40/40/1 44/44/1 
f 45/45/1 43/43/1 44/44/1 
f 45/45/1 44/44/1 46/46/1 
f 45/45/1 46/46/1 47/47/1 
f 37/37/1 45/45/1 47/47/1 
f 37/37/1 47/47/1 48/48/1 
f 36/36/1 37/37/1 48/48/1 
f 36/36/1 48/48/1 49/49/1 
f 36/36/1 49/49/1 50/50/1 
f 51/51/1 36/36/1 50/50/1 
f 51/51/1 50/50/1 52/52/1 
f 51/51/1 52/52/1 53/53/1 
f 51/51/1 53/53/1 54/54/1 
f 3/3/1 51/51/1 54/54/1 
f 3/3/1 54/54/1 55/55/1 
f 3/3/1 55/55/1 56/56/1 
f 3/3/1 56/56/1 57/57/1 
f 3/3/1 57/57/1 58/58/1 
f 1/1/1 3/3/1 58/58/1 
f 59/59/3 60/60/3 61/61/3 
f 61/61/3 62/62/3 59/59/3 
f 60/63/4 63/64/4 64/65/4 
f 64/65/4 61/66/4 60/63/4 
f 63/64/5 65/67/5 66/68/5 
f 66/68/5 64/65/5 63/64/5 
f 65/67/6 67/69/6 68/70/6 
f 68/70/6 66/68/6 65/67/6 
f 67/69/7 69/71/7 70/72/7 
f 70/72/7 68/70/7 67/69/7 
f 69/71/8 71/73/8 72/74/8 
f 72/74/8 70/72/8 69/71/8 
f 71/73/9 73/75/9 74/76/9 
f 74/76/9 72/74/9 71/73/9 
f 73/75/10 75/77/10 76/78/10 
f 76/78/10 74/76/10 73/75/10 
f 75/77/11 77/79/11 78/80/11 
f 78/80/11 76/78/11 75/77/11 
f 77/79/12 79/81/12 80/82/12 
f 80/82/12 78/80/12 77/79/12 
f 79/81/13 81/83/13 82/84/13 
f 82/84/13 80/82/13 79/81/13 
f 81/83/14 83/85/14 84/86/14 
f 84/86/14 82/84/14 81/83/14 
f 83/85/15 85/87/15 86/88/15 
f 86/88/15 84/86/15 83/85/15 
f 85/87/16 87/89/16 88/90/16 
f 88/90/16 86/88/16 85/87/16 
f 87/89/17 89/91/17 90/92/17 
f 90/92/17 88/90/17 87/89/17 
f 89/91/18 91/93/18 92/94/18 
f 92/94/18 90/92/18 89/91/18 
f 91/93/4 93/95/4 94/96/4 
f 94/96/4 92/94/4 91/93/4 
f 93/97/19 95/98/19 96/99/19 
f 96/99/19 94/100/19 93/97/19 
f 95/98/20 97/101/20 98/102/20 
f 98/102/20 96/99/20 95/98/20 
f 97/101/21 99/103/21 100/104/21 
f 100/104/21 98/102/21 97/101/21 
f 99/103/22 101/105/22 102/106/22 
f 102/106/22 100/104/22 99/103/22 
f 101/105/23 103/107/23 104/108/23 
f 104/108/23 102/106/23 101/105/23 
f 103/107/24 105/109/24 106/110/24 
f 106/110/24 104/108/24 103/107/24 
f 105/109/25 107/111/25 108/112/25 
f 108/112/25 106/110/25 105/109/25 
f 107/111/26 109/113/26 110/114/26 
f 110/114/26 108/112/26 107/111/26 
f 109/113/27 111/115/27 112/116/27 
f 112/116/27 110/114/27 109/113/27 
f 111/115/28 113/117/28 114/118/28 
f 114/118/28 112/116/28 111/115/28 
f 113/119/29 115/120/29 116/121/29 
f 116/121/29 114/122/29 113/119/29 
f 115/120/30 117/123/30 118/124/30 
f 118/124/30 116/121/30 115/120/30 
f 117/123/31 119/125/31 120/126/31 
f 120/126/31 118/124/31 117/123/31 
f 119/125/32 121/127/32 122/128/32 
f 122/128/32 120/126/32 119/125/32 
f 121/129/33 123/130/33 124/131/33 
f 124/131/33 122/132/33 121/129/33 
f 123/130/34 125/133/34 126/134/34 
f 126/134/34 124/131/34 123/130/34 
f 125/133/35 127/135/35 128/136/35 
f 128/136/35 126/134/35 125/133/35 
f 127/135/36 129/137/36 130/138/36 
f 130/138/36 128/136/36 127/135/36 
f 129/137/37 131/139/37 132/140/37 
f 132/140/37 130/138/37 129/137/37 
f 131/139/38 133/141/38 134/142/38 
f 134/142/38 132/140/38 131/139/38 
f 133/141/39 135/143/39 136/144/39 
f 136/144/39 134/142/39 133/141/39 
f 135/145/40 137/146/40 138/147/40 
f 138/147/40 136/148/40 135/145/40 
f 137/146/41 139/149/41 140/150/41 
f 140/150/41 138/147/41 137/146/41 
f 139/149/42 141/151/42 142/152/42 
f 142/152/42 140/150/42 139/149/42 
f 141/151/43 143/153/43 144/154/43 
f 144/154/43 142/152/43 141/151/43 
f 143/153/44 145/155/44 146/156/44 
f 146/156/44 144/154/44 143/153/44 
f 145/155/45 147/157/45 148/158/45 
f 148/158/45 146/156/45 145/155/45 
f 147/157/46 149/159/46 150/160/46 
f 150/160/46 148/158/46 147/157/46 
f 149/159/47 151/161/47 152/162/47 
f 152/162/47 150/160/47 149/159/47 
f 151/161/48 153/163/48 154/164/48 
f 154/164/48 152/162/48 151/161/48 
f 153/163/49 155/165/49 156/166/49 
f 156/166/49 154/164/49 153/163/49 
f 155/165/50 157/167/50 158/168/50 
f 158/168/50 156/166/50 155/165/50 
f 157/167/51 159/169/51 160/170/51 
f 160/170/51 158/168/51 157/167/51 
f 159/169/52 161/171/52 162/172/52 
f 162/172/52 160/170/52 159/169/52 
f 161/171/53 163/173/53 164/174/53 
f 164/174/53 162/172/53 161/171/53 
f 163/173/54 165/175/54 166/176/54 
f 166/176/54 164/174/54 163/173/54 
f 165/175/55 167/177/55 168/178/55 
f 168/178/55 166/176/55 165/175/55 
f 167/177/56 169/179/56 170/180/56 
f 170/180/56 168/178/56 167/177/56 
f 169/179/57 171/181/57 172/182/57 
f 172/182/57 170/180/57 169/179/57 
f 171/183/58 173/184/58 174/185/58 
f 174/185/58 172/186/58 171/183/58 
f 173/184/59 59/59/59 62/62/59 
f 62/62/59 174/185/59 173/184/59 
f 175/187/2 176/188/2 62/189/2 
f 62/189/1 61/190/1 175/187/1 
f 61/191/1 64/192/1 177/193/1 
f 177/193/1 175/194/1 61/191/1 
f 64/192/1 66/195/1 178/196/1 
f 178/196/1 177/193/1 64/192/1 
f 66/195/1 68/197/1 179/198/1 
f 179/198/1 178/196/1 66/195/1 
f 68/197/1 70/199/1 180/200/1 
f 180/200/1 179/198/1 68/197/1 
f 70/199/1 72/201/1 181/202/1 
f 181/202/1 180/200/1 70/199/1 
f 72/201/1 74/203/1 182/204/1 
f 182/204/1 181/202/1 72/201/1 
f 74/203/1 76/205/1 183/206/1 
f 183/206/1 182/204/1 74/203/1 
f 76/205/1 78/207/1 184/208/1 
f 184/208/1 183/206/1 76/205/1 
f 78/207/1 80/209/1 185/210/1 
f 185/210/1 184/208/1 78/207/1 
f 80/209/1 82/211/1 186/212/1 
f 186/212/1 185/210/1 80/209/1 
f 82/211/1 84/213/1 187/214/1 
f 187/214/1 186/212/1 82/211/1 
f 84/213/1 86/215/1 188/216/1 
f 188/216/1 187/214/1 84/213/1 
f 86/215/1 88/217/1 189/218/1 
f 189/218/1 188/216/1 86/215/1 
f 88/217/1 90/219/1 190/220/1 
f 190/220/1 189/218/1 88/217/1 
f 90/219/1 92/221/1 191/222/1 
f 191/222/1 190/220/1 90/219/1 
f 92/221/1 94/223/1 192/224/1 
f 192/224/1 191/222/1 92/221/1 
f 94/223/1 96/225/1 193/226/1 
f 193/226/1 192/224/1 94/223/1 
f 96/225/1 98/227/1 194/228/1 
f 194/228/1 193/226/1 96/225/1 
f 98/227/1 100/229/1 195/230/1 
f 195/230/1 194/228/1 98/227/1 
f 100/229/1 102/231/1 196/232/1 
f 196/232/1 195/230/1 100/229/1 
f 102/231/1 104/233/1 197/234/1 
f 197/234/1 196/232/1 102/231/1 
f 104/233/1 106/235/1 198/236/1 
f 198/236/1 197/234/1 104/233/1 
f 106/235/1 108/237/1 199/238/1 
f 199/238/1 198/236/1 106/235/1 
f 108/237/1 110/239/1 200/240/1 
f 200/240/1 199/238/1 108/237/1 
f 110/239/1 112/241/1 201/242/1 
f 201/242/1 200/240/1 110/239/1 
f 112/241/1 114/243/1 202/244/1 
f 202/244/1 201/242/1 112/241/1 
f 114/243/1 116/245/1 203/246/1 
f 203/246/1 202/244/1 114/243/1 
f 116/245/1 118/247/1 204/248/1 
f 204/248/1 203/246/1 116/245/1 
f 118/247/1 120/249/1 205/250/1 
f 205/250/1 204/248/1 118/247/1 
f 120/249/1 122/251/1 206/252/1 
f 206/252/1 205/250/1 120/249/1 
f 206/252/1 122/251/1 124/253/1 
f 124/253/2 207/254/2 206/252/2 
f 124/253/1 126/255/1 208/256/1 
f 208/256/1 207/254/1 124/253/1 
f 126/255/1 128/257/1 209/258/1 
f 209/258/1 208/256/1 126/255/1 
f 128/257/1 130/259/1 210/260/1 
f 210/260/1 209/258/1 128/257/1 
f 130/259/1 132/261/1 211/262/1 
f 211/262/1 210/260/1 130/259/1 
f 132/261/1 134/263/1 212/264/1 
f 212/264/1 211/262/1 132/261/1 
f 134/263/1 136/265/1 213/266/1 
f 213/266/1 212/264/1 134/263/1 
f 136/265/1 138/267/1 214/268/1 
f 214/268/1 213/266/1 136/265/1 
f 138/267/1 140/269/1 215/270/1 
f 215/270/1 214/268/1 138/267/1 
f 140/269/1 142/271/1 216/272/1 
f 216/272/1 215/270/1 140/269/1 
f 142/271/1 144/273/1 217/274/1 
f 217/274/1 216/272/1 142/271/1 
f 144/273/1 146/275/1 218/276/1 
f 218/276/1 217/274/1 144/273/1 
f 146/275/1 148/277/1 219/278/1 
f 219/278/1 218/276/1 146/275/1 
f 148/277/1 150/279/1 220/280/1 
f 220/280/1 219/278/1 148/277/1 
f 150/279/1 152/281/1 221/282/1 
f 221/282/1 220/280/1 150/279/1 
f 152/281/1 154/283/1 222/284/1 
f 222/284/1 221/282/1 152/281/1 
f 154/283/1 156/285/1 223/286/1 
f 223/286/1 222/284/1 154/283/1 
f 156/285/1 158/287/1 224/288/1 
f 224/288/1 223/286/1 156/285/1 
f 158/287/1 160/289/1 225/290/1 
f 225/290/1 224/288/1 158/287/1 
f 160/289/1 162/291/1 226/292/1 
f 226/292/1 225/290/1 160/289/1 
f 162/291/1 164/293/1 227/294/1 
f 227/294/1 226/292/1 162/291/1 
f 164/293/1 166/295/1 228/296/1 
f 228/296/1 227/294/1 164/293/1 
f 166/295/1 168/297/1 229/298/1 
f 229/298/1 228/296/1 166/295/1 
f 168/297/1 170/299/1 230/300/1 
f 230/300/1 229/298/1 168/297/1 
f 170/299/1 172/301/1 231/302/1 
f 231/302/1 230/300/1 170/299/1 
f 172/301/1 174/303/1 232/304/1 
f 232/304/1 231/302/1 172/301/1 
f 174/303/1 62/305/1 176/306/1 
f 176/306/1 232/304/1 174/303/1 
f 176/307/60 175/308/60 39/309/60 
f 39/309/61 38/310/61 176/307/61 
f 175/308/62 177/311/62 40/312/62 
f 40/312/62 39/309/62 175/308/62 
f 177/311/63 178/313/63 44/314/63 
f 44/314/63 40/312/63 177/311/63 
f 178/313/64 179/315/64 46/316/64 
f 46/316/64 44/314/64 178/313/64 
f 179/315/65 180/317/65 47/318/65 
f 47/318/65 46/316/65 179/315/65 
f 180/317/66 181/319/66 48/320/66 
f 48/320/66 47/318/66 180/317/66 
f 181/319/67 182/321/67 49/322/67 
f 49/322/67 48/320/67 181/319/67 
f 182/321/68 183/323/68 50/324/68 
f 50/324/68 49/322/68 182/321/68 
f 183/323/69 184/325/69 52/326/69 
f 52/326/69 50/324/69 183/323/69 
f 184/325/70 185/327/70 53/328/70 
f 53/328/70 52/326/70 184/325/70 
f 185/327/71 186/329/71 54/330/71 
f 54/330/71 53/328/71 185/327/71 
f 186/329/72 187/331/72 55/332/72 
f 55/332/72 54/330/72 186/329/72 
f 187/331/73 188/333/73 56/334/73 
f 56/334/73 55/332/73 187/331/73 
f 188/333/74 189/335/74 57/336/74 
f 57/336/74 56/334/74 188/333/74 
f 189/335/75 190/337/75 58/338/75 
f 58/338/75 57/336/75 189/335/75 
f 190/337/76 191/339/76 1/340/76 
f 1/340/76 58/338/76 190/337/76 
f 191/339/62 192/341/62 2/342/62 
f 2/342/62 1/340/62 191/339/62 
f 192/343/77 193/344/77 3/345/77 
f 3/345/77 2/346/77 192/343/77 
f 193/344/78 194/347/78 51/348/78 
f 51/348/78 3/345/78 193/344/78 
f 194/347/79 195/349/79 36/350/79 
f 36/350/79 51/348/79 194/347/79 
f 195/349/80 196/351/80 34/352/80 
f 34/352/80 36/350/80 195/349/80 
f 196/351/81 197/353/81 32/354/81 
f 32/354/81 34/352/81 196/351/81 
f 197/353/82 198/355/82 29/356/82 
f 29/356/82 32/354/82 197/353/82 
f 198/355/83 199/357/83 27/358/83 
f 27/358/83 29/356/83 198/355/83 
f 199/357/84 200/359/84 21/360/84 
f 21/360/84 27/358/84 199/357/84 
f 200/359/85 201/361/85 18/362/85 
f 18/362/85 21/360/85 200/359/85 
f 201/361/86 202/363/86 12/364/86 
f 12/364/86 18/362/86 201/361/86 
f 202/365/87 203/366/87 10/367/87 
f 10/367/87 12/368/87 202/365/87 
f 203/366/88 204/369/88 8/370/88 
f 8/370/88 10/367/88 203/366/88 
f 204/369/89 205/371/89 4/372/89 
f 4/372/89 8/370/89 204/369/89 
f 205/371/90 206/373/90 5/374/90 
f 5/374/91 4/372/91 205/371/91 
f 206/373/92 207/375/92 6/376/92 
f 6/376/93 5/374/93 206/373/93 
f 207/377/94 208/378/94 7/379/94 
f 7/379/94 6/380/94 207/377/94 
f 208/378/95 209/381/95 9/382/95 
f 9/382/95 7/379/95 208/378/95 
f 209/381/96 210/383/96 11/384/96 
f 11/384/96 9/382/96 209/381/96 
f 210/383/97 211/385/97 13/386/97 
f 13/386/97 11/384/97 210/383/97 
f 211/385/98 212/387/98 14/388/98 
f 14/388/98 13/386/98 211/385/98 
f 212/387/99 213/389/99 15/390/99 
f 15/390/99 14/388/99 212/387/99 
f 213/391/100 214/392/100 16/393/100 
f 16/393/100 15/394/100 213/391/100 
f 214/392/101 215/395/101 17/396/101 
f 17/396/101 16/393/101 214/392/101 
f 215/395/102 216/397/102 19/398/102 
f 19/398/102 17/396/102 215/395/102 
f 216/397/103 217/399/103 20/400/103 
f 20/400/103 19/398/103 216/397/103 
f 217/399/104 218/401/104 22/402/104 
f 22/402/104 20/400/104 217/399/104 
f 218/401/105 219/403/105 23/404/105 
f 23/404/105 22/402/105 218/401/105 
f 219/403/106 220/405/106 24/406/106 
f 24/406/106 23/404/106 219/403/106 
f 220/405/107 221/407/107 25/408/107 
f 25/408/107 24/406/107 220/405/107 
f 221/407/108 222/409/108 26/410/108 
f 26/410/108 25/408/108 221/407/108 
f 222/409/109 223/411/109 28/412/109 
f 28/412/109 26/410/109 222/409/109 
f 223/411/110 224/413/110 30/414/110 
f 30/414/110 28/412/110 223/411/110 
f 224/413/111 225/415/111 31/416/111 
f 31/416/111 30/414/111 224/413/111 
f 225/415/112 226/417/112 33/418/112 
f 33/418/112 31/416/112 225/415/112 
f 226/417/113 227/419/113 35/420/113 
f 35/420/113 33/418/113 226/417/113 
f 227/419/114 228/421/114 37/422/114 
f 37/422/114 35/420/114 227/419/114 
f 228/421/115 229/423/115 45/424/115 
f 45/424/115 37/422/115 228/421/115 
f 229/423/116 230/425/116 43/426/116 
f 43/426/116 45/424/116 229/423/116 
f 230/425/117 231/427/117 42/428/117 
f 42/428/117 43/426/117 230/425/117 
f 231/429/118 232/430/118 41/431/118 
f 41/431/118 42/432/118 231/429/118 
f 232/430/119 176/433/119 38/434/119 
f 38/434/119 41/431/119 232/430/119 
# 404 faces

#
# object Box001
#

v  -289.0983 689.2422 373.8338
v  -289.0983 807.2578 373.8338
v  -289.0983 807.2578 -455.7610
v  -289.0983 689.2422 -455.7610
v  358.9187 689.2422 373.8337
v  358.9187 689.2422 -455.7611
v  358.9187 807.2577 -455.7611
v  358.9187 807.2577 373.8337
# 8 vertices

vn -1.0000 0.0000 0.0000
vn 1.0000 -0.0000 -0.0000
vn -0.0000 -1.0000 0.0000
vn -0.0000 0.0000 -1.0000
vn 0.0000 1.0000 -0.0000
vn 0.0000 0.0000 1.0000
# 6 vertex normals

vt 1.0000 0.0000 0.0000
vt 1.0000 1.0000 0.0000
vt 0.0000 1.0000 0.0000
vt 0.0000 0.0000 0.0000
# 4 texture coords

g Box001
usemtl 07___Default
f 233/435/120 234/436/120 235/437/120 
f 235/437/120 236/438/120 233/435/120 
f 237/438/121 238/435/121 239/436/121 
f 239/436/121 240/437/121 237/438/121 
f 233/438/122 236/435/122 238/436/122 
f 238/436/122 237/437/122 233/438/122 
f 236/438/123 235/435/123 239/436/123 
f 239/436/123 238/437/123 236/438/123 
f 235/438/124 234/435/124 240/436/124 
f 240/436/124 239/437/124 235/438/124 
f 234/438/125 233/435/125 237/436/125 
f 237/436/125 240/437/125 234/438/125 
# 12 faces

#
# object Box002
#

v  -259.7965 1412.1754 870.8643
v  -259.7965 1530.1909 870.8643
v  -259.7965 1530.1909 41.2695
v  -259.7965 1412.1754 41.2695
v  388.2205 1412.1753 870.8643
v  388.2205 1412.1753 41.2695
v  388.2205 1530.1909 41.2695
v  388.2205 1530.1909 870.8643
# 8 vertices

vn -1.0000 0.0000 0.0000
vn 1.0000 -0.0000 -0.0000
vn -0.0000 -1.0000 0.0000
vn -0.0000 0.0000 -1.0000
vn 0.0000 1.0000 -0.0000
vn 0.0000 0.0000 1.0000
# 6 vertex normals

vt 1.0000 0.0000 0.0000
vt 1.0000 1.0000 0.0000
vt 0.0000 1.0000 0.0000
vt 0.0000 0.0000 0.0000
# 4 texture coords

g Box002
usemtl 07___Default
f 241/439/126 242/440/126 243/441/126 
f 243/441/126 244/442/126 241/439/126 
f 245/442/127 246/439/127 247/440/127 
f 247/440/127 248/441/127 245/442/127 
f 241/442/128 244/439/128 246/440/128 
f 246/440/128 245/441/128 241/442/128 
f 244/442/129 243/439/129 247/440/129 
f 247/440/129 246/441/129 244/442/129 
f 243/442/130 242/439/130 248/440/130 
f 248/440/130 247/441/130 243/442/130 
f 242/442/131 241/439/131 245/440/131 
f 245/440/131 248/441/131 242/442/131 
# 12 faces

