# 3ds Max Wavefront OBJ Exporter v0.97b - (c)2007 guruware
# File Created: 19.04.2017 19:33:53

mtllib hive.mtl

#
# object Sphere001
#

v  -5.1286 43.6683 -19.0641
v  -6.6011 34.6586 -23.2107
v  -10.6948 32.1856 -23.0618
v  -1.8718 60.6027 -4.5150
v  -13.7338 35.8556 -18.7980
v  -0.5449 60.6892 2.1091
v  -16.0159 19.0830 -24.7118
v  -16.5639 11.1746 -25.2025
v  -21.8802 9.5680 -19.2912
v  -16.5549 37.4448 -14.5307
v  -12.1147 48.6312 -9.6092
v  -15.4871 48.8680 -4.9711
v  -9.7166 56.4374 -1.9735
v  -6.0949 57.4894 -3.6944
v  -4.7267 56.3020 13.0849
v  -2.8816 54.7747 15.6769
v  6.0017 59.6658 1.1460
v  5.5053 59.0264 -2.9485
v  16.0199 48.2786 -5.1795
v  21.6407 37.9190 -6.8919
v  19.0470 36.9806 -12.4591
v  11.1312 52.8537 -7.3265
v  17.4130 34.3415 -17.0011
v  3.7266 49.2857 -13.9446
v  -1.2975 47.8925 -17.3572
v  2.2713 59.7460 -5.7201
v  -19.8160 43.9010 -5.7382
v  -20.2865 43.6496 -0.9586
v  -10.5968 56.5721 4.4689
v  -10.3471 55.4862 7.5254
v  -19.3239 38.4661 14.4821
v  -11.1759 36.8695 22.5679
v  -2.9344 47.2777 12.8237
v  -5.5643 36.1622 17.9832
v  -1.4458 31.5283 20.5574
v  2.5199 45.5396 13.0866
v  15.1193 32.2304 15.7536
v  15.6846 38.9265 11.0957
v  11.3907 46.4613 9.2305
v  10.3606 53.6975 4.1832
v  6.4768 57.8615 2.3744
v  13.4108 53.1176 2.7307
v  20.0124 44.6329 3.1127
v  -14.1829 -2.1924 -27.3938
v  -20.0039 -1.0312 -21.6210
v  -21.3348 -12.0483 -5.0484
v  -22.0869 -12.2588 -0.0522
v  -26.8184 -11.1511 0.0962
v  -29.7410 -8.6160 -3.0597
v  -31.0649 1.5516 -4.7456
v  -28.2664 2.8079 -11.5123
v  -24.8721 -4.0762 -14.1520
v  -26.3712 12.4404 -14.4427
v  -28.1119 17.6390 -8.0934
v  -25.7578 28.5417 -7.8010
v  -22.3138 36.8199 -8.8179
v  -26.2738 31.0565 -0.9947
v  -30.3258 16.8241 8.0948
v  -24.8996 21.2100 17.8217
v  -14.9658 23.3317 26.1171
v  18.6441 24.0503 24.3516
v  22.7787 20.7715 21.0259
v  24.3234 27.4627 14.6090
v  30.2116 20.2711 6.2308
v  27.0841 30.0812 4.0925
v  21.8000 27.3062 -16.2192
v  26.1713 18.2534 -16.0907
v  27.3648 29.3408 -0.6516
v  12.4516 53.5825 7.3010
v  19.9343 2.2053 -27.9784
v  18.6733 -3.6913 -27.0069
v  13.0322 -4.0680 -28.9707
v  7.4939 17.1595 -29.7320
v  2.7920 0.9325 -32.2587
v  7.7202 27.4059 -24.8933
v  1.6754 28.6510 -26.2807
v  -7.5714 -3.3971 -30.7158
v  -9.5862 12.5302 -31.1335
v  -6.3103 19.8032 -30.5283
v  -8.1497 27.1172 -28.2894
v  -1.4625 16.7550 32.1998
v  5.2773 19.2450 30.3525
v  18.6192 26.0379 -20.5262
v  20.6302 16.4598 -23.7250
v  13.4709 26.1859 -23.6692
v  -13.6436 14.5806 -29.2795
v  -30.9635 -6.8392 1.2764
v  -31.9273 0.3621 5.1951
v  -28.6319 -5.1718 12.0854
v  -27.7027 -0.5004 15.8796
v  -18.1959 -12.0430 15.8212
v  -15.9037 -12.3286 20.4268
v  -17.8984 -8.4049 22.9690
v  -20.0345 -0.6074 24.0283
v  -22.2414 9.1260 22.3807
v  -14.1260 2.0642 29.1721
v  -7.8539 3.6624 32.2344
v  -16.1553 11.4985 27.8164
v  5.7924 7.5613 32.1942
v  5.9444 -0.5897 32.3411
v  10.9340 -8.3553 27.9528
v  17.3475 -5.6667 26.0379
v  21.9361 -6.4631 21.2984
v  23.3333 1.0144 23.0050
v  23.7903 11.1135 22.3649
v  -1.1243 9.0963 32.7780
v  32.5682 6.6104 11.2676
v  32.4320 -5.2825 11.4035
v  34.2488 -5.5520 7.2469
v  34.9213 1.0886 1.4002
v  33.1891 -7.3340 -1.7898
v  30.6611 -9.8167 -5.2138
v  28.6431 -7.7473 -11.9325
v  31.0988 0.1645 -10.3447
v  32.4509 13.1094 -1.5612
v  24.8221 -11.7314 -13.0662
v  21.1562 -12.3816 -17.1512
v  26.5540 -3.0062 -20.4537
v  28.6115 1.8953 -17.0362
v  23.0542 -1.6401 -24.9495
v  10.1098 -13.0415 22.9209
v  24.0438 -12.8586 11.4061
v  25.6565 -13.7730 6.5587
v  33.5737 -8.4496 4.0047
v  -21.9919 -12.1625 4.4999
v  -20.6652 -11.7478 10.2102
v  -25.6491 -8.8823 11.8337
v  -11.9259 -10.0267 27.7071
v  -4.6290 -14.4606 26.8714
v  6.7610 -13.9958 -18.7803
v  0.3755 -14.7088 -20.5237
v  -0.3254 -14.0438 -25.2238
v  9.8320 -9.2337 -27.2288
v  -6.1512 -14.5404 -24.4583
v  -10.0210 -13.0393 -24.8658
v  -10.7664 -10.3390 -27.5646
v  -14.3743 -6.7699 -26.1359
v  22.2541 -13.8709 3.9888
v  23.5994 -13.4218 -2.3414
v  23.0962 -13.2062 -8.9453
v  17.2367 -9.4074 -24.1392
v  -12.4166 -12.9751 -21.3360
v  -9.8056 -13.5172 -16.1104
v  -12.3573 -12.2579 -12.7813
v  -7.8538 -12.9022 -2.1060
v  -16.5278 -12.2080 -5.9168
v  -3.7928 -16.5018 23.9616
v  5.3962 -14.0487 -13.9081
v  2.1435 -14.1145 -12.6392
v  0.7329 -13.8186 -7.0932
v  -1.0514 -13.6578 1.8507
v  -3.3044 -13.6893 -8.9403
v  -6.3307 -13.9849 -14.7652
v  -16.5144 -12.7079 0.4598
v  -17.0432 -12.7406 4.0122
v  0.6569 -16.4521 21.7722
v  16.9136 -14.5287 10.6725
v  7.6568 -15.4779 18.2216
v  3.6306 -16.7371 19.3969
v  13.7957 -14.0567 8.2240
v  9.8619 -14.0421 8.0742
v  9.2448 -14.5486 10.8056
v  3.7425 -14.2033 6.7724
v  6.1719 -13.0991 2.2701
v  12.6054 -12.8512 1.7320
v  13.3768 -12.7141 -4.3944
v  11.1904 -12.9283 -5.6838
v  7.7478 -13.1900 -6.0743
v  0.6941 -13.6330 -3.0786
v  -12.5749 -13.9233 13.5198
v  -8.7536 -15.3370 15.6261
v  -3.2582 -16.6314 15.6772
v  0.3915 -14.8756 7.9824
v  2.8546 -15.8438 12.9162
v  -9.7157 -13.5251 8.1660
# 175 vertices

vn -0.4429 0.5265 -0.7257
vn -0.1612 0.4782 -0.8633
vn -0.5046 0.4564 -0.7329
vn 0.0003 0.9728 -0.2316
vn -0.5722 0.4521 -0.6842
vn -0.2777 0.9597 -0.0429
vn -0.7690 0.2621 -0.5830
vn -0.7773 0.0287 -0.6285
vn -0.7496 0.0822 -0.6568
vn -0.8402 0.4083 -0.3569
vn -0.4477 0.5907 -0.6713
vn -0.6592 0.5867 -0.4703
vn -0.5591 0.7670 -0.3148
vn 0.0520 0.7474 -0.6624
vn -0.6680 0.6589 0.3458
vn -0.7468 0.1829 0.6394
vn 0.4640 0.8589 -0.2169
vn 0.4848 0.8274 -0.2835
vn 0.7565 0.5978 -0.2652
vn 0.8422 0.4435 -0.3066
vn 0.7005 0.4849 -0.5237
vn 0.5598 0.6747 -0.4810
vn 0.6053 0.4602 -0.6495
vn 0.3805 0.5517 -0.7422
vn 0.0070 0.5981 -0.8014
vn -0.0563 0.8676 -0.4941
vn -0.6414 0.5095 -0.5736
vn -0.8525 0.5094 0.1168
vn -0.5210 0.7902 0.3228
vn 0.3495 0.8488 0.3967
vn -0.9168 0.3986 0.0251
vn -0.0848 0.5110 0.8554
vn 0.4456 0.2475 0.8604
vn 0.3520 0.4225 0.8352
vn 0.1613 0.5666 0.8081
vn 0.2162 0.4721 0.8546
vn 0.2735 0.5701 0.7747
vn 0.1040 0.3151 0.9433
vn 0.3910 0.5292 0.7531
vn 0.0170 0.4670 0.8841
vn 0.2677 0.5787 0.7704
vn 0.7129 0.4637 -0.5261
vn 0.6713 0.4692 0.5738
vn -0.6003 -0.1122 -0.7919
vn -0.7554 -0.2819 -0.5915
vn -0.2920 -0.8748 -0.3866
vn -0.1619 -0.9864 -0.0263
vn -0.7089 -0.5877 0.3899
vn -0.7015 -0.5410 -0.4639
vn -0.9408 -0.1154 -0.3188
vn -0.8766 -0.1620 -0.4531
vn -0.7105 -0.5576 -0.4292
vn -0.8069 0.1353 -0.5749
vn -0.9472 0.1784 -0.2664
vn -0.9003 0.2648 -0.3455
vn -0.1907 0.4065 -0.8935
vn -0.9370 0.3485 0.0250
vn -0.9607 0.2037 0.1886
vn -0.8032 0.2605 0.5357
vn -0.4879 0.2638 0.8321
vn 0.4802 0.5003 0.7205
vn 0.7703 0.3014 0.5620
vn 0.7249 0.4317 0.5368
vn 0.9340 0.2826 0.2187
vn 0.8985 0.4153 0.1423
vn 0.7462 0.3930 -0.5373
vn 0.8444 0.2600 -0.4685
vn 0.9095 0.3939 -0.1331
vn -0.1862 0.2585 0.9479
vn 0.4974 0.0259 -0.8671
vn 0.4339 -0.3736 -0.8199
vn 0.2272 -0.2804 -0.9326
vn -0.1661 0.3167 -0.9339
vn 0.1021 -0.1296 -0.9863
vn 0.2444 0.3980 -0.8842
vn 0.2037 0.3758 -0.9040
vn -0.2013 -0.2380 -0.9502
vn -0.2525 0.0471 -0.9664
vn -0.0188 0.2180 -0.9758
vn -0.2702 0.4148 -0.8689
vn -0.0417 0.2950 0.9546
vn 0.2203 0.4011 0.8892
vn 0.5978 0.3819 -0.7048
vn 0.5921 0.2553 -0.7644
vn 0.3825 0.3951 -0.8352
vn -0.6115 0.1195 -0.7822
vn -0.8762 -0.4789 0.0539
vn -0.9891 -0.0487 0.1391
vn -0.7938 -0.4013 0.4570
vn -0.7366 -0.1985 0.6465
vn -0.5379 -0.7971 0.2742
vn -0.5200 -0.7809 0.3463
vn -0.7651 -0.4367 0.4732
vn -0.8529 -0.1878 0.4872
vn -0.7289 -0.0023 0.6846
vn -0.4957 -0.1207 0.8601
vn -0.2115 -0.1124 0.9709
vn -0.5435 0.1072 0.8325
vn 0.3562 0.0828 0.9308
vn -0.1447 -0.4805 0.8650
vn 0.3006 -0.4772 0.8257
vn 0.4992 -0.3578 0.7892
vn 0.5853 -0.5109 0.6296
vn 0.6272 -0.0719 0.7755
vn 0.6742 0.0975 0.7321
vn -0.0108 -0.0178 0.9998
vn 0.9047 0.1488 0.3993
vn 0.7862 -0.3433 0.5139
vn 0.9347 -0.2599 0.2425
vn 0.9824 0.0489 -0.1801
vn 0.9215 -0.3079 -0.2367
vn 0.6905 -0.6885 -0.2220
vn 0.8106 -0.4131 -0.4151
vn 0.9476 -0.0255 -0.3186
vn 0.9664 0.2076 -0.1515
vn 0.4847 -0.8118 -0.3256
vn 0.3612 -0.8693 -0.3376
vn 0.7856 -0.2710 -0.5562
vn 0.8885 0.0593 -0.4551
vn 0.6913 -0.2003 -0.6943
vn 0.3417 -0.7999 0.4934
vn 0.3743 -0.8683 0.3254
vn 0.3263 -0.9371 0.1242
vn 0.8146 -0.5771 0.0583
vn -0.3139 -0.9437 0.1042
vn -0.3340 -0.9364 0.1077
vn -0.5965 -0.7037 0.3860
vn -0.3564 -0.4984 0.7903
vn -0.1045 -0.6470 0.7553
vn 0.2899 -0.9533 -0.0846
vn -0.0087 -0.9979 -0.0647
vn 0.0896 -0.8248 -0.5582
vn 0.1434 -0.6082 -0.7808
vn -0.1040 -0.9268 -0.3608
vn -0.4077 -0.8163 -0.4092
vn -0.3928 -0.5086 -0.7661
vn -0.7219 -0.3741 -0.5821
vn -0.0503 -0.9980 0.0375
vn 0.2100 -0.9750 -0.0732
vn 0.1870 -0.9661 -0.1778
vn 0.3646 -0.7106 -0.6018
vn -0.5536 -0.8119 -0.1855
vn -0.2553 -0.9653 0.0551
vn -0.1132 -0.9912 0.0686
vn -0.0686 -0.9943 -0.0810
vn -0.1826 -0.9596 -0.2140
vn -0.0474 -0.9321 0.3590
vn 0.0944 -0.9955 0.0064
vn 0.0131 -0.9985 0.0527
vn 0.9240 -0.2927 0.2460
vn -0.0153 -0.9970 -0.0758
vn 0.0415 -0.9991 0.0077
vn -0.0964 -0.9938 0.0553
vn -0.0632 -0.9970 -0.0457
vn -0.0923 -0.9957 -0.0057
vn 0.1088 -0.9600 0.2580
vn 0.2124 -0.9306 -0.2980
vn 0.2946 -0.9467 0.1305
vn 0.1159 -0.9872 0.1096
vn -0.4477 -0.1717 0.8776
vn 0.0615 -0.9805 -0.1866
vn 0.0622 -0.9847 -0.1629
vn 0.0886 -0.9751 -0.2033
vn 0.0645 -0.9977 0.0218
vn 0.0072 -0.9985 -0.0551
vn 0.0011 -0.9994 0.0352
vn 0.0706 -0.9966 0.0419
vn 0.0769 -0.9953 0.0588
vn 0.1048 -0.9936 0.0416
vn -0.2567 -0.9607 -0.1055
vn -0.2657 -0.9605 -0.0827
vn -0.0755 -0.9904 -0.1159
vn 0.0095 -0.9763 -0.2163
vn 0.0819 -0.9824 -0.1678
vn -0.1115 -0.9891 -0.0963
# 175 vertex normals

vt 0.0313 0.8125 0.0000
vt 0.0313 0.7500 0.0000
vt 0.0625 0.7500 0.0000
vt 0.0313 0.9375 0.0000
vt 0.3062 0.8783 0.0000
vt 0.0618 0.9876 0.0000
vt 0.4564 0.8515 0.0000
vt 0.5371 0.8537 0.0000
vt 0.6458 0.9082 0.0000
vt 0.3471 0.9138 0.0000
vt 0.2238 0.9319 0.0000
vt 0.2877 0.9682 0.0000
vt 0.1740 0.9720 0.0000
vt 0.1141 0.9546 0.0000
vt 0.1563 1.0000 0.0000
vt 0.1487 0.9041 0.0000
vt 0.1875 0.9375 0.0000
vt 0.4384 0.9732 0.0000
vt 0.4375 0.8750 0.0000
vt 0.4688 0.8750 0.0000
vt 0.8125 1.0000 0.0000
vt 0.7442 0.9517 0.0000
vt 0.8438 0.9375 0.0000
vt 0.8125 0.8750 0.0000
vt 0.8125 0.7500 0.0000
vt 0.8438 0.7500 0.0000
vt 0.8438 0.8750 0.0000
vt 0.8750 0.7500 0.0000
vt 0.9688 0.8125 0.0000
vt 1.0000 0.8125 0.0000
vt 0.9375 0.9375 0.0000
vt 0.8438 1.0000 0.0000
vt 0.0000 1.0000 0.0000
vt -0.0260 0.9550 0.0000
vt 0.0000 0.8125 0.0000
vt 0.1875 0.8750 0.0000
vt 0.1875 0.8125 0.0000
vt 0.2187 0.8125 0.0000
vt 0.2893 0.7746 0.0000
vt 0.2187 1.0000 0.0000
vt 0.3213 0.7080 0.0000
vt 0.5315 0.1972 0.0000
vt 0.4910 0.2823 0.0000
vt 0.4211 0.4871 0.0000
vt 0.3641 0.6439 0.0000
vt 0.3439 0.6928 0.0000
vt 0.5005 0.2642 0.0000
vt 0.4688 0.8125 0.0000
vt 0.4688 0.7500 0.0000
vt 0.5000 0.7500 0.0000
vt 0.5313 0.8125 0.0000
vt 0.5938 0.7500 0.0000
vt 0.6250 0.7500 0.0000
vt 0.6250 0.8125 0.0000
vt 0.6250 0.8750 0.0000
vt 0.5938 0.8750 0.0000
vt 0.7188 0.9375 0.0000
vt 0.7188 0.8750 0.0000
vt 0.7188 0.8125 0.0000
vt 0.0938 0.5625 0.0000
vt 0.0938 0.4375 0.0000
vt 0.1250 0.4375 0.0000
vt 0.1250 0.5625 0.0000
vt 0.1875 0.2500 0.0000
vt 0.2187 0.2500 0.0000
vt 0.2187 0.3125 0.0000
vt 0.2187 0.3750 0.0000
vt 0.2187 0.5000 0.0000
vt 0.1563 0.5000 0.0000
vt 0.1563 0.4375 0.0000
vt 0.1563 0.5625 0.0000
vt 0.1250 0.7500 0.0000
vt 0.1250 0.8750 0.0000
vt 0.1875 0.5625 0.0000
vt 0.1875 0.6875 0.0000
vt 0.1875 0.7500 0.0000
vt 0.2187 0.6875 0.0000
vt 0.2812 0.6250 0.0000
vt 0.3437 0.6250 0.0000
vt 0.4063 0.6875 0.0000
vt 0.4063 0.7500 0.0000
vt 0.3437 0.7500 0.0000
vt 0.3437 0.8750 0.0000
vt 0.2812 0.8750 0.0000
vt 0.5938 0.6875 0.0000
vt 0.6250 0.6875 0.0000
vt 0.6563 0.6875 0.0000
vt 0.7188 0.6250 0.0000
vt 0.7188 0.6875 0.0000
vt 0.8438 0.6875 0.0000
vt 0.8438 0.6250 0.0000
vt 0.7813 0.6875 0.0000
vt 0.6563 0.8750 0.0000
vt -0.2214 0.5142 0.0000
vt -0.2238 0.4714 0.0000
vt -0.1635 0.4538 0.0000
vt -0.0529 0.5990 0.0000
vt -0.0313 0.4988 0.0000
vt -0.0358 0.6787 0.0000
vt 0.0000 0.6875 0.0000
vt 0.0313 0.4375 0.0000
vt 0.0313 0.5625 0.0000
vt 0.0313 0.6250 0.0000
vt 0.0313 0.6875 0.0000
vt 0.5000 0.6250 0.0000
vt 0.5313 0.6250 0.0000
vt 0.8750 0.6875 0.0000
vt 0.8750 0.6250 0.0000
vt 0.9375 0.6875 0.0000
vt 1.0000 0.6875 0.0000
vt 0.9688 0.6875 0.0000
vt 0.0625 0.5625 0.0000
vt 0.0938 0.6250 0.0000
vt 0.0938 0.7500 0.0000
vt 0.2500 0.3750 0.0000
vt 0.2812 0.5000 0.0000
vt 0.3125 0.4375 0.0000
vt 0.3125 0.5000 0.0000
vt 0.3437 0.2500 0.0000
vt 0.3750 0.2500 0.0000
vt 0.3750 0.3750 0.0000
vt 0.3750 0.5000 0.0000
vt 0.3750 0.5625 0.0000
vt 0.4063 0.5000 0.0000
vt 0.4688 0.5000 0.0000
vt 0.4063 0.5625 0.0000
vt 0.5313 0.5000 0.0000
vt 0.5313 0.4375 0.0000
vt 0.5625 0.3750 0.0000
vt 0.5938 0.3750 0.0000
vt 0.6250 0.3750 0.0000
vt 0.6250 0.5000 0.0000
vt 0.6250 0.5625 0.0000
vt 0.5000 0.5000 0.0000
vt 0.6875 0.5625 0.0000
vt 0.6875 0.4375 0.0000
vt 0.7188 0.4375 0.0000
vt 0.7500 0.5000 0.0000
vt 0.7813 0.4375 0.0000
vt 0.7813 0.3750 0.0000
vt 0.8125 0.3750 0.0000
vt 0.8125 0.5000 0.0000
vt 0.7813 0.5625 0.0000
vt 0.8125 0.3125 0.0000
vt 0.8750 0.3125 0.0000
vt 0.8438 0.4375 0.0000
vt 0.8438 0.5000 0.0000
vt 0.8750 0.4375 0.0000
vt 0.9063 0.4375 0.0000
vt 0.9063 0.5000 0.0000
vt 0.9688 0.5625 0.0000
vt 0.5625 0.3125 0.0000
vt 0.6875 0.3125 0.0000
vt 0.7188 0.3125 0.0000
vt 0.7500 0.4375 0.0000
vt 0.2812 0.2500 0.0000
vt 0.3125 0.2500 0.0000
vt 0.3125 0.3750 0.0000
vt 0.4063 0.3750 0.0000
vt 0.4688 0.3125 0.0000
vt 0.9239 0.2901 0.0000
vt 0.9524 0.2740 0.0000
vt 0.9859 0.2898 0.0000
vt 0.9375 0.3750 0.0000
vt 0.9375 0.4375 0.0000
vt 1.0004 0.2779 0.0000
vt 1.0067 0.2966 0.0000
vt 1.0032 0.3389 0.0000
vt 1.0061 0.3804 0.0000
vt 0.9978 0.4444 0.0000
vt 0.9805 0.6290 0.0000
vt 0.9688 0.6716 0.0000
vt 0.9622 0.6515 0.0000
vt 0.9836 0.4408 0.0000
vt 0.9688 0.5000 0.0000
vt 0.0938 0.3750 0.0000
vt 0.7188 0.2500 0.0000
vt 0.7813 0.2500 0.0000
vt 0.8125 0.2500 0.0000
vt 0.9063 0.3750 0.0000
vt 0.0625 0.3750 0.0000
vt 0.0625 0.3125 0.0000
vt 0.0938 0.3125 0.0000
vt 0.0938 0.1875 0.0000
vt 0.1250 0.1875 0.0000
vt 0.1875 0.0625 0.0000
vt 0.1875 0.1875 0.0000
vt 0.4688 0.2500 0.0000
vt -0.0701 0.2081 0.0000
vt -0.0632 0.1441 0.0000
vt -0.0653 0.1126 0.0000
vt 0.0000 0.2500 0.0000
vt 0.0089 0.0834 0.0000
vt 0.1195 0.0330 0.0000
vt 0.0625 0.1250 0.0000
vt 0.0625 0.1875 0.0000
vt 0.0000 0.3125 0.0000
vt 0.0313 0.3125 0.0000
vt 0.2187 0.1875 0.0000
vt 0.2812 0.1875 0.0000
vt 0.5000 0.2500 0.0000
vt 0.6563 0.2500 0.0000
vt 0.5625 0.2500 0.0000
vt 0.5313 0.2500 0.0000
vt 0.6563 0.1875 0.0000
vt 0.6269 0.0259 0.0000
vt 0.5866 -0.0118 0.0000
vt 0.6536 -0.0125 0.0000
vt 0.7332 0.0036 0.0000
vt 0.7188 0.0625 0.0000
vt 0.7188 0.1250 0.0000
vt 0.8125 0.1250 0.0000
vt 0.8438 0.1250 0.0000
vt 0.8750 0.1250 0.0000
vt 0.9063 -0.0000 0.0000
vt 0.9375 0.0625 0.0000
vt 0.9688 0.0625 0.0000
vt 0.9688 0.1250 0.0000
vt 0.9375 0.1250 0.0000
vt 0.9375 0.2500 0.0000
vt 0.3437 0.1875 0.0000
vt 0.4063 0.1875 0.0000
vt 0.4688 0.1875 0.0000
vt 0.5313 0.0625 0.0000
vt 0.5313 0.1250 0.0000
vt 0.6250 0.1250 0.0000
vt 0.6563 0.1250 0.0000
vt 0.0938 -0.0000 0.0000
vt 0.2585 -0.0908 0.0000
vt 0.3181 -0.1236 0.0000
vt 0.2833 -0.0494 0.0000
vt 0.2253 -0.0034 0.0000
vt 0.1489 0.0058 0.0000
vt 0.3437 0.1250 0.0000
vt 0.3108 0.0047 0.0000
vt 0.8116 0.0252 0.0000
vt 0.8699 0.1139 0.0000
vt 0.9375 -0.0000 0.0000
vt 0.5511 -0.1579 0.0000
vt 0.7031 -0.3359 0.0000
vt 0.6060 -0.1210 0.0000
vt 0.5013 -0.0450 0.0000
vt 0.4026 -0.0048 0.0000
vt 0.4066 0.2755 0.0000
vt 0.3042 0.4037 0.0000
vt 0.3009 0.2986 0.0000
# 246 texture coords

g Sphere001
usemtl 02___Default
s 1
f 1/1/1 2/2/2 3/3/3 
f 4/4/4 1/1/1 3/3/3 
f 4/4/4 3/3/3 5/5/5 
f 6/6/6 4/4/4 5/5/5 
f 7/7/7 8/8/8 9/9/9 
f 5/5/5 7/7/7 9/9/9 
f 5/5/5 9/9/9 10/10/10 
f 5/5/5 10/10/10 11/11/11 
f 12/12/12 13/13/13 14/14/14 
f 11/11/11 12/12/12 14/14/14 
f 5/5/5 11/11/11 14/14/14 
f 6/6/6 5/5/5 14/14/14 
f 6/15/6 14/16/14 13/17/13 
f 6/18/6 15/19/15 16/20/16 
f 6/21/6 17/22/17 18/23/18 
f 19/24/19 20/25/20 21/26/21 
f 22/27/22 19/24/19 21/26/21 
f 21/26/21 23/28/23 24/29/24 
f 22/27/22 21/26/21 24/29/24 
f 18/23/18 22/27/22 24/29/24 
f 24/29/24 25/30/25 26/31/26 
f 18/23/18 24/29/24 26/31/26 
f 6/32/6 18/23/18 26/31/26 
f 6/33/6 26/34/26 25/35/25 
f 25/35/25 1/1/1 4/4/4 
f 6/33/6 25/35/25 4/4/4 
f 13/17/13 12/36/12 27/37/27 
f 13/17/13 27/37/27 28/38/28 
f 13/17/13 28/38/28 29/39/29 
f 6/40/6 13/17/13 29/39/29 
f 30/41/30 31/42/31 32/43/32 
f 29/39/29 30/41/30 32/43/32 
f 6/40/6 29/39/29 32/43/32 
f 33/44/33 16/45/16 15/46/15 
f 34/47/34 33/44/33 15/46/15 
f 32/43/32 34/47/34 15/46/15 
f 6/40/6 32/43/32 15/46/15 
f 33/48/33 34/49/34 35/50/35 
f 36/51/36 33/48/33 35/50/35 
f 36/51/36 35/50/35 37/52/37 
f 37/52/37 38/53/38 39/54/39 
f 36/51/36 37/52/37 39/54/39 
f 39/54/39 40/55/40 41/56/41 
f 36/51/36 39/54/39 41/56/41 
f 17/57/17 42/58/42 43/59/43 
f 43/59/43 20/25/20 19/24/19 
f 19/24/19 22/27/22 18/23/18 
f 43/59/43 19/24/19 18/23/18 
f 17/57/17 43/59/43 18/23/18 
f 8/60/8 44/61/44 45/62/45 
f 9/63/9 8/60/8 45/62/45 
f 46/64/46 47/65/47 48/66/48 
f 46/64/46 48/66/48 49/67/49 
f 46/64/46 49/67/49 50/68/50 
f 46/64/46 50/68/50 51/69/51 
f 52/70/52 46/64/46 51/69/51 
f 45/62/45 52/70/52 51/69/51 
f 9/63/9 45/62/45 51/69/51 
f 9/63/9 51/69/51 53/71/53 
f 10/72/10 9/63/9 53/71/53 
f 11/73/11 10/72/10 53/71/53 
f 53/71/53 54/74/54 55/75/55 
f 53/71/53 55/75/55 56/76/56 
f 53/71/53 56/76/56 27/37/27 
f 53/71/53 27/37/27 12/36/12 
f 11/73/11 53/71/53 12/36/12 
f 57/77/57 58/78/58 59/79/59 
f 28/38/28 57/77/57 59/79/59 
f 60/80/60 32/81/32 31/82/31 
f 59/79/59 60/80/60 31/82/31 
f 59/79/59 31/82/31 30/83/30 
f 59/79/59 30/83/30 29/84/29 
f 28/38/28 59/79/59 29/84/29 
f 37/52/37 61/85/61 62/86/62 
f 38/53/38 37/52/37 62/86/62 
f 38/53/38 62/86/62 63/87/63 
f 39/54/39 38/53/38 63/87/63 
f 40/55/40 39/54/39 63/87/63 
f 63/87/63 64/88/64 65/89/65 
f 66/90/66 21/26/21 20/25/20 
f 67/91/67 66/90/66 20/25/20 
f 68/92/68 67/91/67 20/25/20 
f 65/89/65 68/92/68 20/25/20 
f 65/89/65 20/25/20 43/59/43 
f 65/89/65 43/59/43 42/58/42 
f 65/89/65 42/58/42 69/93/69 
f 63/87/63 65/89/65 69/93/69 
f 40/55/40 63/87/63 69/93/69 
f 70/94/70 71/95/71 72/96/72 
f 73/97/73 70/94/70 72/96/72 
f 73/97/73 72/96/72 74/98/74 
f 75/99/75 73/97/73 74/98/74 
f 76/100/76 75/99/75 74/98/74 
f 74/98/74 77/101/77 78/102/78 
f 74/98/74 78/102/78 79/103/79 
f 76/100/76 74/98/74 79/103/79 
f 76/100/76 79/103/79 80/104/80 
f 76/100/76 80/104/80 2/2/2 
f 25/35/25 76/100/76 2/2/2 
f 25/35/25 2/2/2 1/1/1 
f 56/76/56 55/75/55 57/77/57 
f 27/37/27 56/76/56 57/77/57 
f 27/37/27 57/77/57 28/38/28 
f 2/2/2 80/104/80 3/3/3 
f 32/81/32 60/80/60 81/105/81 
f 82/106/82 61/85/61 37/52/37 
f 82/106/82 37/52/37 35/50/35 
f 81/105/81 82/106/82 35/50/35 
f 81/105/81 35/50/35 34/49/34 
f 32/81/32 81/105/81 34/49/34 
f 21/26/21 66/90/66 83/107/83 
f 83/107/83 84/108/84 85/109/85 
f 76/110/76 25/30/25 24/29/24 
f 75/111/75 76/110/76 24/29/24 
f 85/109/85 75/111/75 24/29/24 
f 85/109/85 24/29/24 23/28/23 
f 83/107/83 85/109/85 23/28/23 
f 21/26/21 83/107/83 23/28/23 
f 79/103/79 78/102/78 86/112/86 
f 80/104/80 79/103/79 86/112/86 
f 86/112/86 8/60/8 7/113/7 
f 7/113/7 5/114/5 3/3/3 
f 86/112/86 7/113/7 3/3/3 
f 80/104/80 86/112/86 3/3/3 
f 53/71/53 51/69/51 50/68/50 
f 54/74/54 53/71/53 50/68/50 
f 50/68/50 49/67/49 87/115/87 
f 50/68/50 87/115/87 88/116/88 
f 88/116/88 89/117/89 90/118/90 
f 91/119/91 92/120/92 93/121/93 
f 91/119/91 93/121/93 94/122/94 
f 91/119/91 94/122/94 95/123/95 
f 90/118/90 91/119/91 95/123/95 
f 90/118/90 95/123/95 59/79/59 
f 90/118/90 59/79/59 58/78/58 
f 88/116/88 90/118/90 58/78/58 
f 50/68/50 88/116/88 58/78/58 
f 54/74/54 50/68/50 58/78/58 
f 55/75/55 54/74/54 58/78/58 
f 55/75/55 58/78/58 57/77/57 
f 95/123/95 94/122/94 96/124/96 
f 96/124/96 97/125/97 98/126/98 
f 95/123/95 96/124/96 98/126/98 
f 95/123/95 98/126/98 60/80/60 
f 59/79/59 95/123/95 60/80/60 
f 99/127/99 100/128/100 101/129/101 
f 99/127/99 101/129/101 102/130/102 
f 102/130/102 103/131/103 104/132/104 
f 102/130/102 104/132/104 105/133/105 
f 105/133/105 62/86/62 61/85/61 
f 102/130/102 105/133/105 61/85/61 
f 102/130/102 61/85/61 82/106/82 
f 99/127/99 102/130/102 82/106/82 
f 99/127/99 82/106/82 81/105/81 
f 106/134/106 99/127/99 81/105/81 
f 97/125/97 106/134/106 81/105/81 
f 98/126/98 97/125/97 81/105/81 
f 60/80/60 98/126/98 81/105/81 
f 107/135/107 108/136/108 109/137/109 
f 107/135/107 109/137/109 110/138/110 
f 111/139/111 112/140/112 113/141/113 
f 111/139/111 113/141/113 114/142/114 
f 111/139/111 114/142/114 115/143/115 
f 110/138/110 111/139/111 115/143/115 
f 115/143/115 68/92/68 65/89/65 
f 115/143/115 65/89/65 64/88/64 
f 110/138/110 115/143/115 64/88/64 
f 107/135/107 110/138/110 64/88/64 
f 105/133/105 107/135/107 64/88/64 
f 62/86/62 105/133/105 64/88/64 
f 62/86/62 64/88/64 63/87/63 
f 113/141/113 116/144/116 117/145/117 
f 113/141/113 117/145/117 118/146/118 
f 114/142/114 113/141/113 118/146/118 
f 114/142/114 118/146/118 119/147/119 
f 114/142/114 119/147/119 67/91/67 
f 115/143/115 114/142/114 67/91/67 
f 68/92/68 115/143/115 67/91/67 
f 119/147/119 118/146/118 120/148/120 
f 67/91/67 119/147/119 120/148/120 
f 120/148/120 71/149/71 70/150/70 
f 73/151/73 75/111/75 85/109/85 
f 70/150/70 73/151/73 85/109/85 
f 70/150/70 85/109/85 84/108/84 
f 120/148/120 70/150/70 84/108/84 
f 67/91/67 120/148/120 84/108/84 
f 66/90/66 67/91/67 84/108/84 
f 66/90/66 84/108/84 83/107/83 
f 101/129/101 121/152/121 122/153/122 
f 102/130/102 101/129/101 122/153/122 
f 103/131/103 102/130/102 122/153/122 
f 122/153/122 123/154/123 124/155/124 
f 124/155/124 109/137/109 108/136/108 
f 122/153/122 124/155/124 108/136/108 
f 103/131/103 122/153/122 108/136/108 
f 104/132/104 103/131/103 108/136/108 
f 105/133/105 104/132/104 108/136/108 
f 105/133/105 108/136/108 107/135/107 
f 49/67/49 48/66/48 125/156/125 
f 87/115/87 49/67/49 125/156/125 
f 125/156/125 126/157/126 127/158/127 
f 87/115/87 125/156/125 127/158/127 
f 87/115/87 127/158/127 89/117/89 
f 87/115/87 89/117/89 88/116/88 
f 94/122/94 93/121/93 128/159/128 
f 129/160/129 121/152/121 101/129/101 
f 100/128/100 99/127/99 106/134/106 
f 101/129/101 100/128/100 106/134/106 
f 101/129/101 106/134/106 97/125/97 
f 129/160/129 101/129/101 97/125/97 
f 129/160/129 97/125/97 96/124/96 
f 128/159/128 129/160/129 96/124/96 
f 94/122/94 128/159/128 96/124/96 
f 124/155/124 111/139/111 110/138/110 
f 110/138/110 109/137/109 124/155/124 
f 130/161/130 131/162/131 132/163/132 
f 133/164/133 130/161/130 132/163/132 
f 72/165/72 133/164/133 132/163/132 
f 134/166/134 135/167/135 136/168/136 
f 132/163/132 134/166/134 136/168/136 
f 136/168/136 137/169/137 44/170/44 
f 44/170/44 8/171/8 86/172/86 
f 44/170/44 86/172/86 78/173/78 
f 44/170/44 78/173/78 77/174/77 
f 136/168/136 44/170/44 77/174/77 
f 132/163/132 136/168/136 77/174/77 
f 72/165/72 132/163/132 77/174/77 
f 72/165/72 77/174/77 74/175/74 
f 44/61/44 137/176/137 45/62/45 
f 123/154/123 138/177/138 139/178/139 
f 124/155/124 123/154/123 139/178/139 
f 139/178/139 140/179/140 116/144/116 
f 116/144/116 113/141/113 112/140/112 
f 139/178/139 116/144/116 112/140/112 
f 124/155/124 139/178/139 112/140/112 
f 124/155/124 112/140/112 111/139/111 
f 133/164/133 72/165/72 71/149/71 
f 71/149/71 141/180/141 133/164/133 
f 136/181/136 135/182/135 142/183/142 
f 142/183/142 143/184/143 144/185/144 
f 144/185/144 145/186/145 146/187/146 
f 142/183/142 144/185/144 146/187/146 
f 146/187/146 46/64/46 52/70/52 
f 146/187/146 52/70/52 45/62/45 
f 146/187/146 45/62/45 137/176/137 
f 142/183/142 146/187/146 137/176/137 
f 136/181/136 142/183/142 137/176/137 
f 92/120/92 147/188/147 129/160/129 
f 93/121/93 92/120/92 129/160/129 
f 93/121/93 129/160/129 128/159/128 
f 130/189/130 148/190/148 149/191/149 
f 131/192/131 130/189/130 149/191/149 
f 149/191/149 150/193/150 151/194/151 
f 149/191/149 151/194/151 152/195/152 
f 149/191/149 152/195/152 153/196/153 
f 131/192/131 149/191/149 153/196/153 
f 132/197/132 131/192/131 153/196/153 
f 132/197/132 153/196/153 134/198/134 
f 134/198/134 153/196/153 143/184/143 
f 143/184/143 142/183/142 135/182/135 
f 134/198/134 143/184/143 135/182/135 
f 47/65/47 154/199/154 155/200/155 
f 47/65/47 155/200/155 125/156/125 
f 48/66/48 47/65/47 125/156/125 
f 129/160/129 147/188/147 156/201/156 
f 157/202/157 122/153/122 121/152/121 
f 158/203/158 157/202/157 121/152/121 
f 159/204/159 158/203/158 121/152/121 
f 156/201/156 159/204/159 121/152/121 
f 129/160/129 156/201/156 121/152/121 
f 157/202/157 160/205/160 161/206/161 
f 122/153/122 157/202/157 161/206/161 
f 161/206/161 162/207/162 163/208/163 
f 161/206/161 163/208/163 151/209/151 
f 161/206/161 151/209/151 164/210/164 
f 161/206/161 164/210/164 165/211/165 
f 122/153/122 161/206/161 165/211/165 
f 166/212/166 167/213/167 140/179/140 
f 166/212/166 140/179/140 139/178/139 
f 166/212/166 139/178/139 138/177/138 
f 165/211/165 166/212/166 138/177/138 
f 122/153/122 165/211/165 138/177/138 
f 122/153/122 138/177/138 123/154/123 
f 116/144/116 140/179/140 167/213/167 
f 168/214/168 151/215/151 169/216/169 
f 169/216/169 150/217/150 149/218/149 
f 169/216/169 149/218/149 148/219/148 
f 168/214/168 169/216/169 148/219/148 
f 167/213/167 168/214/168 148/219/148 
f 130/220/130 133/164/133 141/180/141 
f 148/219/148 130/220/130 141/180/141 
f 141/180/141 71/149/71 120/148/120 
f 120/148/120 118/146/118 117/145/117 
f 141/180/141 120/148/120 117/145/117 
f 148/219/148 141/180/141 117/145/117 
f 167/213/167 148/219/148 117/145/117 
f 116/144/116 167/213/167 117/145/117 
f 91/119/91 170/221/170 171/222/171 
f 172/223/172 173/224/173 174/225/174 
f 162/226/162 161/227/161 160/205/160 
f 162/226/162 160/205/160 157/202/157 
f 162/226/162 157/202/157 158/203/158 
f 162/226/162 158/203/158 159/204/159 
f 174/225/174 162/226/162 159/204/159 
f 174/225/174 159/204/159 156/201/156 
f 174/225/174 156/201/156 147/188/147 
f 172/223/172 174/225/174 147/188/147 
f 171/222/171 172/223/172 147/188/147 
f 171/222/171 147/188/147 92/120/92 
f 91/119/91 171/222/171 92/120/92 
f 153/196/153 152/195/152 151/228/151 
f 154/229/154 47/230/47 46/231/46 
f 154/229/154 46/231/46 146/232/146 
f 151/228/151 154/229/154 146/232/146 
f 151/228/151 146/232/146 145/233/145 
f 145/233/145 144/185/144 143/184/143 
f 151/228/151 145/233/145 143/184/143 
f 153/196/153 151/228/151 143/184/143 
f 91/119/91 90/118/90 89/117/89 
f 91/119/91 89/117/89 127/158/127 
f 91/119/91 127/158/127 126/157/126 
f 170/221/170 91/119/91 126/157/126 
f 175/234/175 170/221/170 126/157/126 
f 175/234/175 126/157/126 125/156/125 
f 175/234/175 125/156/125 155/200/155 
f 151/235/151 175/234/175 155/200/155 
f 154/199/154 151/235/151 155/200/155 
f 165/211/165 164/210/164 151/236/151 
f 151/236/151 168/237/168 167/213/167 
f 151/236/151 167/213/167 166/212/166 
f 165/211/165 151/236/151 166/212/166 
f 151/238/151 150/217/150 169/216/169 
f 163/239/163 162/240/162 174/241/174 
f 163/239/163 174/241/174 173/242/173 
f 151/243/151 163/239/163 173/242/173 
f 173/242/173 172/223/172 171/244/171 
f 151/243/151 173/242/173 171/244/171 
f 151/243/151 171/244/171 170/245/170 
f 151/243/151 170/245/170 175/246/175 
# 339 faces

