^C:\USERS\TAHLIA\DESKTOP\GAME_ENGINE09\UNITTESTS\STDAFX.CPP
C:\PROGRAM FILES (X86)\MICROSOFT VISUAL STUDIO 11.0\VC\BIN\1033\CLUI.DLL
C:\WINDOWS\GLOBALIZATION\SORTING\SORTDEFAULT.NLS
C:\WINDOWS\SYSTEM32\RSAENH.DLL
C:\WINDOWS\SYSTEM32\TZRES.DLL
C:\USERS\TAHLIA\DESKTOP\GAME_ENGINE09\UNITTESTS\STDAFX.H
C:\USERS\TAHLIA\DESKTOP\GAME_ENGINE09\UNITTESTS\TARGETVER.H
C:\PROGRAM FILES (X86)\WINDOWS KITS\8.0\INCLUDE\SHARED\SDKDDKVER.H
C:\PROGRAM FILES (X86)\MICROSOFT VISUAL STUDIO 11.0\VC\UNITTEST\INCLUDE\CPPUNITTEST.H
C:\PROGRAM FILES (X86)\MICROSOFT VISUAL STUDIO 11.0\VC\UNITTEST\INCLUDE\CPPUNITTESTCOMMON.H
C:\PROGRAM FILES (X86)\MICROSOFT VISUAL STUDIO 11.0\VC\INCLUDE\CSTDLIB
C:\PROGRAM FILES (X86)\MICROSOFT VISUAL STUDIO 11.0\VC\INCLUDE\YVALS.H
C:\PROGRAM FILES (X86)\MICROSOFT VISUAL STUDIO 11.0\VC\INCLUDE\XKEYCHECK.H
C:\PROGRAM FILES (X86)\MICROSOFT VISUAL STUDIO 11.0\VC\INCLUDE\CRTDEFS.H
C:\PROGRAM FILES (X86)\MICROSOFT VISUAL STUDIO 11.0\VC\INCLUDE\SAL.H
C:\PROGRAM FILES (X86)\MICROSOFT VISUAL STUDIO 11.0\VC\INCLUDE\CONCURRENCYSAL.H
C:\PROGRAM FILES (X86)\MICROSOFT VISUAL STUDIO 11.0\VC\INCLUDE\VADEFS.H
C:\PROGRAM FILES (X86)\MICROSOFT VISUAL STUDIO 11.0\VC\INCLUDE\USE_ANSI.H
C:\PROGRAM FILES (X86)\MICROSOFT VISUAL STUDIO 11.0\VC\INCLUDE\STDLIB.H
C:\PROGRAM FILES (X86)\MICROSOFT VISUAL STUDIO 11.0\VC\INCLUDE\LIMITS.H
C:\PROGRAM FILES (X86)\MICROSOFT VISUAL STUDIO 11.0\VC\INCLUDE\CSTDINT
C:\PROGRAM FILES (X86)\MICROSOFT VISUAL STUDIO 11.0\VC\INCLUDE\STDINT.H
C:\PROGRAM FILES (X86)\MICROSOFT VISUAL STUDIO 11.0\VC\INCLUDE\CRTDBG.H
C:\PROGRAM FILES (X86)\MICROSOFT VISUAL STUDIO 11.0\VC\UNITTEST\INCLUDE\CPPUNITTESTASSERT.H
C:\PROGRAM FILES (X86)\MICROSOFT VISUAL STUDIO 11.0\VC\INCLUDE\CMATH
C:\PROGRAM FILES (X86)\MICROSOFT VISUAL STUDIO 11.0\VC\INCLUDE\MATH.H
C:\PROGRAM FILES (X86)\MICROSOFT VISUAL STUDIO 11.0\VC\INCLUDE\XTGMATH.H
C:\PROGRAM FILES (X86)\MICROSOFT VISUAL STUDIO 11.0\VC\INCLUDE\XTR1COMMON
C:\PROGRAM FILES (X86)\MICROSOFT VISUAL STUDIO 11.0\VC\INCLUDE\STRING
C:\PROGRAM FILES (X86)\MICROSOFT VISUAL STUDIO 11.0\VC\INCLUDE\ITERATOR
C:\PROGRAM FILES (X86)\MICROSOFT VISUAL STUDIO 11.0\VC\INCLUDE\ISTREAM
C:\PROGRAM FILES (X86)\MICROSOFT VISUAL STUDIO 11.0\VC\INCLUDE\OSTREAM
C:\PROGRAM FILES (X86)\MICROSOFT VISUAL STUDIO 11.0\VC\INCLUDE\IOS
C:\PROGRAM FILES (X86)\MICROSOFT VISUAL STUDIO 11.0\VC\INCLUDE\XLOCNUM
C:\PROGRAM FILES (X86)\MICROSOFT VISUAL STUDIO 11.0\VC\INCLUDE\CLIMITS
C:\PROGRAM FILES (X86)\MICROSOFT VISUAL STUDIO 11.0\VC\INCLUDE\CSTDIO
C:\PROGRAM FILES (X86)\MICROSOFT VISUAL STUDIO 11.0\VC\INCLUDE\STDIO.H
C:\PROGRAM FILES (X86)\MICROSOFT VISUAL STUDIO 11.0\VC\INCLUDE\SWPRINTF.INL
C:\PROGRAM FILES (X86)\MICROSOFT VISUAL STUDIO 11.0\VC\INCLUDE\STREAMBUF
C:\PROGRAM FILES (X86)\MICROSOFT VISUAL STUDIO 11.0\VC\INCLUDE\XIOSBASE
C:\PROGRAM FILES (X86)\MICROSOFT VISUAL STUDIO 11.0\VC\INCLUDE\XLOCALE
C:\PROGRAM FILES (X86)\MICROSOFT VISUAL STUDIO 11.0\VC\INCLUDE\CSTRING
C:\PROGRAM FILES (X86)\MICROSOFT VISUAL STUDIO 11.0\VC\INCLUDE\STRING.H
C:\PROGRAM FILES (X86)\MICROSOFT VISUAL STUDIO 11.0\VC\INCLUDE\STDEXCEPT
C:\PROGRAM FILES (X86)\MICROSOFT VISUAL STUDIO 11.0\VC\INCLUDE\EXCEPTION
C:\PROGRAM FILES (X86)\MICROSOFT VISUAL STUDIO 11.0\VC\INCLUDE\XSTDDEF
C:\PROGRAM FILES (X86)\MICROSOFT VISUAL STUDIO 11.0\VC\INCLUDE\CSTDDEF
C:\PROGRAM FILES (X86)\MICROSOFT VISUAL STUDIO 11.0\VC\INCLUDE\STDDEF.H
C:\PROGRAM FILES (X86)\MICROSOFT VISUAL STUDIO 11.0\VC\INCLUDE\EH.H
C:\PROGRAM FILES (X86)\MICROSOFT VISUAL STUDIO 11.0\VC\INCLUDE\MALLOC.H
C:\PROGRAM FILES (X86)\MICROSOFT VISUAL STUDIO 11.0\VC\INCLUDE\XSTRING
C:\PROGRAM FILES (X86)\MICROSOFT VISUAL STUDIO 11.0\VC\INCLUDE\XMEMORY0
C:\PROGRAM FILES (X86)\MICROSOFT VISUAL STUDIO 11.0\VC\INCLUDE\LIMITS
C:\PROGRAM FILES (X86)\MICROSOFT VISUAL STUDIO 11.0\VC\INCLUDE\YMATH.H
C:\PROGRAM FILES (X86)\MICROSOFT VISUAL STUDIO 11.0\VC\INCLUDE\CFLOAT
C:\PROGRAM FILES (X86)\MICROSOFT VISUAL STUDIO 11.0\VC\INCLUDE\FLOAT.H
C:\PROGRAM FILES (X86)\MICROSOFT VISUAL STUDIO 11.0\VC\INCLUDE\CRTWRN.H
C:\PROGRAM FILES (X86)\MICROSOFT VISUAL STUDIO 11.0\VC\INCLUDE\CWCHAR
C:\PROGRAM FILES (X86)\MICROSOFT VISUAL STUDIO 11.0\VC\INCLUDE\WCHAR.H
C:\PROGRAM FILES (X86)\MICROSOFT VISUAL STUDIO 11.0\VC\INCLUDE\WTIME.INL
C:\PROGRAM FILES (X86)\MICROSOFT VISUAL STUDIO 11.0\VC\INCLUDE\NEW
C:\PROGRAM FILES (X86)\MICROSOFT VISUAL STUDIO 11.0\VC\INCLUDE\XUTILITY
C:\PROGRAM FILES (X86)\MICROSOFT VISUAL STUDIO 11.0\VC\INCLUDE\UTILITY
C:\PROGRAM FILES (X86)\MICROSOFT VISUAL STUDIO 11.0\VC\INCLUDE\IOSFWD
C:\PROGRAM FILES (X86)\MICROSOFT VISUAL STUDIO 11.0\VC\INCLUDE\TYPE_TRAITS
C:\PROGRAM FILES (X86)\MICROSOFT VISUAL STUDIO 11.0\VC\INCLUDE\XREFWRAP
C:\PROGRAM FILES (X86)\MICROSOFT VISUAL STUDIO 11.0\VC\INCLUDE\XATOMIC0.H
C:\PROGRAM FILES (X86)\MICROSOFT VISUAL STUDIO 11.0\VC\INCLUDE\INTRIN.H
C:\PROGRAM FILES (X86)\MICROSOFT VISUAL STUDIO 11.0\VC\INCLUDE\SETJMP.H
C:\PROGRAM FILES (X86)\MICROSOFT VISUAL STUDIO 11.0\VC\INCLUDE\IMMINTRIN.H
C:\PROGRAM FILES (X86)\MICROSOFT VISUAL STUDIO 11.0\VC\INCLUDE\WMMINTRIN.H
C:\PROGRAM FILES (X86)\MICROSOFT VISUAL STUDIO 11.0\VC\INCLUDE\NMMINTRIN.H
C:\PROGRAM FILES (X86)\MICROSOFT VISUAL STUDIO 11.0\VC\INCLUDE\SMMINTRIN.H
C:\PROGRAM FILES (X86)\MICROSOFT VISUAL STUDIO 11.0\VC\INCLUDE\TMMINTRIN.H
C:\PROGRAM FILES (X86)\MICROSOFT VISUAL STUDIO 11.0\VC\INCLUDE\PMMINTRIN.H
C:\PROGRAM FILES (X86)\MICROSOFT VISUAL STUDIO 11.0\VC\INCLUDE\EMMINTRIN.H
C:\PROGRAM FILES (X86)\MICROSOFT VISUAL STUDIO 11.0\VC\INCLUDE\XMMINTRIN.H
C:\PROGRAM FILES (X86)\MICROSOFT VISUAL STUDIO 11.0\VC\INCLUDE\MMINTRIN.H
C:\PROGRAM FILES (X86)\MICROSOFT VISUAL STUDIO 11.0\VC\INCLUDE\AMMINTRIN.H
C:\PROGRAM FILES (X86)\MICROSOFT VISUAL STUDIO 11.0\VC\INCLUDE\MM3DNOW.H
C:\PROGRAM FILES (X86)\MICROSOFT VISUAL STUDIO 11.0\VC\INCLUDE\TYPEINFO
C:\PROGRAM FILES (X86)\MICROSOFT VISUAL STUDIO 11.0\VC\INCLUDE\XLOCINFO
C:\PROGRAM FILES (X86)\MICROSOFT VISUAL STUDIO 11.0\VC\INCLUDE\XLOCINFO.H
C:\PROGRAM FILES (X86)\MICROSOFT VISUAL STUDIO 11.0\VC\INCLUDE\CTYPE.H
C:\PROGRAM FILES (X86)\MICROSOFT VISUAL STUDIO 11.0\VC\INCLUDE\LOCALE.H
C:\PROGRAM FILES (X86)\MICROSOFT VISUAL STUDIO 11.0\VC\INCLUDE\XDEBUG
C:\PROGRAM FILES (X86)\MICROSOFT VISUAL STUDIO 11.0\VC\INCLUDE\XMEMORY
C:\PROGRAM FILES (X86)\MICROSOFT VISUAL STUDIO 11.0\VC\INCLUDE\XFACET
C:\PROGRAM FILES (X86)\MICROSOFT VISUAL STUDIO 11.0\VC\INCLUDE\SYSTEM_ERROR
C:\PROGRAM FILES (X86)\MICROSOFT VISUAL STUDIO 11.0\VC\INCLUDE\CERRNO
C:\PROGRAM FILES (X86)\MICROSOFT VISUAL STUDIO 11.0\VC\INCLUDE\ERRNO.H
C:\PROGRAM FILES (X86)\MICROSOFT VISUAL STUDIO 11.0\VC\INCLUDE\SHARE.H
C:\PROGRAM FILES (X86)\MICROSOFT VISUAL STUDIO 11.0\VC\INCLUDE\SSTREAM
C:\PROGRAM FILES (X86)\MICROSOFT VISUAL STUDIO 11.0\VC\UNITTEST\INCLUDE\CPPUNITTESTLOGGER.H
^C:\USERS\TAHLIA\DESKTOP\GAME_ENGINE09\UNITTESTS\SCRIPTFUNCTIONSUNITTEST.CPP
C:\PROGRAM FILES (X86)\MICROSOFT VISUAL STUDIO 11.0\VC\BIN\1033\CLUI.DLL
C:\WINDOWS\GLOBALIZATION\SORTING\SORTDEFAULT.NLS
C:\WINDOWS\SYSTEM32\RSAENH.DLL
C:\WINDOWS\SYSTEM32\TZRES.DLL
C:\USERS\TAHLIA\DESKTOP\GAME_ENGINE09\UNITTESTS\STDAFX.H
C:\USERS\TAHLIA\DESKTOP\GAME_ENGINE09\UNITTESTS\TARGETVER.H
C:\PROGRAM FILES (X86)\WINDOWS KITS\8.0\INCLUDE\SHARED\SDKDDKVER.H
C:\PROGRAM FILES (X86)\MICROSOFT VISUAL STUDIO 11.0\VC\UNITTEST\INCLUDE\CPPUNITTEST.H
C:\PROGRAM FILES (X86)\MICROSOFT VISUAL STUDIO 11.0\VC\UNITTEST\INCLUDE\CPPUNITTESTCOMMON.H
C:\PROGRAM FILES (X86)\MICROSOFT VISUAL STUDIO 11.0\VC\INCLUDE\CSTDLIB
C:\PROGRAM FILES (X86)\MICROSOFT VISUAL STUDIO 11.0\VC\INCLUDE\YVALS.H
C:\PROGRAM FILES (X86)\MICROSOFT VISUAL STUDIO 11.0\VC\INCLUDE\XKEYCHECK.H
C:\PROGRAM FILES (X86)\MICROSOFT VISUAL STUDIO 11.0\VC\INCLUDE\CRTDEFS.H
C:\PROGRAM FILES (X86)\MICROSOFT VISUAL STUDIO 11.0\VC\INCLUDE\SAL.H
C:\PROGRAM FILES (X86)\MICROSOFT VISUAL STUDIO 11.0\VC\INCLUDE\CONCURRENCYSAL.H
C:\PROGRAM FILES (X86)\MICROSOFT VISUAL STUDIO 11.0\VC\INCLUDE\VADEFS.H
C:\PROGRAM FILES (X86)\MICROSOFT VISUAL STUDIO 11.0\VC\INCLUDE\USE_ANSI.H
C:\PROGRAM FILES (X86)\MICROSOFT VISUAL STUDIO 11.0\VC\INCLUDE\STDLIB.H
C:\PROGRAM FILES (X86)\MICROSOFT VISUAL STUDIO 11.0\VC\INCLUDE\LIMITS.H
C:\PROGRAM FILES (X86)\MICROSOFT VISUAL STUDIO 11.0\VC\INCLUDE\CSTDINT
C:\PROGRAM FILES (X86)\MICROSOFT VISUAL STUDIO 11.0\VC\INCLUDE\STDINT.H
C:\PROGRAM FILES (X86)\MICROSOFT VISUAL STUDIO 11.0\VC\INCLUDE\CRTDBG.H
C:\PROGRAM FILES (X86)\MICROSOFT VISUAL STUDIO 11.0\VC\UNITTEST\INCLUDE\CPPUNITTESTASSERT.H
C:\PROGRAM FILES (X86)\MICROSOFT VISUAL STUDIO 11.0\VC\INCLUDE\CMATH
C:\PROGRAM FILES (X86)\MICROSOFT VISUAL STUDIO 11.0\VC\INCLUDE\MATH.H
C:\PROGRAM FILES (X86)\MICROSOFT VISUAL STUDIO 11.0\VC\INCLUDE\XTGMATH.H
C:\PROGRAM FILES (X86)\MICROSOFT VISUAL STUDIO 11.0\VC\INCLUDE\XTR1COMMON
C:\PROGRAM FILES (X86)\MICROSOFT VISUAL STUDIO 11.0\VC\INCLUDE\STRING
C:\PROGRAM FILES (X86)\MICROSOFT VISUAL STUDIO 11.0\VC\INCLUDE\ITERATOR
C:\PROGRAM FILES (X86)\MICROSOFT VISUAL STUDIO 11.0\VC\INCLUDE\ISTREAM
C:\PROGRAM FILES (X86)\MICROSOFT VISUAL STUDIO 11.0\VC\INCLUDE\OSTREAM
C:\PROGRAM FILES (X86)\MICROSOFT VISUAL STUDIO 11.0\VC\INCLUDE\IOS
C:\PROGRAM FILES (X86)\MICROSOFT VISUAL STUDIO 11.0\VC\INCLUDE\XLOCNUM
C:\PROGRAM FILES (X86)\MICROSOFT VISUAL STUDIO 11.0\VC\INCLUDE\CLIMITS
C:\PROGRAM FILES (X86)\MICROSOFT VISUAL STUDIO 11.0\VC\INCLUDE\CSTDIO
C:\PROGRAM FILES (X86)\MICROSOFT VISUAL STUDIO 11.0\VC\INCLUDE\STDIO.H
C:\PROGRAM FILES (X86)\MICROSOFT VISUAL STUDIO 11.0\VC\INCLUDE\SWPRINTF.INL
C:\PROGRAM FILES (X86)\MICROSOFT VISUAL STUDIO 11.0\VC\INCLUDE\STREAMBUF
C:\PROGRAM FILES (X86)\MICROSOFT VISUAL STUDIO 11.0\VC\INCLUDE\XIOSBASE
C:\PROGRAM FILES (X86)\MICROSOFT VISUAL STUDIO 11.0\VC\INCLUDE\XLOCALE
C:\PROGRAM FILES (X86)\MICROSOFT VISUAL STUDIO 11.0\VC\INCLUDE\CSTRING
C:\PROGRAM FILES (X86)\MICROSOFT VISUAL STUDIO 11.0\VC\INCLUDE\STRING.H
C:\PROGRAM FILES (X86)\MICROSOFT VISUAL STUDIO 11.0\VC\INCLUDE\STDEXCEPT
C:\PROGRAM FILES (X86)\MICROSOFT VISUAL STUDIO 11.0\VC\INCLUDE\EXCEPTION
C:\PROGRAM FILES (X86)\MICROSOFT VISUAL STUDIO 11.0\VC\INCLUDE\XSTDDEF
C:\PROGRAM FILES (X86)\MICROSOFT VISUAL STUDIO 11.0\VC\INCLUDE\CSTDDEF
C:\PROGRAM FILES (X86)\MICROSOFT VISUAL STUDIO 11.0\VC\INCLUDE\STDDEF.H
C:\PROGRAM FILES (X86)\MICROSOFT VISUAL STUDIO 11.0\VC\INCLUDE\EH.H
C:\PROGRAM FILES (X86)\MICROSOFT VISUAL STUDIO 11.0\VC\INCLUDE\MALLOC.H
C:\PROGRAM FILES (X86)\MICROSOFT VISUAL STUDIO 11.0\VC\INCLUDE\XSTRING
C:\PROGRAM FILES (X86)\MICROSOFT VISUAL STUDIO 11.0\VC\INCLUDE\XMEMORY0
C:\PROGRAM FILES (X86)\MICROSOFT VISUAL STUDIO 11.0\VC\INCLUDE\LIMITS
C:\PROGRAM FILES (X86)\MICROSOFT VISUAL STUDIO 11.0\VC\INCLUDE\YMATH.H
C:\PROGRAM FILES (X86)\MICROSOFT VISUAL STUDIO 11.0\VC\INCLUDE\CFLOAT
C:\PROGRAM FILES (X86)\MICROSOFT VISUAL STUDIO 11.0\VC\INCLUDE\FLOAT.H
C:\PROGRAM FILES (X86)\MICROSOFT VISUAL STUDIO 11.0\VC\INCLUDE\CRTWRN.H
C:\PROGRAM FILES (X86)\MICROSOFT VISUAL STUDIO 11.0\VC\INCLUDE\CWCHAR
C:\PROGRAM FILES (X86)\MICROSOFT VISUAL STUDIO 11.0\VC\INCLUDE\WCHAR.H
C:\PROGRAM FILES (X86)\MICROSOFT VISUAL STUDIO 11.0\VC\INCLUDE\WTIME.INL
C:\PROGRAM FILES (X86)\MICROSOFT VISUAL STUDIO 11.0\VC\INCLUDE\NEW
C:\PROGRAM FILES (X86)\MICROSOFT VISUAL STUDIO 11.0\VC\INCLUDE\XUTILITY
C:\PROGRAM FILES (X86)\MICROSOFT VISUAL STUDIO 11.0\VC\INCLUDE\UTILITY
C:\PROGRAM FILES (X86)\MICROSOFT VISUAL STUDIO 11.0\VC\INCLUDE\IOSFWD
C:\PROGRAM FILES (X86)\MICROSOFT VISUAL STUDIO 11.0\VC\INCLUDE\TYPE_TRAITS
C:\PROGRAM FILES (X86)\MICROSOFT VISUAL STUDIO 11.0\VC\INCLUDE\XREFWRAP
C:\PROGRAM FILES (X86)\MICROSOFT VISUAL STUDIO 11.0\VC\INCLUDE\XATOMIC0.H
C:\PROGRAM FILES (X86)\MICROSOFT VISUAL STUDIO 11.0\VC\INCLUDE\INTRIN.H
C:\PROGRAM FILES (X86)\MICROSOFT VISUAL STUDIO 11.0\VC\INCLUDE\SETJMP.H
C:\PROGRAM FILES (X86)\MICROSOFT VISUAL STUDIO 11.0\VC\INCLUDE\IMMINTRIN.H
C:\PROGRAM FILES (X86)\MICROSOFT VISUAL STUDIO 11.0\VC\INCLUDE\WMMINTRIN.H
C:\PROGRAM FILES (X86)\MICROSOFT VISUAL STUDIO 11.0\VC\INCLUDE\NMMINTRIN.H
C:\PROGRAM FILES (X86)\MICROSOFT VISUAL STUDIO 11.0\VC\INCLUDE\SMMINTRIN.H
C:\PROGRAM FILES (X86)\MICROSOFT VISUAL STUDIO 11.0\VC\INCLUDE\TMMINTRIN.H
C:\PROGRAM FILES (X86)\MICROSOFT VISUAL STUDIO 11.0\VC\INCLUDE\PMMINTRIN.H
C:\PROGRAM FILES (X86)\MICROSOFT VISUAL STUDIO 11.0\VC\INCLUDE\EMMINTRIN.H
C:\PROGRAM FILES (X86)\MICROSOFT VISUAL STUDIO 11.0\VC\INCLUDE\XMMINTRIN.H
C:\PROGRAM FILES (X86)\MICROSOFT VISUAL STUDIO 11.0\VC\INCLUDE\MMINTRIN.H
C:\PROGRAM FILES (X86)\MICROSOFT VISUAL STUDIO 11.0\VC\INCLUDE\AMMINTRIN.H
C:\PROGRAM FILES (X86)\MICROSOFT VISUAL STUDIO 11.0\VC\INCLUDE\MM3DNOW.H
C:\PROGRAM FILES (X86)\MICROSOFT VISUAL STUDIO 11.0\VC\INCLUDE\TYPEINFO
C:\PROGRAM FILES (X86)\MICROSOFT VISUAL STUDIO 11.0\VC\INCLUDE\XLOCINFO
C:\PROGRAM FILES (X86)\MICROSOFT VISUAL STUDIO 11.0\VC\INCLUDE\XLOCINFO.H
C:\PROGRAM FILES (X86)\MICROSOFT VISUAL STUDIO 11.0\VC\INCLUDE\CTYPE.H
C:\PROGRAM FILES (X86)\MICROSOFT VISUAL STUDIO 11.0\VC\INCLUDE\LOCALE.H
C:\PROGRAM FILES (X86)\MICROSOFT VISUAL STUDIO 11.0\VC\INCLUDE\XDEBUG
C:\PROGRAM FILES (X86)\MICROSOFT VISUAL STUDIO 11.0\VC\INCLUDE\XMEMORY
C:\PROGRAM FILES (X86)\MICROSOFT VISUAL STUDIO 11.0\VC\INCLUDE\XFACET
C:\PROGRAM FILES (X86)\MICROSOFT VISUAL STUDIO 11.0\VC\INCLUDE\SYSTEM_ERROR
C:\PROGRAM FILES (X86)\MICROSOFT VISUAL STUDIO 11.0\VC\INCLUDE\CERRNO
C:\PROGRAM FILES (X86)\MICROSOFT VISUAL STUDIO 11.0\VC\INCLUDE\ERRNO.H
C:\PROGRAM FILES (X86)\MICROSOFT VISUAL STUDIO 11.0\VC\INCLUDE\SHARE.H
C:\PROGRAM FILES (X86)\MICROSOFT VISUAL STUDIO 11.0\VC\INCLUDE\SSTREAM
C:\PROGRAM FILES (X86)\MICROSOFT VISUAL STUDIO 11.0\VC\UNITTEST\INCLUDE\CPPUNITTESTLOGGER.H
C:\USERS\TAHLIA\DESKTOP\GAME_ENGINE09\ENGINE\SCRIPTFUNCTIONS.H
C:\USERS\TAHLIA\DESKTOP\GAME_ENGINE09\ENGINE\BLACKWHALE\INPUT\INPUT.H
C:\PROGRAM FILES (X86)\MICROSOFT VISUAL STUDIO 11.0\VC\INCLUDE\MAP
C:\PROGRAM FILES (X86)\MICROSOFT VISUAL STUDIO 11.0\VC\INCLUDE\XTREE
C:\USERS\TAHLIA\DESKTOP\GAME_ENGINE09\ENGINE\BLACKWHALE\MATH_S.H
C:\PROGRAM FILES (X86)\MICROSOFT VISUAL STUDIO 11.0\VC\INCLUDE\IOSTREAM
C:\USERS\TAHLIA\DESKTOP\GAME_ENGINE09\ENGINE\BLACKWHALE\INTERFACES\SERIALIZATION.H
C:\USERS\TAHLIA\DESKTOP\GAME_ENGINE09\ENGINE\LIBRARY\INCLUDE\BOOST\ARCHIVE\DETAIL\REGISTER_ARCHIVE.HPP
C:\USERS\TAHLIA\DESKTOP\GAME_ENGINE09\ENGINE\LIBRARY\INCLUDE\BOOST\ARCHIVE\TEXT_OARCHIVE.HPP
C:\USERS\TAHLIA\DESKTOP\GAME_ENGINE09\ENGINE\LIBRARY\INCLUDE\BOOST\CONFIG.HPP
C:\USERS\TAHLIA\DESKTOP\GAME_ENGINE09\ENGINE\LIBRARY\INCLUDE\BOOST\CONFIG\USER.HPP
C:\USERS\TAHLIA\DESKTOP\GAME_ENGINE09\ENGINE\LIBRARY\INCLUDE\BOOST\CONFIG\SELECT_COMPILER_CONFIG.HPP
C:\USERS\TAHLIA\DESKTOP\GAME_ENGINE09\ENGINE\LIBRARY\INCLUDE\BOOST\CONFIG\COMPILER\VISUALC.HPP
C:\USERS\TAHLIA\DESKTOP\GAME_ENGINE09\ENGINE\LIBRARY\INCLUDE\BOOST\CONFIG\SELECT_STDLIB_CONFIG.HPP
C:\USERS\TAHLIA\DESKTOP\GAME_ENGINE09\ENGINE\LIBRARY\INCLUDE\BOOST\CONFIG\STDLIB\DINKUMWARE.HPP
C:\USERS\TAHLIA\DESKTOP\GAME_ENGINE09\ENGINE\LIBRARY\INCLUDE\BOOST\CONFIG\SELECT_PLATFORM_CONFIG.HPP
C:\USERS\TAHLIA\DESKTOP\GAME_ENGINE09\ENGINE\LIBRARY\INCLUDE\BOOST\CONFIG\PLATFORM\WIN32.HPP
C:\USERS\TAHLIA\DESKTOP\GAME_ENGINE09\ENGINE\LIBRARY\INCLUDE\BOOST\CONFIG\SUFFIX.HPP
C:\USERS\TAHLIA\DESKTOP\GAME_ENGINE09\ENGINE\LIBRARY\INCLUDE\BOOST\ARCHIVE\DETAIL\AUTO_LINK_ARCHIVE.HPP
C:\USERS\TAHLIA\DESKTOP\GAME_ENGINE09\ENGINE\LIBRARY\INCLUDE\BOOST\ARCHIVE\DETAIL\DECL.HPP
C:\USERS\TAHLIA\DESKTOP\GAME_ENGINE09\ENGINE\LIBRARY\INCLUDE\BOOST\CONFIG\AUTO_LINK.HPP
C:\USERS\TAHLIA\DESKTOP\GAME_ENGINE09\ENGINE\LIBRARY\INCLUDE\BOOST\VERSION.HPP
C:\USERS\TAHLIA\DESKTOP\GAME_ENGINE09\ENGINE\LIBRARY\INCLUDE\BOOST\ARCHIVE\BASIC_TEXT_OPRIMITIVE.HPP
C:\PROGRAM FILES (X86)\MICROSOFT VISUAL STUDIO 11.0\VC\INCLUDE\IOMANIP
C:\PROGRAM FILES (X86)\MICROSOFT VISUAL STUDIO 11.0\VC\INCLUDE\XLOCMON
C:\PROGRAM FILES (X86)\MICROSOFT VISUAL STUDIO 11.0\VC\INCLUDE\XLOCTIME
C:\PROGRAM FILES (X86)\MICROSOFT VISUAL STUDIO 11.0\VC\INCLUDE\CTIME
C:\PROGRAM FILES (X86)\MICROSOFT VISUAL STUDIO 11.0\VC\INCLUDE\TIME.H
C:\PROGRAM FILES (X86)\MICROSOFT VISUAL STUDIO 11.0\VC\INCLUDE\TIME.INL
C:\PROGRAM FILES (X86)\MICROSOFT VISUAL STUDIO 11.0\VC\INCLUDE\LOCALE
C:\PROGRAM FILES (X86)\MICROSOFT VISUAL STUDIO 11.0\VC\INCLUDE\XLOCBUF
C:\PROGRAM FILES (X86)\MICROSOFT VISUAL STUDIO 11.0\VC\INCLUDE\XLOCMES
C:\USERS\TAHLIA\DESKTOP\GAME_ENGINE09\ENGINE\LIBRARY\INCLUDE\BOOST\STATIC_ASSERT.HPP
C:\USERS\TAHLIA\DESKTOP\GAME_ENGINE09\ENGINE\LIBRARY\INCLUDE\BOOST\DETAIL\WORKAROUND.HPP
C:\USERS\TAHLIA\DESKTOP\GAME_ENGINE09\ENGINE\LIBRARY\INCLUDE\BOOST\IO\IOS_STATE.HPP
C:\USERS\TAHLIA\DESKTOP\GAME_ENGINE09\ENGINE\LIBRARY\INCLUDE\BOOST\IO_FWD.HPP
C:\USERS\TAHLIA\DESKTOP\GAME_ENGINE09\ENGINE\LIBRARY\INCLUDE\BOOST\TYPE_TRAITS\IS_FLOATING_POINT.HPP
C:\USERS\TAHLIA\DESKTOP\GAME_ENGINE09\ENGINE\LIBRARY\INCLUDE\BOOST\TYPE_TRAITS\INTEGRAL_CONSTANT.HPP
C:\USERS\TAHLIA\DESKTOP\GAME_ENGINE09\ENGINE\LIBRARY\INCLUDE\BOOST\MPL\BOOL.HPP
C:\USERS\TAHLIA\DESKTOP\GAME_ENGINE09\ENGINE\LIBRARY\INCLUDE\BOOST\MPL\BOOL_FWD.HPP
C:\USERS\TAHLIA\DESKTOP\GAME_ENGINE09\ENGINE\LIBRARY\INCLUDE\BOOST\MPL\AUX_\ADL_BARRIER.HPP
C:\USERS\TAHLIA\DESKTOP\GAME_ENGINE09\ENGINE\LIBRARY\INCLUDE\BOOST\MPL\AUX_\CONFIG\ADL.HPP
C:\USERS\TAHLIA\DESKTOP\GAME_ENGINE09\ENGINE\LIBRARY\INCLUDE\BOOST\MPL\AUX_\CONFIG\MSVC.HPP
C:\USERS\TAHLIA\DESKTOP\GAME_ENGINE09\ENGINE\LIBRARY\INCLUDE\BOOST\MPL\AUX_\CONFIG\INTEL.HPP
C:\USERS\TAHLIA\DESKTOP\GAME_ENGINE09\ENGINE\LIBRARY\INCLUDE\BOOST\MPL\AUX_\CONFIG\GCC.HPP
C:\USERS\TAHLIA\DESKTOP\GAME_ENGINE09\ENGINE\LIBRARY\INCLUDE\BOOST\MPL\AUX_\CONFIG\WORKAROUND.HPP
C:\USERS\TAHLIA\DESKTOP\GAME_ENGINE09\ENGINE\LIBRARY\INCLUDE\BOOST\MPL\INTEGRAL_C_TAG.HPP
C:\USERS\TAHLIA\DESKTOP\GAME_ENGINE09\ENGINE\LIBRARY\INCLUDE\BOOST\MPL\AUX_\CONFIG\STATIC_CONSTANT.HPP
C:\USERS\TAHLIA\DESKTOP\GAME_ENGINE09\ENGINE\LIBRARY\INCLUDE\BOOST\LIMITS.HPP
C:\USERS\TAHLIA\DESKTOP\GAME_ENGINE09\ENGINE\LIBRARY\INCLUDE\BOOST\INTEGER.HPP
C:\USERS\TAHLIA\DESKTOP\GAME_ENGINE09\ENGINE\LIBRARY\INCLUDE\BOOST\INTEGER_FWD.HPP
C:\USERS\TAHLIA\DESKTOP\GAME_ENGINE09\ENGINE\LIBRARY\INCLUDE\BOOST\CSTDINT.HPP
C:\USERS\TAHLIA\DESKTOP\GAME_ENGINE09\ENGINE\LIBRARY\INCLUDE\BOOST\INTEGER_TRAITS.HPP
C:\USERS\TAHLIA\DESKTOP\GAME_ENGINE09\ENGINE\LIBRARY\INCLUDE\BOOST\SERIALIZATION\THROW_EXCEPTION.HPP
C:\USERS\TAHLIA\DESKTOP\GAME_ENGINE09\ENGINE\LIBRARY\INCLUDE\BOOST\ARCHIVE\BASIC_STREAMBUF_LOCALE_SAVER.HPP
C:\USERS\TAHLIA\DESKTOP\GAME_ENGINE09\ENGINE\LIBRARY\INCLUDE\BOOST\NONCOPYABLE.HPP
C:\USERS\TAHLIA\DESKTOP\GAME_ENGINE09\ENGINE\LIBRARY\INCLUDE\BOOST\CORE\NONCOPYABLE.HPP
C:\USERS\TAHLIA\DESKTOP\GAME_ENGINE09\ENGINE\LIBRARY\INCLUDE\BOOST\ARCHIVE\CODECVT_NULL.HPP
C:\USERS\TAHLIA\DESKTOP\GAME_ENGINE09\ENGINE\LIBRARY\INCLUDE\BOOST\ARCHIVE\DETAIL\ABI_PREFIX.HPP
C:\USERS\TAHLIA\DESKTOP\GAME_ENGINE09\ENGINE\LIBRARY\INCLUDE\BOOST\CONFIG\ABI_PREFIX.HPP
C:\USERS\TAHLIA\DESKTOP\GAME_ENGINE09\ENGINE\LIBRARY\INCLUDE\BOOST\CONFIG\ABI\MSVC_PREFIX.HPP
C:\USERS\TAHLIA\DESKTOP\GAME_ENGINE09\ENGINE\LIBRARY\INCLUDE\BOOST\ARCHIVE\DETAIL\ABI_SUFFIX.HPP
C:\USERS\TAHLIA\DESKTOP\GAME_ENGINE09\ENGINE\LIBRARY\INCLUDE\BOOST\CONFIG\ABI_SUFFIX.HPP
C:\USERS\TAHLIA\DESKTOP\GAME_ENGINE09\ENGINE\LIBRARY\INCLUDE\BOOST\CONFIG\ABI\MSVC_SUFFIX.HPP
C:\USERS\TAHLIA\DESKTOP\GAME_ENGINE09\ENGINE\LIBRARY\INCLUDE\BOOST\ARCHIVE\ARCHIVE_EXCEPTION.HPP
C:\USERS\TAHLIA\DESKTOP\GAME_ENGINE09\ENGINE\LIBRARY\INCLUDE\BOOST\ASSERT.HPP
C:\PROGRAM FILES (X86)\MICROSOFT VISUAL STUDIO 11.0\VC\INCLUDE\ASSERT.H
C:\PROGRAM FILES (X86)\MICROSOFT VISUAL STUDIO 11.0\VC\INCLUDE\EXCPT.H
C:\USERS\TAHLIA\DESKTOP\GAME_ENGINE09\ENGINE\LIBRARY\INCLUDE\BOOST\ARCHIVE\BASIC_TEXT_OARCHIVE.HPP
C:\USERS\TAHLIA\DESKTOP\GAME_ENGINE09\ENGINE\LIBRARY\INCLUDE\BOOST\ARCHIVE\DETAIL\COMMON_OARCHIVE.HPP
C:\USERS\TAHLIA\DESKTOP\GAME_ENGINE09\ENGINE\LIBRARY\INCLUDE\BOOST\ARCHIVE\DETAIL\BASIC_OARCHIVE.HPP
C:\USERS\TAHLIA\DESKTOP\GAME_ENGINE09\ENGINE\LIBRARY\INCLUDE\BOOST\SCOPED_PTR.HPP
C:\USERS\TAHLIA\DESKTOP\GAME_ENGINE09\ENGINE\LIBRARY\INCLUDE\BOOST\SMART_PTR\SCOPED_PTR.HPP
C:\USERS\TAHLIA\DESKTOP\GAME_ENGINE09\ENGINE\LIBRARY\INCLUDE\BOOST\CHECKED_DELETE.HPP
C:\USERS\TAHLIA\DESKTOP\GAME_ENGINE09\ENGINE\LIBRARY\INCLUDE\BOOST\CORE\CHECKED_DELETE.HPP
C:\USERS\TAHLIA\DESKTOP\GAME_ENGINE09\ENGINE\LIBRARY\INCLUDE\BOOST\SMART_PTR\DETAIL\SP_NULLPTR_T.HPP
C:\USERS\TAHLIA\DESKTOP\GAME_ENGINE09\ENGINE\LIBRARY\INCLUDE\BOOST\SMART_PTR\DETAIL\SP_DISABLE_DEPRECATED.HPP
C:\PROGRAM FILES (X86)\MICROSOFT VISUAL STUDIO 11.0\VC\INCLUDE\MEMORY
C:\USERS\TAHLIA\DESKTOP\GAME_ENGINE09\ENGINE\LIBRARY\INCLUDE\BOOST\SMART_PTR\DETAIL\OPERATOR_BOOL.HPP
C:\USERS\TAHLIA\DESKTOP\GAME_ENGINE09\ENGINE\LIBRARY\INCLUDE\BOOST\ARCHIVE\BASIC_ARCHIVE.HPP
C:\USERS\TAHLIA\DESKTOP\GAME_ENGINE09\ENGINE\LIBRARY\INCLUDE\BOOST\SERIALIZATION\LEVEL.HPP
C:\USERS\TAHLIA\DESKTOP\GAME_ENGINE09\ENGINE\LIBRARY\INCLUDE\BOOST\TYPE_TRAITS\IS_FUNDAMENTAL.HPP
C:\USERS\TAHLIA\DESKTOP\GAME_ENGINE09\ENGINE\LIBRARY\INCLUDE\BOOST\TYPE_TRAITS\IS_ARITHMETIC.HPP
C:\USERS\TAHLIA\DESKTOP\GAME_ENGINE09\ENGINE\LIBRARY\INCLUDE\BOOST\TYPE_TRAITS\IS_INTEGRAL.HPP
C:\USERS\TAHLIA\DESKTOP\GAME_ENGINE09\ENGINE\LIBRARY\INCLUDE\BOOST\TYPE_TRAITS\IS_VOID.HPP
C:\USERS\TAHLIA\DESKTOP\GAME_ENGINE09\ENGINE\LIBRARY\INCLUDE\BOOST\TYPE_TRAITS\IS_ENUM.HPP
C:\USERS\TAHLIA\DESKTOP\GAME_ENGINE09\ENGINE\LIBRARY\INCLUDE\BOOST\TYPE_TRAITS\INTRINSICS.HPP
C:\USERS\TAHLIA\DESKTOP\GAME_ENGINE09\ENGINE\LIBRARY\INCLUDE\BOOST\TYPE_TRAITS\DETAIL\CONFIG.HPP
C:\USERS\TAHLIA\DESKTOP\GAME_ENGINE09\ENGINE\LIBRARY\INCLUDE\BOOST\TYPE_TRAITS\IS_ARRAY.HPP
C:\USERS\TAHLIA\DESKTOP\GAME_ENGINE09\ENGINE\LIBRARY\INCLUDE\BOOST\TYPE_TRAITS\IS_CLASS.HPP
C:\USERS\TAHLIA\DESKTOP\GAME_ENGINE09\ENGINE\LIBRARY\INCLUDE\BOOST\TYPE_TRAITS\IS_BASE_AND_DERIVED.HPP
C:\USERS\TAHLIA\DESKTOP\GAME_ENGINE09\ENGINE\LIBRARY\INCLUDE\BOOST\TYPE_TRAITS\REMOVE_CV.HPP
C:\USERS\TAHLIA\DESKTOP\GAME_ENGINE09\ENGINE\LIBRARY\INCLUDE\BOOST\TYPE_TRAITS\IS_SAME.HPP
C:\USERS\TAHLIA\DESKTOP\GAME_ENGINE09\ENGINE\LIBRARY\INCLUDE\BOOST\MPL\EVAL_IF.HPP
C:\USERS\TAHLIA\DESKTOP\GAME_ENGINE09\ENGINE\LIBRARY\INCLUDE\BOOST\MPL\IF.HPP
C:\USERS\TAHLIA\DESKTOP\GAME_ENGINE09\ENGINE\LIBRARY\INCLUDE\BOOST\MPL\AUX_\VALUE_WKND.HPP
C:\USERS\TAHLIA\DESKTOP\GAME_ENGINE09\ENGINE\LIBRARY\INCLUDE\BOOST\MPL\AUX_\STATIC_CAST.HPP
C:\USERS\TAHLIA\DESKTOP\GAME_ENGINE09\ENGINE\LIBRARY\INCLUDE\BOOST\MPL\AUX_\CONFIG\INTEGRAL.HPP
C:\USERS\TAHLIA\DESKTOP\GAME_ENGINE09\ENGINE\LIBRARY\INCLUDE\BOOST\MPL\AUX_\CONFIG\ETI.HPP
C:\USERS\TAHLIA\DESKTOP\GAME_ENGINE09\ENGINE\LIBRARY\INCLUDE\BOOST\MPL\AUX_\NA_SPEC.HPP
C:\USERS\TAHLIA\DESKTOP\GAME_ENGINE09\ENGINE\LIBRARY\INCLUDE\BOOST\MPL\LAMBDA_FWD.HPP
C:\USERS\TAHLIA\DESKTOP\GAME_ENGINE09\ENGINE\LIBRARY\INCLUDE\BOOST\MPL\VOID_FWD.HPP
C:\USERS\TAHLIA\DESKTOP\GAME_ENGINE09\ENGINE\LIBRARY\INCLUDE\BOOST\MPL\AUX_\NA.HPP
C:\USERS\TAHLIA\DESKTOP\GAME_ENGINE09\ENGINE\LIBRARY\INCLUDE\BOOST\MPL\AUX_\NA_FWD.HPP
C:\USERS\TAHLIA\DESKTOP\GAME_ENGINE09\ENGINE\LIBRARY\INCLUDE\BOOST\MPL\AUX_\CONFIG\CTPS.HPP
C:\USERS\TAHLIA\DESKTOP\GAME_ENGINE09\ENGINE\LIBRARY\INCLUDE\BOOST\MPL\AUX_\CONFIG\LAMBDA.HPP
C:\USERS\TAHLIA\DESKTOP\GAME_ENGINE09\ENGINE\LIBRARY\INCLUDE\BOOST\MPL\AUX_\CONFIG\TTP.HPP
C:\USERS\TAHLIA\DESKTOP\GAME_ENGINE09\ENGINE\LIBRARY\INCLUDE\BOOST\MPL\INT.HPP
C:\USERS\TAHLIA\DESKTOP\GAME_ENGINE09\ENGINE\LIBRARY\INCLUDE\BOOST\MPL\INT_FWD.HPP
C:\USERS\TAHLIA\DESKTOP\GAME_ENGINE09\ENGINE\LIBRARY\INCLUDE\BOOST\MPL\AUX_\NTTP_DECL.HPP
C:\USERS\TAHLIA\DESKTOP\GAME_ENGINE09\ENGINE\LIBRARY\INCLUDE\BOOST\MPL\AUX_\CONFIG\NTTP.HPP
C:\USERS\TAHLIA\DESKTOP\GAME_ENGINE09\ENGINE\LIBRARY\INCLUDE\BOOST\MPL\AUX_\INTEGRAL_WRAPPER.HPP
C:\USERS\TAHLIA\DESKTOP\GAME_ENGINE09\ENGINE\LIBRARY\INCLUDE\BOOST\PREPROCESSOR\CAT.HPP
C:\USERS\TAHLIA\DESKTOP\GAME_ENGINE09\ENGINE\LIBRARY\INCLUDE\BOOST\PREPROCESSOR\CONFIG\CONFIG.HPP
C:\USERS\TAHLIA\DESKTOP\GAME_ENGINE09\ENGINE\LIBRARY\INCLUDE\BOOST\MPL\AUX_\LAMBDA_ARITY_PARAM.HPP
C:\USERS\TAHLIA\DESKTOP\GAME_ENGINE09\ENGINE\LIBRARY\INCLUDE\BOOST\MPL\AUX_\TEMPLATE_ARITY_FWD.HPP
C:\USERS\TAHLIA\DESKTOP\GAME_ENGINE09\ENGINE\LIBRARY\INCLUDE\BOOST\MPL\AUX_\ARITY.HPP
C:\USERS\TAHLIA\DESKTOP\GAME_ENGINE09\ENGINE\LIBRARY\INCLUDE\BOOST\MPL\AUX_\CONFIG\DTP.HPP
C:\USERS\TAHLIA\DESKTOP\GAME_ENGINE09\ENGINE\LIBRARY\INCLUDE\BOOST\MPL\AUX_\PREPROCESSOR\PARAMS.HPP
C:\USERS\TAHLIA\DESKTOP\GAME_ENGINE09\ENGINE\LIBRARY\INCLUDE\BOOST\MPL\AUX_\CONFIG\PREPROCESSOR.HPP
C:\USERS\TAHLIA\DESKTOP\GAME_ENGINE09\ENGINE\LIBRARY\INCLUDE\BOOST\PREPROCESSOR\COMMA_IF.HPP
C:\USERS\TAHLIA\DESKTOP\GAME_ENGINE09\ENGINE\LIBRARY\INCLUDE\BOOST\PREPROCESSOR\PUNCTUATION\COMMA_IF.HPP
C:\USERS\TAHLIA\DESKTOP\GAME_ENGINE09\ENGINE\LIBRARY\INCLUDE\BOOST\PREPROCESSOR\CONTROL\IF.HPP
C:\USERS\TAHLIA\DESKTOP\GAME_ENGINE09\ENGINE\LIBRARY\INCLUDE\BOOST\PREPROCESSOR\CONTROL\IIF.HPP
C:\USERS\TAHLIA\DESKTOP\GAME_ENGINE09\ENGINE\LIBRARY\INCLUDE\BOOST\PREPROCESSOR\LOGICAL\BOOL.HPP
C:\USERS\TAHLIA\DESKTOP\GAME_ENGINE09\ENGINE\LIBRARY\INCLUDE\BOOST\PREPROCESSOR\FACILITIES\EMPTY.HPP
C:\USERS\TAHLIA\DESKTOP\GAME_ENGINE09\ENGINE\LIBRARY\INCLUDE\BOOST\PREPROCESSOR\PUNCTUATION\COMMA.HPP
C:\USERS\TAHLIA\DESKTOP\GAME_ENGINE09\ENGINE\LIBRARY\INCLUDE\BOOST\PREPROCESSOR\REPEAT.HPP
C:\USERS\TAHLIA\DESKTOP\GAME_ENGINE09\ENGINE\LIBRARY\INCLUDE\BOOST\PREPROCESSOR\REPETITION\REPEAT.HPP
C:\USERS\TAHLIA\DESKTOP\GAME_ENGINE09\ENGINE\LIBRARY\INCLUDE\BOOST\PREPROCESSOR\DEBUG\ERROR.HPP
C:\USERS\TAHLIA\DESKTOP\GAME_ENGINE09\ENGINE\LIBRARY\INCLUDE\BOOST\PREPROCESSOR\DETAIL\AUTO_REC.HPP
C:\USERS\TAHLIA\DESKTOP\GAME_ENGINE09\ENGINE\LIBRARY\INCLUDE\BOOST\PREPROCESSOR\TUPLE\EAT.HPP
C:\USERS\TAHLIA\DESKTOP\GAME_ENGINE09\ENGINE\LIBRARY\INCLUDE\BOOST\PREPROCESSOR\INC.HPP
C:\USERS\TAHLIA\DESKTOP\GAME_ENGINE09\ENGINE\LIBRARY\INCLUDE\BOOST\PREPROCESSOR\ARITHMETIC\INC.HPP
C:\USERS\TAHLIA\DESKTOP\GAME_ENGINE09\ENGINE\LIBRARY\INCLUDE\BOOST\MPL\AUX_\PREPROCESSOR\ENUM.HPP
C:\USERS\TAHLIA\DESKTOP\GAME_ENGINE09\ENGINE\LIBRARY\INCLUDE\BOOST\MPL\AUX_\PREPROCESSOR\DEF_PARAMS_TAIL.HPP
C:\USERS\TAHLIA\DESKTOP\GAME_ENGINE09\ENGINE\LIBRARY\INCLUDE\BOOST\MPL\LIMITS\ARITY.HPP
C:\USERS\TAHLIA\DESKTOP\GAME_ENGINE09\ENGINE\LIBRARY\INCLUDE\BOOST\PREPROCESSOR\LOGICAL\AND.HPP
C:\USERS\TAHLIA\DESKTOP\GAME_ENGINE09\ENGINE\LIBRARY\INCLUDE\BOOST\PREPROCESSOR\LOGICAL\BITAND.HPP
C:\USERS\TAHLIA\DESKTOP\GAME_ENGINE09\ENGINE\LIBRARY\INCLUDE\BOOST\PREPROCESSOR\IDENTITY.HPP
C:\USERS\TAHLIA\DESKTOP\GAME_ENGINE09\ENGINE\LIBRARY\INCLUDE\BOOST\PREPROCESSOR\FACILITIES\IDENTITY.HPP
C:\USERS\TAHLIA\DESKTOP\GAME_ENGINE09\ENGINE\LIBRARY\INCLUDE\BOOST\PREPROCESSOR\EMPTY.HPP
C:\USERS\TAHLIA\DESKTOP\GAME_ENGINE09\ENGINE\LIBRARY\INCLUDE\BOOST\PREPROCESSOR\ARITHMETIC\ADD.HPP
C:\USERS\TAHLIA\DESKTOP\GAME_ENGINE09\ENGINE\LIBRARY\INCLUDE\BOOST\PREPROCESSOR\ARITHMETIC\DEC.HPP
C:\USERS\TAHLIA\DESKTOP\GAME_ENGINE09\ENGINE\LIBRARY\INCLUDE\BOOST\PREPROCESSOR\CONTROL\WHILE.HPP
C:\USERS\TAHLIA\DESKTOP\GAME_ENGINE09\ENGINE\LIBRARY\INCLUDE\BOOST\PREPROCESSOR\LIST\FOLD_LEFT.HPP
C:\USERS\TAHLIA\DESKTOP\GAME_ENGINE09\ENGINE\LIBRARY\INCLUDE\BOOST\PREPROCESSOR\LIST\DETAIL\FOLD_LEFT.HPP
C:\USERS\TAHLIA\DESKTOP\GAME_ENGINE09\ENGINE\LIBRARY\INCLUDE\BOOST\PREPROCESSOR\CONTROL\EXPR_IIF.HPP
C:\USERS\TAHLIA\DESKTOP\GAME_ENGINE09\ENGINE\LIBRARY\INCLUDE\BOOST\PREPROCESSOR\LIST\ADT.HPP
C:\USERS\TAHLIA\DESKTOP\GAME_ENGINE09\ENGINE\LIBRARY\INCLUDE\BOOST\PREPROCESSOR\DETAIL\IS_BINARY.HPP
C:\USERS\TAHLIA\DESKTOP\GAME_ENGINE09\ENGINE\LIBRARY\INCLUDE\BOOST\PREPROCESSOR\DETAIL\CHECK.HPP
C:\USERS\TAHLIA\DESKTOP\GAME_ENGINE09\ENGINE\LIBRARY\INCLUDE\BOOST\PREPROCESSOR\LOGICAL\COMPL.HPP
C:\USERS\TAHLIA\DESKTOP\GAME_ENGINE09\ENGINE\LIBRARY\INCLUDE\BOOST\PREPROCESSOR\LIST\FOLD_RIGHT.HPP
C:\USERS\TAHLIA\DESKTOP\GAME_ENGINE09\ENGINE\LIBRARY\INCLUDE\BOOST\PREPROCESSOR\LIST\DETAIL\FOLD_RIGHT.HPP
C:\USERS\TAHLIA\DESKTOP\GAME_ENGINE09\ENGINE\LIBRARY\INCLUDE\BOOST\PREPROCESSOR\LIST\REVERSE.HPP
C:\USERS\TAHLIA\DESKTOP\GAME_ENGINE09\ENGINE\LIBRARY\INCLUDE\BOOST\PREPROCESSOR\CONTROL\DETAIL\MSVC\WHILE.HPP
C:\USERS\TAHLIA\DESKTOP\GAME_ENGINE09\ENGINE\LIBRARY\INCLUDE\BOOST\PREPROCESSOR\TUPLE\ELEM.HPP
C:\USERS\TAHLIA\DESKTOP\GAME_ENGINE09\ENGINE\LIBRARY\INCLUDE\BOOST\PREPROCESSOR\FACILITIES\EXPAND.HPP
C:\USERS\TAHLIA\DESKTOP\GAME_ENGINE09\ENGINE\LIBRARY\INCLUDE\BOOST\PREPROCESSOR\FACILITIES\OVERLOAD.HPP
C:\USERS\TAHLIA\DESKTOP\GAME_ENGINE09\ENGINE\LIBRARY\INCLUDE\BOOST\PREPROCESSOR\VARIADIC\SIZE.HPP
C:\USERS\TAHLIA\DESKTOP\GAME_ENGINE09\ENGINE\LIBRARY\INCLUDE\BOOST\PREPROCESSOR\TUPLE\REM.HPP
C:\USERS\TAHLIA\DESKTOP\GAME_ENGINE09\ENGINE\LIBRARY\INCLUDE\BOOST\PREPROCESSOR\TUPLE\DETAIL\IS_SINGLE_RETURN.HPP
C:\USERS\TAHLIA\DESKTOP\GAME_ENGINE09\ENGINE\LIBRARY\INCLUDE\BOOST\PREPROCESSOR\FACILITIES\IS_1.HPP
C:\USERS\TAHLIA\DESKTOP\GAME_ENGINE09\ENGINE\LIBRARY\INCLUDE\BOOST\PREPROCESSOR\FACILITIES\IS_EMPTY.HPP
C:\USERS\TAHLIA\DESKTOP\GAME_ENGINE09\ENGINE\LIBRARY\INCLUDE\BOOST\PREPROCESSOR\FACILITIES\IS_EMPTY_VARIADIC.HPP
C:\USERS\TAHLIA\DESKTOP\GAME_ENGINE09\ENGINE\LIBRARY\INCLUDE\BOOST\PREPROCESSOR\PUNCTUATION\IS_BEGIN_PARENS.HPP
C:\USERS\TAHLIA\DESKTOP\GAME_ENGINE09\ENGINE\LIBRARY\INCLUDE\BOOST\PREPROCESSOR\PUNCTUATION\DETAIL\IS_BEGIN_PARENS.HPP
C:\USERS\TAHLIA\DESKTOP\GAME_ENGINE09\ENGINE\LIBRARY\INCLUDE\BOOST\PREPROCESSOR\FACILITIES\DETAIL\IS_EMPTY.HPP
C:\USERS\TAHLIA\DESKTOP\GAME_ENGINE09\ENGINE\LIBRARY\INCLUDE\BOOST\PREPROCESSOR\TUPLE\SIZE.HPP
C:\USERS\TAHLIA\DESKTOP\GAME_ENGINE09\ENGINE\LIBRARY\INCLUDE\BOOST\PREPROCESSOR\VARIADIC\ELEM.HPP
C:\USERS\TAHLIA\DESKTOP\GAME_ENGINE09\ENGINE\LIBRARY\INCLUDE\BOOST\PREPROCESSOR\ARITHMETIC\SUB.HPP
C:\USERS\TAHLIA\DESKTOP\GAME_ENGINE09\ENGINE\LIBRARY\INCLUDE\BOOST\MPL\AUX_\CONFIG\OVERLOAD_RESOLUTION.HPP
C:\USERS\TAHLIA\DESKTOP\GAME_ENGINE09\ENGINE\LIBRARY\INCLUDE\BOOST\MPL\AUX_\LAMBDA_SUPPORT.HPP
C:\USERS\TAHLIA\DESKTOP\GAME_ENGINE09\ENGINE\LIBRARY\INCLUDE\BOOST\MPL\INTEGRAL_C.HPP
C:\USERS\TAHLIA\DESKTOP\GAME_ENGINE09\ENGINE\LIBRARY\INCLUDE\BOOST\MPL\INTEGRAL_C_FWD.HPP
C:\USERS\TAHLIA\DESKTOP\GAME_ENGINE09\ENGINE\LIBRARY\INCLUDE\BOOST\SERIALIZATION\LEVEL_ENUM.HPP
C:\USERS\TAHLIA\DESKTOP\GAME_ENGINE09\ENGINE\LIBRARY\INCLUDE\BOOST\SERIALIZATION\IS_BITWISE_SERIALIZABLE.HPP
C:\USERS\TAHLIA\DESKTOP\GAME_ENGINE09\ENGINE\LIBRARY\INCLUDE\BOOST\SERIALIZATION\TRACKING_ENUM.HPP
C:\USERS\TAHLIA\DESKTOP\GAME_ENGINE09\ENGINE\LIBRARY\INCLUDE\BOOST\ARCHIVE\DETAIL\HELPER_COLLECTION.HPP
C:\PROGRAM FILES (X86)\MICROSOFT VISUAL STUDIO 11.0\VC\INCLUDE\VECTOR
C:\PROGRAM FILES (X86)\MICROSOFT VISUAL STUDIO 11.0\VC\INCLUDE\ALGORITHM
C:\USERS\TAHLIA\DESKTOP\GAME_ENGINE09\ENGINE\LIBRARY\INCLUDE\BOOST\SMART_PTR\SHARED_PTR.HPP
C:\USERS\TAHLIA\DESKTOP\GAME_ENGINE09\ENGINE\LIBRARY\INCLUDE\BOOST\CONFIG\NO_TR1\MEMORY.HPP
C:\USERS\TAHLIA\DESKTOP\GAME_ENGINE09\ENGINE\LIBRARY\INCLUDE\BOOST\THROW_EXCEPTION.HPP
C:\USERS\TAHLIA\DESKTOP\GAME_ENGINE09\ENGINE\LIBRARY\INCLUDE\BOOST\EXCEPTION\EXCEPTION.HPP
C:\USERS\TAHLIA\DESKTOP\GAME_ENGINE09\ENGINE\LIBRARY\INCLUDE\BOOST\CURRENT_FUNCTION.HPP
C:\USERS\TAHLIA\DESKTOP\GAME_ENGINE09\ENGINE\LIBRARY\INCLUDE\BOOST\SMART_PTR\DETAIL\SHARED_COUNT.HPP
C:\USERS\TAHLIA\DESKTOP\GAME_ENGINE09\ENGINE\LIBRARY\INCLUDE\BOOST\SMART_PTR\BAD_WEAK_PTR.HPP
C:\USERS\TAHLIA\DESKTOP\GAME_ENGINE09\ENGINE\LIBRARY\INCLUDE\BOOST\SMART_PTR\DETAIL\SP_COUNTED_BASE.HPP
C:\USERS\TAHLIA\DESKTOP\GAME_ENGINE09\ENGINE\LIBRARY\INCLUDE\BOOST\SMART_PTR\DETAIL\SP_HAS_SYNC.HPP
C:\USERS\TAHLIA\DESKTOP\GAME_ENGINE09\ENGINE\LIBRARY\INCLUDE\BOOST\SMART_PTR\DETAIL\SP_COUNTED_BASE_W32.HPP
C:\USERS\TAHLIA\DESKTOP\GAME_ENGINE09\ENGINE\LIBRARY\INCLUDE\BOOST\SMART_PTR\DETAIL\SP_INTERLOCKED.HPP
C:\USERS\TAHLIA\DESKTOP\GAME_ENGINE09\ENGINE\LIBRARY\INCLUDE\BOOST\DETAIL\SP_TYPEINFO.HPP
C:\USERS\TAHLIA\DESKTOP\GAME_ENGINE09\ENGINE\LIBRARY\INCLUDE\BOOST\CORE\TYPEINFO.HPP
C:\USERS\TAHLIA\DESKTOP\GAME_ENGINE09\ENGINE\LIBRARY\INCLUDE\BOOST\CORE\DEMANGLE.HPP
C:\USERS\TAHLIA\DESKTOP\GAME_ENGINE09\ENGINE\LIBRARY\INCLUDE\BOOST\SMART_PTR\DETAIL\SP_COUNTED_IMPL.HPP
C:\PROGRAM FILES (X86)\MICROSOFT VISUAL STUDIO 11.0\VC\INCLUDE\FUNCTIONAL
C:\PROGRAM FILES (X86)\MICROSOFT VISUAL STUDIO 11.0\VC\INCLUDE\XFUNCTIONAL
C:\PROGRAM FILES (X86)\MICROSOFT VISUAL STUDIO 11.0\VC\INCLUDE\TUPLE
C:\USERS\TAHLIA\DESKTOP\GAME_ENGINE09\ENGINE\LIBRARY\INCLUDE\BOOST\CORE\ADDRESSOF.HPP
C:\USERS\TAHLIA\DESKTOP\GAME_ENGINE09\ENGINE\LIBRARY\INCLUDE\BOOST\SMART_PTR\DETAIL\SP_CONVERTIBLE.HPP
C:\USERS\TAHLIA\DESKTOP\GAME_ENGINE09\ENGINE\LIBRARY\INCLUDE\BOOST\SMART_PTR\DETAIL\SPINLOCK_POOL.HPP
C:\USERS\TAHLIA\DESKTOP\GAME_ENGINE09\ENGINE\LIBRARY\INCLUDE\BOOST\SMART_PTR\DETAIL\SPINLOCK.HPP
C:\USERS\TAHLIA\DESKTOP\GAME_ENGINE09\ENGINE\LIBRARY\INCLUDE\BOOST\SMART_PTR\DETAIL\SPINLOCK_W32.HPP
C:\USERS\TAHLIA\DESKTOP\GAME_ENGINE09\ENGINE\LIBRARY\INCLUDE\BOOST\SMART_PTR\DETAIL\YIELD_K.HPP
C:\USERS\TAHLIA\DESKTOP\GAME_ENGINE09\ENGINE\LIBRARY\INCLUDE\BOOST\PREDEF.H
C:\USERS\TAHLIA\DESKTOP\GAME_ENGINE09\ENGINE\LIBRARY\INCLUDE\BOOST\PREDEF\LANGUAGE.H
C:\USERS\TAHLIA\DESKTOP\GAME_ENGINE09\ENGINE\LIBRARY\INCLUDE\BOOST\PREDEF\LANGUAGE\STDC.H
C:\USERS\TAHLIA\DESKTOP\GAME_ENGINE09\ENGINE\LIBRARY\INCLUDE\BOOST\PREDEF\VERSION_NUMBER.H
C:\USERS\TAHLIA\DESKTOP\GAME_ENGINE09\ENGINE\LIBRARY\INCLUDE\BOOST\PREDEF\MAKE.H
C:\USERS\TAHLIA\DESKTOP\GAME_ENGINE09\ENGINE\LIBRARY\INCLUDE\BOOST\PREDEF\DETAIL\TEST.H
C:\USERS\TAHLIA\DESKTOP\GAME_ENGINE09\ENGINE\LIBRARY\INCLUDE\BOOST\PREDEF\LANGUAGE\STDCPP.H
C:\USERS\TAHLIA\DESKTOP\GAME_ENGINE09\ENGINE\LIBRARY\INCLUDE\BOOST\PREDEF\LANGUAGE\OBJC.H
C:\USERS\TAHLIA\DESKTOP\GAME_ENGINE09\ENGINE\LIBRARY\INCLUDE\BOOST\PREDEF\ARCHITECTURE.H
C:\USERS\TAHLIA\DESKTOP\GAME_ENGINE09\ENGINE\LIBRARY\INCLUDE\BOOST\PREDEF\ARCHITECTURE\ALPHA.H
C:\USERS\TAHLIA\DESKTOP\GAME_ENGINE09\ENGINE\LIBRARY\INCLUDE\BOOST\PREDEF\ARCHITECTURE\ARM.H
C:\USERS\TAHLIA\DESKTOP\GAME_ENGINE09\ENGINE\LIBRARY\INCLUDE\BOOST\PREDEF\ARCHITECTURE\BLACKFIN.H
C:\USERS\TAHLIA\DESKTOP\GAME_ENGINE09\ENGINE\LIBRARY\INCLUDE\BOOST\PREDEF\ARCHITECTURE\CONVEX.H
C:\USERS\TAHLIA\DESKTOP\GAME_ENGINE09\ENGINE\LIBRARY\INCLUDE\BOOST\PREDEF\ARCHITECTURE\IA64.H
C:\USERS\TAHLIA\DESKTOP\GAME_ENGINE09\ENGINE\LIBRARY\INCLUDE\BOOST\PREDEF\ARCHITECTURE\M68K.H
C:\USERS\TAHLIA\DESKTOP\GAME_ENGINE09\ENGINE\LIBRARY\INCLUDE\BOOST\PREDEF\ARCHITECTURE\MIPS.H
C:\USERS\TAHLIA\DESKTOP\GAME_ENGINE09\ENGINE\LIBRARY\INCLUDE\BOOST\PREDEF\ARCHITECTURE\PARISC.H
C:\USERS\TAHLIA\DESKTOP\GAME_ENGINE09\ENGINE\LIBRARY\INCLUDE\BOOST\PREDEF\ARCHITECTURE\PPC.H
C:\USERS\TAHLIA\DESKTOP\GAME_ENGINE09\ENGINE\LIBRARY\INCLUDE\BOOST\PREDEF\ARCHITECTURE\PYRAMID.H
C:\USERS\TAHLIA\DESKTOP\GAME_ENGINE09\ENGINE\LIBRARY\INCLUDE\BOOST\PREDEF\ARCHITECTURE\RS6K.H
C:\USERS\TAHLIA\DESKTOP\GAME_ENGINE09\ENGINE\LIBRARY\INCLUDE\BOOST\PREDEF\ARCHITECTURE\SPARC.H
C:\USERS\TAHLIA\DESKTOP\GAME_ENGINE09\ENGINE\LIBRARY\INCLUDE\BOOST\PREDEF\ARCHITECTURE\SUPERH.H
C:\USERS\TAHLIA\DESKTOP\GAME_ENGINE09\ENGINE\LIBRARY\INCLUDE\BOOST\PREDEF\ARCHITECTURE\SYS370.H
C:\USERS\TAHLIA\DESKTOP\GAME_ENGINE09\ENGINE\LIBRARY\INCLUDE\BOOST\PREDEF\ARCHITECTURE\SYS390.H
C:\USERS\TAHLIA\DESKTOP\GAME_ENGINE09\ENGINE\LIBRARY\INCLUDE\BOOST\PREDEF\ARCHITECTURE\X86.H
C:\USERS\TAHLIA\DESKTOP\GAME_ENGINE09\ENGINE\LIBRARY\INCLUDE\BOOST\PREDEF\ARCHITECTURE\X86\32.H
C:\USERS\TAHLIA\DESKTOP\GAME_ENGINE09\ENGINE\LIBRARY\INCLUDE\BOOST\PREDEF\ARCHITECTURE\X86\64.H
C:\USERS\TAHLIA\DESKTOP\GAME_ENGINE09\ENGINE\LIBRARY\INCLUDE\BOOST\PREDEF\ARCHITECTURE\Z.H
C:\USERS\TAHLIA\DESKTOP\GAME_ENGINE09\ENGINE\LIBRARY\INCLUDE\BOOST\PREDEF\COMPILER.H
C:\USERS\TAHLIA\DESKTOP\GAME_ENGINE09\ENGINE\LIBRARY\INCLUDE\BOOST\PREDEF\COMPILER\BORLAND.H
C:\USERS\TAHLIA\DESKTOP\GAME_ENGINE09\ENGINE\LIBRARY\INCLUDE\BOOST\PREDEF\COMPILER\CLANG.H
C:\USERS\TAHLIA\DESKTOP\GAME_ENGINE09\ENGINE\LIBRARY\INCLUDE\BOOST\PREDEF\COMPILER\COMEAU.H
C:\USERS\TAHLIA\DESKTOP\GAME_ENGINE09\ENGINE\LIBRARY\INCLUDE\BOOST\PREDEF\COMPILER\COMPAQ.H
C:\USERS\TAHLIA\DESKTOP\GAME_ENGINE09\ENGINE\LIBRARY\INCLUDE\BOOST\PREDEF\COMPILER\DIAB.H
C:\USERS\TAHLIA\DESKTOP\GAME_ENGINE09\ENGINE\LIBRARY\INCLUDE\BOOST\PREDEF\COMPILER\DIGITALMARS.H
C:\USERS\TAHLIA\DESKTOP\GAME_ENGINE09\ENGINE\LIBRARY\INCLUDE\BOOST\PREDEF\COMPILER\DIGNUS.H
C:\USERS\TAHLIA\DESKTOP\GAME_ENGINE09\ENGINE\LIBRARY\INCLUDE\BOOST\PREDEF\COMPILER\EDG.H
C:\USERS\TAHLIA\DESKTOP\GAME_ENGINE09\ENGINE\LIBRARY\INCLUDE\BOOST\PREDEF\COMPILER\EKOPATH.H
C:\USERS\TAHLIA\DESKTOP\GAME_ENGINE09\ENGINE\LIBRARY\INCLUDE\BOOST\PREDEF\COMPILER\GCC_XML.H
C:\USERS\TAHLIA\DESKTOP\GAME_ENGINE09\ENGINE\LIBRARY\INCLUDE\BOOST\PREDEF\COMPILER\GCC.H
C:\USERS\TAHLIA\DESKTOP\GAME_ENGINE09\ENGINE\LIBRARY\INCLUDE\BOOST\PREDEF\COMPILER\GREENHILLS.H
C:\USERS\TAHLIA\DESKTOP\GAME_ENGINE09\ENGINE\LIBRARY\INCLUDE\BOOST\PREDEF\COMPILER\HP_ACC.H
C:\USERS\TAHLIA\DESKTOP\GAME_ENGINE09\ENGINE\LIBRARY\INCLUDE\BOOST\PREDEF\COMPILER\IAR.H
C:\USERS\TAHLIA\DESKTOP\GAME_ENGINE09\ENGINE\LIBRARY\INCLUDE\BOOST\PREDEF\COMPILER\IBM.H
C:\USERS\TAHLIA\DESKTOP\GAME_ENGINE09\ENGINE\LIBRARY\INCLUDE\BOOST\PREDEF\COMPILER\INTEL.H
C:\USERS\TAHLIA\DESKTOP\GAME_ENGINE09\ENGINE\LIBRARY\INCLUDE\BOOST\PREDEF\COMPILER\KAI.H
C:\USERS\TAHLIA\DESKTOP\GAME_ENGINE09\ENGINE\LIBRARY\INCLUDE\BOOST\PREDEF\COMPILER\LLVM.H
C:\USERS\TAHLIA\DESKTOP\GAME_ENGINE09\ENGINE\LIBRARY\INCLUDE\BOOST\PREDEF\COMPILER\METAWARE.H
C:\USERS\TAHLIA\DESKTOP\GAME_ENGINE09\ENGINE\LIBRARY\INCLUDE\BOOST\PREDEF\COMPILER\METROWERKS.H
C:\USERS\TAHLIA\DESKTOP\GAME_ENGINE09\ENGINE\LIBRARY\INCLUDE\BOOST\PREDEF\COMPILER\MICROTEC.H
C:\USERS\TAHLIA\DESKTOP\GAME_ENGINE09\ENGINE\LIBRARY\INCLUDE\BOOST\PREDEF\COMPILER\MPW.H
C:\USERS\TAHLIA\DESKTOP\GAME_ENGINE09\ENGINE\LIBRARY\INCLUDE\BOOST\PREDEF\COMPILER\PALM.H
C:\USERS\TAHLIA\DESKTOP\GAME_ENGINE09\ENGINE\LIBRARY\INCLUDE\BOOST\PREDEF\COMPILER\PGI.H
C:\USERS\TAHLIA\DESKTOP\GAME_ENGINE09\ENGINE\LIBRARY\INCLUDE\BOOST\PREDEF\COMPILER\SGI_MIPSPRO.H
C:\USERS\TAHLIA\DESKTOP\GAME_ENGINE09\ENGINE\LIBRARY\INCLUDE\BOOST\PREDEF\COMPILER\SUNPRO.H
C:\USERS\TAHLIA\DESKTOP\GAME_ENGINE09\ENGINE\LIBRARY\INCLUDE\BOOST\PREDEF\COMPILER\TENDRA.H
C:\USERS\TAHLIA\DESKTOP\GAME_ENGINE09\ENGINE\LIBRARY\INCLUDE\BOOST\PREDEF\COMPILER\VISUALC.H
C:\USERS\TAHLIA\DESKTOP\GAME_ENGINE09\ENGINE\LIBRARY\INCLUDE\BOOST\PREDEF\DETAIL\COMP_DETECTED.H
C:\USERS\TAHLIA\DESKTOP\GAME_ENGINE09\ENGINE\LIBRARY\INCLUDE\BOOST\PREDEF\COMPILER\WATCOM.H
C:\USERS\TAHLIA\DESKTOP\GAME_ENGINE09\ENGINE\LIBRARY\INCLUDE\BOOST\PREDEF\LIBRARY.H
C:\USERS\TAHLIA\DESKTOP\GAME_ENGINE09\ENGINE\LIBRARY\INCLUDE\BOOST\PREDEF\LIBRARY\C.H
C:\USERS\TAHLIA\DESKTOP\GAME_ENGINE09\ENGINE\LIBRARY\INCLUDE\BOOST\PREDEF\LIBRARY\C\_PREFIX.H
C:\USERS\TAHLIA\DESKTOP\GAME_ENGINE09\ENGINE\LIBRARY\INCLUDE\BOOST\PREDEF\DETAIL\_CASSERT.H
C:\PROGRAM FILES (X86)\MICROSOFT VISUAL STUDIO 11.0\VC\INCLUDE\CASSERT
C:\USERS\TAHLIA\DESKTOP\GAME_ENGINE09\ENGINE\LIBRARY\INCLUDE\BOOST\PREDEF\LIBRARY\C\GNU.H
C:\USERS\TAHLIA\DESKTOP\GAME_ENGINE09\ENGINE\LIBRARY\INCLUDE\BOOST\PREDEF\LIBRARY\C\UC.H
C:\USERS\TAHLIA\DESKTOP\GAME_ENGINE09\ENGINE\LIBRARY\INCLUDE\BOOST\PREDEF\LIBRARY\C\VMS.H
C:\USERS\TAHLIA\DESKTOP\GAME_ENGINE09\ENGINE\LIBRARY\INCLUDE\BOOST\PREDEF\LIBRARY\C\ZOS.H
C:\USERS\TAHLIA\DESKTOP\GAME_ENGINE09\ENGINE\LIBRARY\INCLUDE\BOOST\PREDEF\LIBRARY\STD.H
C:\USERS\TAHLIA\DESKTOP\GAME_ENGINE09\ENGINE\LIBRARY\INCLUDE\BOOST\PREDEF\LIBRARY\STD\_PREFIX.H
C:\USERS\TAHLIA\DESKTOP\GAME_ENGINE09\ENGINE\LIBRARY\INCLUDE\BOOST\PREDEF\DETAIL\_EXCEPTION.H
C:\USERS\TAHLIA\DESKTOP\GAME_ENGINE09\ENGINE\LIBRARY\INCLUDE\BOOST\PREDEF\LIBRARY\STD\CXX.H
C:\USERS\TAHLIA\DESKTOP\GAME_ENGINE09\ENGINE\LIBRARY\INCLUDE\BOOST\PREDEF\LIBRARY\STD\DINKUMWARE.H
C:\USERS\TAHLIA\DESKTOP\GAME_ENGINE09\ENGINE\LIBRARY\INCLUDE\BOOST\PREDEF\LIBRARY\STD\LIBCOMO.H
C:\USERS\TAHLIA\DESKTOP\GAME_ENGINE09\ENGINE\LIBRARY\INCLUDE\BOOST\PREDEF\LIBRARY\STD\MODENA.H
C:\USERS\TAHLIA\DESKTOP\GAME_ENGINE09\ENGINE\LIBRARY\INCLUDE\BOOST\PREDEF\LIBRARY\STD\MSL.H
C:\USERS\TAHLIA\DESKTOP\GAME_ENGINE09\ENGINE\LIBRARY\INCLUDE\BOOST\PREDEF\LIBRARY\STD\ROGUEWAVE.H
C:\USERS\TAHLIA\DESKTOP\GAME_ENGINE09\ENGINE\LIBRARY\INCLUDE\BOOST\PREDEF\LIBRARY\STD\SGI.H
C:\USERS\TAHLIA\DESKTOP\GAME_ENGINE09\ENGINE\LIBRARY\INCLUDE\BOOST\PREDEF\LIBRARY\STD\STDCPP3.H
C:\USERS\TAHLIA\DESKTOP\GAME_ENGINE09\ENGINE\LIBRARY\INCLUDE\BOOST\PREDEF\LIBRARY\STD\STLPORT.H
C:\USERS\TAHLIA\DESKTOP\GAME_ENGINE09\ENGINE\LIBRARY\INCLUDE\BOOST\PREDEF\LIBRARY\STD\VACPP.H
C:\USERS\TAHLIA\DESKTOP\GAME_ENGINE09\ENGINE\LIBRARY\INCLUDE\BOOST\PREDEF\OS.H
C:\USERS\TAHLIA\DESKTOP\GAME_ENGINE09\ENGINE\LIBRARY\INCLUDE\BOOST\PREDEF\OS\AIX.H
C:\USERS\TAHLIA\DESKTOP\GAME_ENGINE09\ENGINE\LIBRARY\INCLUDE\BOOST\PREDEF\OS\AMIGAOS.H
C:\USERS\TAHLIA\DESKTOP\GAME_ENGINE09\ENGINE\LIBRARY\INCLUDE\BOOST\PREDEF\OS\ANDROID.H
C:\USERS\TAHLIA\DESKTOP\GAME_ENGINE09\ENGINE\LIBRARY\INCLUDE\BOOST\PREDEF\OS\BEOS.H
C:\USERS\TAHLIA\DESKTOP\GAME_ENGINE09\ENGINE\LIBRARY\INCLUDE\BOOST\PREDEF\OS\BSD.H
C:\USERS\TAHLIA\DESKTOP\GAME_ENGINE09\ENGINE\LIBRARY\INCLUDE\BOOST\PREDEF\OS\MACOS.H
C:\USERS\TAHLIA\DESKTOP\GAME_ENGINE09\ENGINE\LIBRARY\INCLUDE\BOOST\PREDEF\OS\IOS.H
C:\USERS\TAHLIA\DESKTOP\GAME_ENGINE09\ENGINE\LIBRARY\INCLUDE\BOOST\PREDEF\OS\BSD\BSDI.H
C:\USERS\TAHLIA\DESKTOP\GAME_ENGINE09\ENGINE\LIBRARY\INCLUDE\BOOST\PREDEF\OS\BSD\DRAGONFLY.H
C:\USERS\TAHLIA\DESKTOP\GAME_ENGINE09\ENGINE\LIBRARY\INCLUDE\BOOST\PREDEF\OS\BSD\FREE.H
C:\USERS\TAHLIA\DESKTOP\GAME_ENGINE09\ENGINE\LIBRARY\INCLUDE\BOOST\PREDEF\OS\BSD\OPEN.H
C:\USERS\TAHLIA\DESKTOP\GAME_ENGINE09\ENGINE\LIBRARY\INCLUDE\BOOST\PREDEF\OS\BSD\NET.H
C:\USERS\TAHLIA\DESKTOP\GAME_ENGINE09\ENGINE\LIBRARY\INCLUDE\BOOST\PREDEF\OS\CYGWIN.H
C:\USERS\TAHLIA\DESKTOP\GAME_ENGINE09\ENGINE\LIBRARY\INCLUDE\BOOST\PREDEF\OS\HAIKU.H
C:\USERS\TAHLIA\DESKTOP\GAME_ENGINE09\ENGINE\LIBRARY\INCLUDE\BOOST\PREDEF\OS\HPUX.H
C:\USERS\TAHLIA\DESKTOP\GAME_ENGINE09\ENGINE\LIBRARY\INCLUDE\BOOST\PREDEF\OS\IRIX.H
C:\USERS\TAHLIA\DESKTOP\GAME_ENGINE09\ENGINE\LIBRARY\INCLUDE\BOOST\PREDEF\OS\LINUX.H
C:\USERS\TAHLIA\DESKTOP\GAME_ENGINE09\ENGINE\LIBRARY\INCLUDE\BOOST\PREDEF\OS\OS400.H
C:\USERS\TAHLIA\DESKTOP\GAME_ENGINE09\ENGINE\LIBRARY\INCLUDE\BOOST\PREDEF\OS\QNXNTO.H
C:\USERS\TAHLIA\DESKTOP\GAME_ENGINE09\ENGINE\LIBRARY\INCLUDE\BOOST\PREDEF\OS\SOLARIS.H
C:\USERS\TAHLIA\DESKTOP\GAME_ENGINE09\ENGINE\LIBRARY\INCLUDE\BOOST\PREDEF\OS\UNIX.H
C:\USERS\TAHLIA\DESKTOP\GAME_ENGINE09\ENGINE\LIBRARY\INCLUDE\BOOST\PREDEF\OS\VMS.H
C:\USERS\TAHLIA\DESKTOP\GAME_ENGINE09\ENGINE\LIBRARY\INCLUDE\BOOST\PREDEF\OS\WINDOWS.H
C:\USERS\TAHLIA\DESKTOP\GAME_ENGINE09\ENGINE\LIBRARY\INCLUDE\BOOST\PREDEF\DETAIL\OS_DETECTED.H
C:\USERS\TAHLIA\DESKTOP\GAME_ENGINE09\ENGINE\LIBRARY\INCLUDE\BOOST\PREDEF\OTHER.H
C:\USERS\TAHLIA\DESKTOP\GAME_ENGINE09\ENGINE\LIBRARY\INCLUDE\BOOST\PREDEF\OTHER\ENDIAN.H
C:\USERS\TAHLIA\DESKTOP\GAME_ENGINE09\ENGINE\LIBRARY\INCLUDE\BOOST\PREDEF\PLATFORM.H
C:\USERS\TAHLIA\DESKTOP\GAME_ENGINE09\ENGINE\LIBRARY\INCLUDE\BOOST\PREDEF\PLATFORM\MINGW.H
C:\USERS\TAHLIA\DESKTOP\GAME_ENGINE09\ENGINE\LIBRARY\INCLUDE\BOOST\PREDEF\PLATFORM\WINDOWS_DESKTOP.H
C:\USERS\TAHLIA\DESKTOP\GAME_ENGINE09\ENGINE\LIBRARY\INCLUDE\BOOST\PREDEF\DETAIL\PLATFORM_DETECTED.H
C:\USERS\TAHLIA\DESKTOP\GAME_ENGINE09\ENGINE\LIBRARY\INCLUDE\BOOST\PREDEF\PLATFORM\WINDOWS_STORE.H
C:\USERS\TAHLIA\DESKTOP\GAME_ENGINE09\ENGINE\LIBRARY\INCLUDE\BOOST\PREDEF\PLATFORM\WINDOWS_PHONE.H
C:\USERS\TAHLIA\DESKTOP\GAME_ENGINE09\ENGINE\LIBRARY\INCLUDE\BOOST\PREDEF\PLATFORM\WINDOWS_RUNTIME.H
C:\USERS\TAHLIA\DESKTOP\GAME_ENGINE09\ENGINE\LIBRARY\INCLUDE\BOOST\PREDEF\HARDWARE.H
C:\USERS\TAHLIA\DESKTOP\GAME_ENGINE09\ENGINE\LIBRARY\INCLUDE\BOOST\PREDEF\HARDWARE\SIMD.H
C:\USERS\TAHLIA\DESKTOP\GAME_ENGINE09\ENGINE\LIBRARY\INCLUDE\BOOST\PREDEF\HARDWARE\SIMD\X86.H
C:\USERS\TAHLIA\DESKTOP\GAME_ENGINE09\ENGINE\LIBRARY\INCLUDE\BOOST\PREDEF\HARDWARE\SIMD\X86\VERSIONS.H
C:\USERS\TAHLIA\DESKTOP\GAME_ENGINE09\ENGINE\LIBRARY\INCLUDE\BOOST\PREDEF\HARDWARE\SIMD\X86_AMD.H
C:\USERS\TAHLIA\DESKTOP\GAME_ENGINE09\ENGINE\LIBRARY\INCLUDE\BOOST\PREDEF\HARDWARE\SIMD\X86_AMD\VERSIONS.H
C:\USERS\TAHLIA\DESKTOP\GAME_ENGINE09\ENGINE\LIBRARY\INCLUDE\BOOST\PREDEF\HARDWARE\SIMD\ARM.H
C:\USERS\TAHLIA\DESKTOP\GAME_ENGINE09\ENGINE\LIBRARY\INCLUDE\BOOST\PREDEF\HARDWARE\SIMD\ARM\VERSIONS.H
C:\USERS\TAHLIA\DESKTOP\GAME_ENGINE09\ENGINE\LIBRARY\INCLUDE\BOOST\PREDEF\HARDWARE\SIMD\PPC.H
C:\USERS\TAHLIA\DESKTOP\GAME_ENGINE09\ENGINE\LIBRARY\INCLUDE\BOOST\PREDEF\HARDWARE\SIMD\PPC\VERSIONS.H
C:\USERS\TAHLIA\DESKTOP\GAME_ENGINE09\ENGINE\LIBRARY\INCLUDE\BOOST\PREDEF\VERSION.H
C:\USERS\TAHLIA\DESKTOP\GAME_ENGINE09\ENGINE\LIBRARY\INCLUDE\BOOST\SMART_PTR\MAKE_SHARED.HPP
C:\USERS\TAHLIA\DESKTOP\GAME_ENGINE09\ENGINE\LIBRARY\INCLUDE\BOOST\SMART_PTR\MAKE_SHARED_OBJECT.HPP
C:\USERS\TAHLIA\DESKTOP\GAME_ENGINE09\ENGINE\LIBRARY\INCLUDE\BOOST\MOVE\CORE.HPP
C:\USERS\TAHLIA\DESKTOP\GAME_ENGINE09\ENGINE\LIBRARY\INCLUDE\BOOST\MOVE\DETAIL\CONFIG_BEGIN.HPP
C:\USERS\TAHLIA\DESKTOP\GAME_ENGINE09\ENGINE\LIBRARY\INCLUDE\BOOST\MOVE\DETAIL\WORKAROUND.HPP
C:\USERS\TAHLIA\DESKTOP\GAME_ENGINE09\ENGINE\LIBRARY\INCLUDE\BOOST\MOVE\DETAIL\META_UTILS.HPP
C:\USERS\TAHLIA\DESKTOP\GAME_ENGINE09\ENGINE\LIBRARY\INCLUDE\BOOST\MOVE\DETAIL\META_UTILS_CORE.HPP
C:\USERS\TAHLIA\DESKTOP\GAME_ENGINE09\ENGINE\LIBRARY\INCLUDE\BOOST\MOVE\DETAIL\CONFIG_END.HPP
C:\USERS\TAHLIA\DESKTOP\GAME_ENGINE09\ENGINE\LIBRARY\INCLUDE\BOOST\MOVE\UTILITY_CORE.HPP
C:\USERS\TAHLIA\DESKTOP\GAME_ENGINE09\ENGINE\LIBRARY\INCLUDE\BOOST\SMART_PTR\DETAIL\SP_FORWARD.HPP
C:\USERS\TAHLIA\DESKTOP\GAME_ENGINE09\ENGINE\LIBRARY\INCLUDE\BOOST\TYPE_TRAITS\TYPE_WITH_ALIGNMENT.HPP
C:\USERS\TAHLIA\DESKTOP\GAME_ENGINE09\ENGINE\LIBRARY\INCLUDE\BOOST\TYPE_TRAITS\ALIGNMENT_OF.HPP
C:\USERS\TAHLIA\DESKTOP\GAME_ENGINE09\ENGINE\LIBRARY\INCLUDE\BOOST\TYPE_TRAITS\IS_POD.HPP
C:\USERS\TAHLIA\DESKTOP\GAME_ENGINE09\ENGINE\LIBRARY\INCLUDE\BOOST\TYPE_TRAITS\IS_SCALAR.HPP
C:\USERS\TAHLIA\DESKTOP\GAME_ENGINE09\ENGINE\LIBRARY\INCLUDE\BOOST\TYPE_TRAITS\IS_POINTER.HPP
C:\USERS\TAHLIA\DESKTOP\GAME_ENGINE09\ENGINE\LIBRARY\INCLUDE\BOOST\TYPE_TRAITS\IS_MEMBER_POINTER.HPP
C:\USERS\TAHLIA\DESKTOP\GAME_ENGINE09\ENGINE\LIBRARY\INCLUDE\BOOST\TYPE_TRAITS\IS_MEMBER_FUNCTION_POINTER.HPP
C:\USERS\TAHLIA\DESKTOP\GAME_ENGINE09\ENGINE\LIBRARY\INCLUDE\BOOST\TYPE_TRAITS\IS_REFERENCE.HPP
C:\USERS\TAHLIA\DESKTOP\GAME_ENGINE09\ENGINE\LIBRARY\INCLUDE\BOOST\TYPE_TRAITS\IS_LVALUE_REFERENCE.HPP
C:\USERS\TAHLIA\DESKTOP\GAME_ENGINE09\ENGINE\LIBRARY\INCLUDE\BOOST\TYPE_TRAITS\IS_RVALUE_REFERENCE.HPP
C:\USERS\TAHLIA\DESKTOP\GAME_ENGINE09\ENGINE\LIBRARY\INCLUDE\BOOST\TYPE_TRAITS\DETAIL\YES_NO_TYPE.HPP
C:\USERS\TAHLIA\DESKTOP\GAME_ENGINE09\ENGINE\LIBRARY\INCLUDE\BOOST\TYPE_TRAITS\DETAIL\IS_MEM_FUN_POINTER_TESTER.HPP
C:\USERS\TAHLIA\DESKTOP\GAME_ENGINE09\ENGINE\LIBRARY\INCLUDE\BOOST\TYPE_TRAITS\CONDITIONAL.HPP
C:\USERS\TAHLIA\DESKTOP\GAME_ENGINE09\ENGINE\LIBRARY\INCLUDE\BOOST\SMART_PTR\MAKE_SHARED_ARRAY.HPP
C:\USERS\TAHLIA\DESKTOP\GAME_ENGINE09\ENGINE\LIBRARY\INCLUDE\BOOST\SMART_PTR\DETAIL\ARRAY_COUNT_IMPL.HPP
C:\USERS\TAHLIA\DESKTOP\GAME_ENGINE09\ENGINE\LIBRARY\INCLUDE\BOOST\SMART_PTR\DETAIL\ARRAY_ALLOCATOR.HPP
C:\USERS\TAHLIA\DESKTOP\GAME_ENGINE09\ENGINE\LIBRARY\INCLUDE\BOOST\ALIGN\ALIGN.HPP
C:\USERS\TAHLIA\DESKTOP\GAME_ENGINE09\ENGINE\LIBRARY\INCLUDE\BOOST\ALIGN\DETAIL\ALIGN.HPP
C:\USERS\TAHLIA\DESKTOP\GAME_ENGINE09\ENGINE\LIBRARY\INCLUDE\BOOST\ALIGN\DETAIL\IS_ALIGNMENT.HPP
C:\USERS\TAHLIA\DESKTOP\GAME_ENGINE09\ENGINE\LIBRARY\INCLUDE\BOOST\SMART_PTR\DETAIL\ARRAY_TRAITS.HPP
C:\USERS\TAHLIA\DESKTOP\GAME_ENGINE09\ENGINE\LIBRARY\INCLUDE\BOOST\SMART_PTR\DETAIL\ARRAY_UTILITY.HPP
C:\USERS\TAHLIA\DESKTOP\GAME_ENGINE09\ENGINE\LIBRARY\INCLUDE\BOOST\TYPE_TRAITS\HAS_TRIVIAL_CONSTRUCTOR.HPP
C:\USERS\TAHLIA\DESKTOP\GAME_ENGINE09\ENGINE\LIBRARY\INCLUDE\BOOST\TYPE_TRAITS\IS_DEFAULT_CONSTRUCTIBLE.HPP
C:\USERS\TAHLIA\DESKTOP\GAME_ENGINE09\ENGINE\LIBRARY\INCLUDE\BOOST\TYPE_TRAITS\HAS_TRIVIAL_DESTRUCTOR.HPP
C:\USERS\TAHLIA\DESKTOP\GAME_ENGINE09\ENGINE\LIBRARY\INCLUDE\BOOST\SMART_PTR\DETAIL\SP_IF_ARRAY.HPP
C:\USERS\TAHLIA\DESKTOP\GAME_ENGINE09\ENGINE\LIBRARY\INCLUDE\BOOST\SMART_PTR\ALLOCATE_SHARED_ARRAY.HPP
C:\USERS\TAHLIA\DESKTOP\GAME_ENGINE09\ENGINE\LIBRARY\INCLUDE\BOOST\ARCHIVE\DETAIL\INTERFACE_OARCHIVE.HPP
C:\USERS\TAHLIA\DESKTOP\GAME_ENGINE09\ENGINE\LIBRARY\INCLUDE\BOOST\ARCHIVE\DETAIL\OSERIALIZER.HPP
C:\USERS\TAHLIA\DESKTOP\GAME_ENGINE09\ENGINE\LIBRARY\INCLUDE\BOOST\MPL\EQUAL_TO.HPP
C:\USERS\TAHLIA\DESKTOP\GAME_ENGINE09\ENGINE\LIBRARY\INCLUDE\BOOST\MPL\AUX_\COMPARISON_OP.HPP
C:\USERS\TAHLIA\DESKTOP\GAME_ENGINE09\ENGINE\LIBRARY\INCLUDE\BOOST\MPL\AUX_\NUMERIC_OP.HPP
C:\USERS\TAHLIA\DESKTOP\GAME_ENGINE09\ENGINE\LIBRARY\INCLUDE\BOOST\MPL\NUMERIC_CAST.HPP
C:\USERS\TAHLIA\DESKTOP\GAME_ENGINE09\ENGINE\LIBRARY\INCLUDE\BOOST\MPL\APPLY_WRAP.HPP
C:\USERS\TAHLIA\DESKTOP\GAME_ENGINE09\ENGINE\LIBRARY\INCLUDE\BOOST\MPL\AUX_\HAS_APPLY.HPP
C:\USERS\TAHLIA\DESKTOP\GAME_ENGINE09\ENGINE\LIBRARY\INCLUDE\BOOST\MPL\HAS_XXX.HPP
C:\USERS\TAHLIA\DESKTOP\GAME_ENGINE09\ENGINE\LIBRARY\INCLUDE\BOOST\MPL\AUX_\TYPE_WRAPPER.HPP
C:\USERS\TAHLIA\DESKTOP\GAME_ENGINE09\ENGINE\LIBRARY\INCLUDE\BOOST\MPL\AUX_\YES_NO.HPP
C:\USERS\TAHLIA\DESKTOP\GAME_ENGINE09\ENGINE\LIBRARY\INCLUDE\BOOST\MPL\AUX_\CONFIG\ARRAYS.HPP
C:\USERS\TAHLIA\DESKTOP\GAME_ENGINE09\ENGINE\LIBRARY\INCLUDE\BOOST\MPL\AUX_\CONFIG\HAS_XXX.HPP
C:\USERS\TAHLIA\DESKTOP\GAME_ENGINE09\ENGINE\LIBRARY\INCLUDE\BOOST\MPL\AUX_\CONFIG\MSVC_TYPENAME.HPP
C:\USERS\TAHLIA\DESKTOP\GAME_ENGINE09\ENGINE\LIBRARY\INCLUDE\BOOST\PREPROCESSOR\ARRAY\ELEM.HPP
C:\USERS\TAHLIA\DESKTOP\GAME_ENGINE09\ENGINE\LIBRARY\INCLUDE\BOOST\PREPROCESSOR\ARRAY\DATA.HPP
C:\USERS\TAHLIA\DESKTOP\GAME_ENGINE09\ENGINE\LIBRARY\INCLUDE\BOOST\PREPROCESSOR\ARRAY\SIZE.HPP
C:\USERS\TAHLIA\DESKTOP\GAME_ENGINE09\ENGINE\LIBRARY\INCLUDE\BOOST\PREPROCESSOR\REPETITION\ENUM_PARAMS.HPP
C:\USERS\TAHLIA\DESKTOP\GAME_ENGINE09\ENGINE\LIBRARY\INCLUDE\BOOST\PREPROCESSOR\REPETITION\ENUM_TRAILING_PARAMS.HPP
C:\USERS\TAHLIA\DESKTOP\GAME_ENGINE09\ENGINE\LIBRARY\INCLUDE\BOOST\MPL\AUX_\CONFIG\HAS_APPLY.HPP
C:\USERS\TAHLIA\DESKTOP\GAME_ENGINE09\ENGINE\LIBRARY\INCLUDE\BOOST\MPL\AUX_\MSVC_NEVER_TRUE.HPP
C:\USERS\TAHLIA\DESKTOP\GAME_ENGINE09\ENGINE\LIBRARY\INCLUDE\BOOST\MPL\AUX_\CONFIG\USE_PREPROCESSED.HPP
C:\USERS\TAHLIA\DESKTOP\GAME_ENGINE09\ENGINE\LIBRARY\INCLUDE\BOOST\MPL\AUX_\INCLUDE_PREPROCESSED.HPP
C:\USERS\TAHLIA\DESKTOP\GAME_ENGINE09\ENGINE\LIBRARY\INCLUDE\BOOST\MPL\AUX_\CONFIG\COMPILER.HPP
C:\USERS\TAHLIA\DESKTOP\GAME_ENGINE09\ENGINE\LIBRARY\INCLUDE\BOOST\PREPROCESSOR\STRINGIZE.HPP
C:\USERS\TAHLIA\DESKTOP\GAME_ENGINE09\ENGINE\LIBRARY\INCLUDE\BOOST\MPL\AUX_\PREPROCESSED\PLAIN\APPLY_WRAP.HPP
C:\USERS\TAHLIA\DESKTOP\GAME_ENGINE09\ENGINE\LIBRARY\INCLUDE\BOOST\MPL\TAG.HPP
C:\USERS\TAHLIA\DESKTOP\GAME_ENGINE09\ENGINE\LIBRARY\INCLUDE\BOOST\MPL\VOID.HPP
C:\USERS\TAHLIA\DESKTOP\GAME_ENGINE09\ENGINE\LIBRARY\INCLUDE\BOOST\MPL\AUX_\HAS_TAG.HPP
C:\USERS\TAHLIA\DESKTOP\GAME_ENGINE09\ENGINE\LIBRARY\INCLUDE\BOOST\MPL\AUX_\NUMERIC_CAST_UTILS.HPP
C:\USERS\TAHLIA\DESKTOP\GAME_ENGINE09\ENGINE\LIBRARY\INCLUDE\BOOST\MPL\AUX_\CONFIG\FORWARDING.HPP
C:\USERS\TAHLIA\DESKTOP\GAME_ENGINE09\ENGINE\LIBRARY\INCLUDE\BOOST\MPL\AUX_\MSVC_ETI_BASE.HPP
C:\USERS\TAHLIA\DESKTOP\GAME_ENGINE09\ENGINE\LIBRARY\INCLUDE\BOOST\MPL\AUX_\IS_MSVC_ETI_ARG.HPP
C:\USERS\TAHLIA\DESKTOP\GAME_ENGINE09\ENGINE\LIBRARY\INCLUDE\BOOST\MPL\AUX_\PREPROCESSED\PLAIN\EQUAL_TO.HPP
C:\USERS\TAHLIA\DESKTOP\GAME_ENGINE09\ENGINE\LIBRARY\INCLUDE\BOOST\MPL\GREATER_EQUAL.HPP
C:\USERS\TAHLIA\DESKTOP\GAME_ENGINE09\ENGINE\LIBRARY\INCLUDE\BOOST\MPL\AUX_\PREPROCESSED\PLAIN\GREATER_EQUAL.HPP
C:\USERS\TAHLIA\DESKTOP\GAME_ENGINE09\ENGINE\LIBRARY\INCLUDE\BOOST\MPL\IDENTITY.HPP
C:\USERS\TAHLIA\DESKTOP\GAME_ENGINE09\ENGINE\LIBRARY\INCLUDE\BOOST\SERIALIZATION\EXTENDED_TYPE_INFO_TYPEID.HPP
C:\PROGRAM FILES (X86)\MICROSOFT VISUAL STUDIO 11.0\VC\INCLUDE\CSTDARG
C:\PROGRAM FILES (X86)\MICROSOFT VISUAL STUDIO 11.0\VC\INCLUDE\STDARG.H
C:\USERS\TAHLIA\DESKTOP\GAME_ENGINE09\ENGINE\LIBRARY\INCLUDE\BOOST\SERIALIZATION\STATIC_WARNING.HPP
C:\USERS\TAHLIA\DESKTOP\GAME_ENGINE09\ENGINE\LIBRARY\INCLUDE\BOOST\MPL\PRINT.HPP
C:\USERS\TAHLIA\DESKTOP\GAME_ENGINE09\ENGINE\LIBRARY\INCLUDE\BOOST\TYPE_TRAITS\IS_POLYMORPHIC.HPP
C:\USERS\TAHLIA\DESKTOP\GAME_ENGINE09\ENGINE\LIBRARY\INCLUDE\BOOST\TYPE_TRAITS\REMOVE_CONST.HPP
C:\USERS\TAHLIA\DESKTOP\GAME_ENGINE09\ENGINE\LIBRARY\INCLUDE\BOOST\SERIALIZATION\CONFIG.HPP
C:\USERS\TAHLIA\DESKTOP\GAME_ENGINE09\ENGINE\LIBRARY\INCLUDE\BOOST\SERIALIZATION\SINGLETON.HPP
C:\USERS\TAHLIA\DESKTOP\GAME_ENGINE09\ENGINE\LIBRARY\INCLUDE\BOOST\SERIALIZATION\FORCE_INCLUDE.HPP
C:\USERS\TAHLIA\DESKTOP\GAME_ENGINE09\ENGINE\LIBRARY\INCLUDE\BOOST\SERIALIZATION\EXTENDED_TYPE_INFO.HPP
C:\USERS\TAHLIA\DESKTOP\GAME_ENGINE09\ENGINE\LIBRARY\INCLUDE\BOOST\SERIALIZATION\FACTORY.HPP
C:\USERS\TAHLIA\DESKTOP\GAME_ENGINE09\ENGINE\LIBRARY\INCLUDE\BOOST\PREPROCESSOR\COMPARISON\GREATER.HPP
C:\USERS\TAHLIA\DESKTOP\GAME_ENGINE09\ENGINE\LIBRARY\INCLUDE\BOOST\PREPROCESSOR\COMPARISON\LESS.HPP
C:\USERS\TAHLIA\DESKTOP\GAME_ENGINE09\ENGINE\LIBRARY\INCLUDE\BOOST\PREPROCESSOR\COMPARISON\LESS_EQUAL.HPP
C:\USERS\TAHLIA\DESKTOP\GAME_ENGINE09\ENGINE\LIBRARY\INCLUDE\BOOST\PREPROCESSOR\LOGICAL\NOT.HPP
C:\USERS\TAHLIA\DESKTOP\GAME_ENGINE09\ENGINE\LIBRARY\INCLUDE\BOOST\PREPROCESSOR\COMPARISON\NOT_EQUAL.HPP
C:\USERS\TAHLIA\DESKTOP\GAME_ENGINE09\ENGINE\LIBRARY\INCLUDE\BOOST\SERIALIZATION\ACCESS.HPP
C:\USERS\TAHLIA\DESKTOP\GAME_ENGINE09\ENGINE\LIBRARY\INCLUDE\BOOST\SERIALIZATION\SMART_CAST.HPP
C:\USERS\TAHLIA\DESKTOP\GAME_ENGINE09\ENGINE\LIBRARY\INCLUDE\BOOST\TYPE_TRAITS\REMOVE_POINTER.HPP
C:\USERS\TAHLIA\DESKTOP\GAME_ENGINE09\ENGINE\LIBRARY\INCLUDE\BOOST\TYPE_TRAITS\REMOVE_REFERENCE.HPP
C:\USERS\TAHLIA\DESKTOP\GAME_ENGINE09\ENGINE\LIBRARY\INCLUDE\BOOST\MPL\OR.HPP
C:\USERS\TAHLIA\DESKTOP\GAME_ENGINE09\ENGINE\LIBRARY\INCLUDE\BOOST\MPL\AUX_\NESTED_TYPE_WKND.HPP
C:\USERS\TAHLIA\DESKTOP\GAME_ENGINE09\ENGINE\LIBRARY\INCLUDE\BOOST\MPL\AUX_\PREPROCESSED\PLAIN\OR.HPP
C:\USERS\TAHLIA\DESKTOP\GAME_ENGINE09\ENGINE\LIBRARY\INCLUDE\BOOST\MPL\AND.HPP
C:\USERS\TAHLIA\DESKTOP\GAME_ENGINE09\ENGINE\LIBRARY\INCLUDE\BOOST\MPL\AUX_\PREPROCESSED\PLAIN\AND.HPP
C:\USERS\TAHLIA\DESKTOP\GAME_ENGINE09\ENGINE\LIBRARY\INCLUDE\BOOST\MPL\NOT.HPP
C:\USERS\TAHLIA\DESKTOP\GAME_ENGINE09\ENGINE\LIBRARY\INCLUDE\BOOST\SERIALIZATION\ASSUME_ABSTRACT.HPP
C:\USERS\TAHLIA\DESKTOP\GAME_ENGINE09\ENGINE\LIBRARY\INCLUDE\BOOST\TYPE_TRAITS\IS_ABSTRACT.HPP
C:\USERS\TAHLIA\DESKTOP\GAME_ENGINE09\ENGINE\LIBRARY\INCLUDE\BOOST\TYPE_TRAITS\IS_CONST.HPP
C:\USERS\TAHLIA\DESKTOP\GAME_ENGINE09\ENGINE\LIBRARY\INCLUDE\BOOST\TYPE_TRAITS\REMOVE_EXTENT.HPP
C:\USERS\TAHLIA\DESKTOP\GAME_ENGINE09\ENGINE\LIBRARY\INCLUDE\BOOST\SERIALIZATION\SERIALIZATION.HPP
C:\USERS\TAHLIA\DESKTOP\GAME_ENGINE09\ENGINE\LIBRARY\INCLUDE\BOOST\SERIALIZATION\STRONG_TYPEDEF.HPP
C:\USERS\TAHLIA\DESKTOP\GAME_ENGINE09\ENGINE\LIBRARY\INCLUDE\BOOST\OPERATORS.HPP
C:\USERS\TAHLIA\DESKTOP\GAME_ENGINE09\ENGINE\LIBRARY\INCLUDE\BOOST\SERIALIZATION\VERSION.HPP
C:\USERS\TAHLIA\DESKTOP\GAME_ENGINE09\ENGINE\LIBRARY\INCLUDE\BOOST\MPL\ASSERT.HPP
C:\USERS\TAHLIA\DESKTOP\GAME_ENGINE09\ENGINE\LIBRARY\INCLUDE\BOOST\MPL\AUX_\CONFIG\GPU.HPP
C:\USERS\TAHLIA\DESKTOP\GAME_ENGINE09\ENGINE\LIBRARY\INCLUDE\BOOST\MPL\AUX_\CONFIG\PP_COUNTER.HPP
C:\USERS\TAHLIA\DESKTOP\GAME_ENGINE09\ENGINE\LIBRARY\INCLUDE\BOOST\MPL\LESS.HPP
C:\USERS\TAHLIA\DESKTOP\GAME_ENGINE09\ENGINE\LIBRARY\INCLUDE\BOOST\MPL\AUX_\PREPROCESSED\PLAIN\LESS.HPP
C:\USERS\TAHLIA\DESKTOP\GAME_ENGINE09\ENGINE\LIBRARY\INCLUDE\BOOST\MPL\COMPARISON.HPP
C:\USERS\TAHLIA\DESKTOP\GAME_ENGINE09\ENGINE\LIBRARY\INCLUDE\BOOST\MPL\NOT_EQUAL_TO.HPP
C:\USERS\TAHLIA\DESKTOP\GAME_ENGINE09\ENGINE\LIBRARY\INCLUDE\BOOST\MPL\AUX_\PREPROCESSED\PLAIN\NOT_EQUAL_TO.HPP
C:\USERS\TAHLIA\DESKTOP\GAME_ENGINE09\ENGINE\LIBRARY\INCLUDE\BOOST\MPL\GREATER.HPP
C:\USERS\TAHLIA\DESKTOP\GAME_ENGINE09\ENGINE\LIBRARY\INCLUDE\BOOST\MPL\AUX_\PREPROCESSED\PLAIN\GREATER.HPP
C:\USERS\TAHLIA\DESKTOP\GAME_ENGINE09\ENGINE\LIBRARY\INCLUDE\BOOST\MPL\LESS_EQUAL.HPP
C:\USERS\TAHLIA\DESKTOP\GAME_ENGINE09\ENGINE\LIBRARY\INCLUDE\BOOST\MPL\AUX_\PREPROCESSED\PLAIN\LESS_EQUAL.HPP
C:\USERS\TAHLIA\DESKTOP\GAME_ENGINE09\ENGINE\LIBRARY\INCLUDE\BOOST\SERIALIZATION\TRACKING.HPP
C:\USERS\TAHLIA\DESKTOP\GAME_ENGINE09\ENGINE\LIBRARY\INCLUDE\BOOST\SERIALIZATION\TYPE_INFO_IMPLEMENTATION.HPP
C:\USERS\TAHLIA\DESKTOP\GAME_ENGINE09\ENGINE\LIBRARY\INCLUDE\BOOST\SERIALIZATION\TRAITS.HPP
C:\USERS\TAHLIA\DESKTOP\GAME_ENGINE09\ENGINE\LIBRARY\INCLUDE\BOOST\SERIALIZATION\NVP.HPP
C:\USERS\TAHLIA\DESKTOP\GAME_ENGINE09\ENGINE\LIBRARY\INCLUDE\BOOST\SERIALIZATION\SPLIT_MEMBER.HPP
C:\USERS\TAHLIA\DESKTOP\GAME_ENGINE09\ENGINE\LIBRARY\INCLUDE\BOOST\SERIALIZATION\BASE_OBJECT.HPP
C:\USERS\TAHLIA\DESKTOP\GAME_ENGINE09\ENGINE\LIBRARY\INCLUDE\BOOST\SERIALIZATION\VOID_CAST_FWD.HPP
C:\USERS\TAHLIA\DESKTOP\GAME_ENGINE09\ENGINE\LIBRARY\INCLUDE\BOOST\SERIALIZATION\WRAPPER.HPP
C:\USERS\TAHLIA\DESKTOP\GAME_ENGINE09\ENGINE\LIBRARY\INCLUDE\BOOST\SERIALIZATION\VOID_CAST.HPP
C:\USERS\TAHLIA\DESKTOP\GAME_ENGINE09\ENGINE\LIBRARY\INCLUDE\BOOST\TYPE_TRAITS\IS_VIRTUAL_BASE_OF.HPP
C:\USERS\TAHLIA\DESKTOP\GAME_ENGINE09\ENGINE\LIBRARY\INCLUDE\BOOST\TYPE_TRAITS\IS_BASE_OF.HPP
C:\USERS\TAHLIA\DESKTOP\GAME_ENGINE09\ENGINE\LIBRARY\INCLUDE\BOOST\SERIALIZATION\ARRAY.HPP
C:\USERS\TAHLIA\DESKTOP\GAME_ENGINE09\ENGINE\LIBRARY\INCLUDE\BOOST\SERIALIZATION\COLLECTION_SIZE_TYPE.HPP
C:\USERS\TAHLIA\DESKTOP\GAME_ENGINE09\ENGINE\LIBRARY\INCLUDE\BOOST\SERIALIZATION\SPLIT_FREE.HPP
C:\USERS\TAHLIA\DESKTOP\GAME_ENGINE09\ENGINE\LIBRARY\INCLUDE\BOOST\MPL\ALWAYS.HPP
C:\USERS\TAHLIA\DESKTOP\GAME_ENGINE09\ENGINE\LIBRARY\INCLUDE\BOOST\MPL\AUX_\PREPROCESSOR\DEFAULT_PARAMS.HPP
C:\USERS\TAHLIA\DESKTOP\GAME_ENGINE09\ENGINE\LIBRARY\INCLUDE\BOOST\MPL\AUX_\ARITY_SPEC.HPP
C:\USERS\TAHLIA\DESKTOP\GAME_ENGINE09\ENGINE\LIBRARY\INCLUDE\BOOST\MPL\APPLY.HPP
C:\USERS\TAHLIA\DESKTOP\GAME_ENGINE09\ENGINE\LIBRARY\INCLUDE\BOOST\MPL\APPLY_FWD.HPP
C:\USERS\TAHLIA\DESKTOP\GAME_ENGINE09\ENGINE\LIBRARY\INCLUDE\BOOST\MPL\AUX_\PREPROCESSED\PLAIN\APPLY_FWD.HPP
C:\USERS\TAHLIA\DESKTOP\GAME_ENGINE09\ENGINE\LIBRARY\INCLUDE\BOOST\MPL\PLACEHOLDERS.HPP
C:\USERS\TAHLIA\DESKTOP\GAME_ENGINE09\ENGINE\LIBRARY\INCLUDE\BOOST\MPL\ARG.HPP
C:\USERS\TAHLIA\DESKTOP\GAME_ENGINE09\ENGINE\LIBRARY\INCLUDE\BOOST\MPL\ARG_FWD.HPP
C:\USERS\TAHLIA\DESKTOP\GAME_ENGINE09\ENGINE\LIBRARY\INCLUDE\BOOST\MPL\AUX_\NA_ASSERT.HPP
C:\USERS\TAHLIA\DESKTOP\GAME_ENGINE09\ENGINE\LIBRARY\INCLUDE\BOOST\MPL\AUX_\ARG_TYPEDEF.HPP
C:\USERS\TAHLIA\DESKTOP\GAME_ENGINE09\ENGINE\LIBRARY\INCLUDE\BOOST\MPL\AUX_\PREPROCESSED\PLAIN\ARG.HPP
C:\USERS\TAHLIA\DESKTOP\GAME_ENGINE09\ENGINE\LIBRARY\INCLUDE\BOOST\MPL\AUX_\PREPROCESSED\PLAIN\PLACEHOLDERS.HPP
C:\USERS\TAHLIA\DESKTOP\GAME_ENGINE09\ENGINE\LIBRARY\INCLUDE\BOOST\MPL\LAMBDA.HPP
C:\USERS\TAHLIA\DESKTOP\GAME_ENGINE09\ENGINE\LIBRARY\INCLUDE\BOOST\MPL\BIND.HPP
C:\USERS\TAHLIA\DESKTOP\GAME_ENGINE09\ENGINE\LIBRARY\INCLUDE\BOOST\MPL\BIND_FWD.HPP
C:\USERS\TAHLIA\DESKTOP\GAME_ENGINE09\ENGINE\LIBRARY\INCLUDE\BOOST\MPL\AUX_\CONFIG\BIND.HPP
C:\USERS\TAHLIA\DESKTOP\GAME_ENGINE09\ENGINE\LIBRARY\INCLUDE\BOOST\MPL\AUX_\PREPROCESSED\PLAIN\BIND_FWD.HPP
C:\USERS\TAHLIA\DESKTOP\GAME_ENGINE09\ENGINE\LIBRARY\INCLUDE\BOOST\MPL\NEXT.HPP
C:\USERS\TAHLIA\DESKTOP\GAME_ENGINE09\ENGINE\LIBRARY\INCLUDE\BOOST\MPL\NEXT_PRIOR.HPP
C:\USERS\TAHLIA\DESKTOP\GAME_ENGINE09\ENGINE\LIBRARY\INCLUDE\BOOST\MPL\AUX_\COMMON_NAME_WKND.HPP
C:\USERS\TAHLIA\DESKTOP\GAME_ENGINE09\ENGINE\LIBRARY\INCLUDE\BOOST\MPL\PROTECT.HPP
C:\USERS\TAHLIA\DESKTOP\GAME_ENGINE09\ENGINE\LIBRARY\INCLUDE\BOOST\MPL\AUX_\PREPROCESSED\PLAIN\BIND.HPP
C:\USERS\TAHLIA\DESKTOP\GAME_ENGINE09\ENGINE\LIBRARY\INCLUDE\BOOST\MPL\AUX_\FULL_LAMBDA.HPP
C:\USERS\TAHLIA\DESKTOP\GAME_ENGINE09\ENGINE\LIBRARY\INCLUDE\BOOST\MPL\QUOTE.HPP
C:\USERS\TAHLIA\DESKTOP\GAME_ENGINE09\ENGINE\LIBRARY\INCLUDE\BOOST\MPL\AUX_\HAS_TYPE.HPP
C:\USERS\TAHLIA\DESKTOP\GAME_ENGINE09\ENGINE\LIBRARY\INCLUDE\BOOST\MPL\AUX_\CONFIG\BCC.HPP
C:\USERS\TAHLIA\DESKTOP\GAME_ENGINE09\ENGINE\LIBRARY\INCLUDE\BOOST\MPL\AUX_\PREPROCESSED\PLAIN\QUOTE.HPP
C:\USERS\TAHLIA\DESKTOP\GAME_ENGINE09\ENGINE\LIBRARY\INCLUDE\BOOST\MPL\AUX_\TEMPLATE_ARITY.HPP
C:\USERS\TAHLIA\DESKTOP\GAME_ENGINE09\ENGINE\LIBRARY\INCLUDE\BOOST\MPL\AUX_\PREPROCESSED\PLAIN\TEMPLATE_ARITY.HPP
C:\USERS\TAHLIA\DESKTOP\GAME_ENGINE09\ENGINE\LIBRARY\INCLUDE\BOOST\MPL\AUX_\PREPROCESSED\PLAIN\FULL_LAMBDA.HPP
C:\USERS\TAHLIA\DESKTOP\GAME_ENGINE09\ENGINE\LIBRARY\INCLUDE\BOOST\MPL\AUX_\PREPROCESSED\PLAIN\APPLY.HPP
C:\PROGRAM FILES (X86)\MICROSOFT VISUAL STUDIO 11.0\VC\INCLUDE\ARRAY
C:\USERS\TAHLIA\DESKTOP\GAME_ENGINE09\ENGINE\LIBRARY\INCLUDE\BOOST\ARRAY.HPP
C:\USERS\TAHLIA\DESKTOP\GAME_ENGINE09\ENGINE\LIBRARY\INCLUDE\BOOST\SWAP.HPP
C:\USERS\TAHLIA\DESKTOP\GAME_ENGINE09\ENGINE\LIBRARY\INCLUDE\BOOST\CORE\SWAP.HPP
C:\USERS\TAHLIA\DESKTOP\GAME_ENGINE09\ENGINE\LIBRARY\INCLUDE\BOOST\DETAIL\ITERATOR.HPP
C:\USERS\TAHLIA\DESKTOP\GAME_ENGINE09\ENGINE\LIBRARY\INCLUDE\BOOST\FUNCTIONAL\HASH_FWD.HPP
C:\USERS\TAHLIA\DESKTOP\GAME_ENGINE09\ENGINE\LIBRARY\INCLUDE\BOOST\FUNCTIONAL\HASH\HASH_FWD.HPP
C:\USERS\TAHLIA\DESKTOP\GAME_ENGINE09\ENGINE\LIBRARY\INCLUDE\BOOST\ARCHIVE\DETAIL\BASIC_OSERIALIZER.HPP
C:\USERS\TAHLIA\DESKTOP\GAME_ENGINE09\ENGINE\LIBRARY\INCLUDE\BOOST\ARCHIVE\DETAIL\BASIC_SERIALIZER.HPP
C:\USERS\TAHLIA\DESKTOP\GAME_ENGINE09\ENGINE\LIBRARY\INCLUDE\BOOST\ARCHIVE\DETAIL\BASIC_POINTER_OSERIALIZER.HPP
C:\USERS\TAHLIA\DESKTOP\GAME_ENGINE09\ENGINE\LIBRARY\INCLUDE\BOOST\ARCHIVE\DETAIL\ARCHIVE_SERIALIZER_MAP.HPP
C:\USERS\TAHLIA\DESKTOP\GAME_ENGINE09\ENGINE\LIBRARY\INCLUDE\BOOST\ARCHIVE\DETAIL\CHECK.HPP
C:\USERS\TAHLIA\DESKTOP\GAME_ENGINE09\ENGINE\LIBRARY\INCLUDE\BOOST\SERIALIZATION\STRING.HPP
C:\USERS\TAHLIA\DESKTOP\GAME_ENGINE09\ENGINE\LIBRARY\INCLUDE\BOOST\SERIALIZATION\ITEM_VERSION_TYPE.HPP
C:\USERS\TAHLIA\DESKTOP\GAME_ENGINE09\ENGINE\LIBRARY\INCLUDE\BOOST\ARCHIVE\TEXT_IARCHIVE.HPP
C:\USERS\TAHLIA\DESKTOP\GAME_ENGINE09\ENGINE\LIBRARY\INCLUDE\BOOST\ARCHIVE\BASIC_TEXT_IPRIMITIVE.HPP
C:\USERS\TAHLIA\DESKTOP\GAME_ENGINE09\ENGINE\LIBRARY\INCLUDE\BOOST\ARCHIVE\BASIC_TEXT_IARCHIVE.HPP
C:\USERS\TAHLIA\DESKTOP\GAME_ENGINE09\ENGINE\LIBRARY\INCLUDE\BOOST\ARCHIVE\DETAIL\COMMON_IARCHIVE.HPP
C:\USERS\TAHLIA\DESKTOP\GAME_ENGINE09\ENGINE\LIBRARY\INCLUDE\BOOST\ARCHIVE\DETAIL\BASIC_IARCHIVE.HPP
C:\USERS\TAHLIA\DESKTOP\GAME_ENGINE09\ENGINE\LIBRARY\INCLUDE\BOOST\ARCHIVE\DETAIL\BASIC_POINTER_ISERIALIZER.HPP
C:\USERS\TAHLIA\DESKTOP\GAME_ENGINE09\ENGINE\LIBRARY\INCLUDE\BOOST\ARCHIVE\DETAIL\INTERFACE_IARCHIVE.HPP
C:\USERS\TAHLIA\DESKTOP\GAME_ENGINE09\ENGINE\LIBRARY\INCLUDE\BOOST\ARCHIVE\DETAIL\ISERIALIZER.HPP
C:\USERS\TAHLIA\DESKTOP\GAME_ENGINE09\ENGINE\LIBRARY\INCLUDE\BOOST\CORE\NO_EXCEPTIONS_SUPPORT.HPP
C:\USERS\TAHLIA\DESKTOP\GAME_ENGINE09\ENGINE\LIBRARY\INCLUDE\BOOST\TYPE_TRAITS\HAS_NEW_OPERATOR.HPP
C:\USERS\TAHLIA\DESKTOP\GAME_ENGINE09\ENGINE\LIBRARY\INCLUDE\BOOST\ARCHIVE\DETAIL\BASIC_ISERIALIZER.HPP
C:\USERS\TAHLIA\DESKTOP\GAME_ENGINE09\ENGINE\LIBRARY\INCLUDE\BOOST\ARCHIVE\XML_IARCHIVE.HPP
C:\USERS\TAHLIA\DESKTOP\GAME_ENGINE09\ENGINE\LIBRARY\INCLUDE\BOOST\ARCHIVE\BASIC_XML_IARCHIVE.HPP
C:\USERS\TAHLIA\DESKTOP\GAME_ENGINE09\ENGINE\LIBRARY\INCLUDE\BOOST\ARCHIVE\XML_OARCHIVE.HPP
C:\USERS\TAHLIA\DESKTOP\GAME_ENGINE09\ENGINE\LIBRARY\INCLUDE\BOOST\ARCHIVE\BASIC_XML_OARCHIVE.HPP
C:\USERS\TAHLIA\DESKTOP\GAME_ENGINE09\ENGINE\LIBRARY\INCLUDE\BOOST\SERIALIZATION\VECTOR.HPP
C:\USERS\TAHLIA\DESKTOP\GAME_ENGINE09\ENGINE\LIBRARY\INCLUDE\BOOST\SERIALIZATION\COLLECTIONS_SAVE_IMP.HPP
C:\USERS\TAHLIA\DESKTOP\GAME_ENGINE09\ENGINE\LIBRARY\INCLUDE\BOOST\SERIALIZATION\COLLECTIONS_LOAD_IMP.HPP
C:\USERS\TAHLIA\DESKTOP\GAME_ENGINE09\ENGINE\LIBRARY\INCLUDE\BOOST\SERIALIZATION\DETAIL\STACK_CONSTRUCTOR.HPP
C:\USERS\TAHLIA\DESKTOP\GAME_ENGINE09\ENGINE\LIBRARY\INCLUDE\BOOST\ALIGNED_STORAGE.HPP
C:\USERS\TAHLIA\DESKTOP\GAME_ENGINE09\ENGINE\LIBRARY\INCLUDE\BOOST\TYPE_TRAITS\ALIGNED_STORAGE.HPP
C:\USERS\TAHLIA\DESKTOP\GAME_ENGINE09\ENGINE\LIBRARY\INCLUDE\BOOST\SERIALIZATION\DETAIL\IS_DEFAULT_CONSTRUCTIBLE.HPP
C:\USERS\TAHLIA\DESKTOP\GAME_ENGINE09\ENGINE\LIBRARY\INCLUDE\BOOST\UTILITY\ENABLE_IF.HPP
C:\USERS\TAHLIA\DESKTOP\GAME_ENGINE09\ENGINE\LIBRARY\INCLUDE\BOOST\CORE\ENABLE_IF.HPP
C:\USERS\TAHLIA\DESKTOP\GAME_ENGINE09\ENGINE\LIBRARY\INCLUDE\BOOST\SERIALIZATION\DETAIL\GET_DATA.HPP
C:\PROGRAM FILES (X86)\MICROSOFT VISUAL STUDIO 11.0\VC\INCLUDE\VALARRAY
C:\USERS\TAHLIA\DESKTOP\GAME_ENGINE09\ENGINE\LIBRARY\INCLUDE\BOOST\SERIALIZATION\COLLECTION_TRAITS.HPP
C:\USERS\TAHLIA\DESKTOP\GAME_ENGINE09\ENGINE\LIBRARY\INCLUDE\BOOST\SERIALIZATION\EXPORT.HPP
C:\USERS\TAHLIA\DESKTOP\GAME_ENGINE09\ENGINE\LIBRARY\INCLUDE\BOOST\SERIALIZATION\UTILITY.HPP
C:\USERS\TAHLIA\DESKTOP\GAME_ENGINE09\ENGINE\LIBRARY\INCLUDE\BOOST\SERIALIZATION\MAP.HPP
C:\USERS\TAHLIA\DESKTOP\GAME_ENGINE09\ENGINE\LIBRARY\INCLUDE\BOOST\FUNCTION.HPP
C:\USERS\TAHLIA\DESKTOP\GAME_ENGINE09\ENGINE\LIBRARY\INCLUDE\BOOST\PREPROCESSOR\ITERATE.HPP
C:\USERS\TAHLIA\DESKTOP\GAME_ENGINE09\ENGINE\LIBRARY\INCLUDE\BOOST\PREPROCESSOR\ITERATION\ITERATE.HPP
C:\USERS\TAHLIA\DESKTOP\GAME_ENGINE09\ENGINE\LIBRARY\INCLUDE\BOOST\PREPROCESSOR\SLOT\SLOT.HPP
C:\USERS\TAHLIA\DESKTOP\GAME_ENGINE09\ENGINE\LIBRARY\INCLUDE\BOOST\PREPROCESSOR\SLOT\DETAIL\DEF.HPP
C:\USERS\TAHLIA\DESKTOP\GAME_ENGINE09\ENGINE\LIBRARY\INCLUDE\BOOST\FUNCTION\DETAIL\PROLOGUE.HPP
C:\USERS\TAHLIA\DESKTOP\GAME_ENGINE09\ENGINE\LIBRARY\INCLUDE\BOOST\CONFIG\NO_TR1\FUNCTIONAL.HPP
C:\USERS\TAHLIA\DESKTOP\GAME_ENGINE09\ENGINE\LIBRARY\INCLUDE\BOOST\FUNCTION\FUNCTION_BASE.HPP
C:\USERS\TAHLIA\DESKTOP\GAME_ENGINE09\ENGINE\LIBRARY\INCLUDE\BOOST\TYPE_INDEX.HPP
C:\USERS\TAHLIA\DESKTOP\GAME_ENGINE09\ENGINE\LIBRARY\INCLUDE\BOOST\TYPE_INDEX\STL_TYPE_INDEX.HPP
C:\USERS\TAHLIA\DESKTOP\GAME_ENGINE09\ENGINE\LIBRARY\INCLUDE\BOOST\TYPE_INDEX\TYPE_INDEX_FACADE.HPP
C:\USERS\TAHLIA\DESKTOP\GAME_ENGINE09\ENGINE\LIBRARY\INCLUDE\BOOST\TYPE_TRAITS\IS_VOLATILE.HPP
C:\USERS\TAHLIA\DESKTOP\GAME_ENGINE09\ENGINE\LIBRARY\INCLUDE\BOOST\TYPE_TRAITS\HAS_TRIVIAL_COPY.HPP
C:\USERS\TAHLIA\DESKTOP\GAME_ENGINE09\ENGINE\LIBRARY\INCLUDE\BOOST\TYPE_TRAITS\COMPOSITE_TRAITS.HPP
C:\USERS\TAHLIA\DESKTOP\GAME_ENGINE09\ENGINE\LIBRARY\INCLUDE\BOOST\TYPE_TRAITS\IS_UNION.HPP
C:\USERS\TAHLIA\DESKTOP\GAME_ENGINE09\ENGINE\LIBRARY\INCLUDE\BOOST\REF.HPP
C:\USERS\TAHLIA\DESKTOP\GAME_ENGINE09\ENGINE\LIBRARY\INCLUDE\BOOST\CORE\REF.HPP
C:\USERS\TAHLIA\DESKTOP\GAME_ENGINE09\ENGINE\LIBRARY\INCLUDE\BOOST\UTILITY\ADDRESSOF.HPP
C:\USERS\TAHLIA\DESKTOP\GAME_ENGINE09\ENGINE\LIBRARY\INCLUDE\BOOST\FUNCTION_EQUAL.HPP
C:\USERS\TAHLIA\DESKTOP\GAME_ENGINE09\ENGINE\LIBRARY\INCLUDE\BOOST\FUNCTION\FUNCTION_FWD.HPP
C:\USERS\TAHLIA\DESKTOP\GAME_ENGINE09\ENGINE\LIBRARY\INCLUDE\BOOST\MEM_FN.HPP
C:\USERS\TAHLIA\DESKTOP\GAME_ENGINE09\ENGINE\LIBRARY\INCLUDE\BOOST\BIND\MEM_FN.HPP
C:\USERS\TAHLIA\DESKTOP\GAME_ENGINE09\ENGINE\LIBRARY\INCLUDE\BOOST\GET_POINTER.HPP
C:\USERS\TAHLIA\DESKTOP\GAME_ENGINE09\ENGINE\LIBRARY\INCLUDE\BOOST\BIND\MEM_FN_TEMPLATE.HPP
C:\USERS\TAHLIA\DESKTOP\GAME_ENGINE09\ENGINE\LIBRARY\INCLUDE\BOOST\BIND\MEM_FN_CC.HPP
C:\USERS\TAHLIA\DESKTOP\GAME_ENGINE09\ENGINE\LIBRARY\INCLUDE\BOOST\PREPROCESSOR\ENUM.HPP
C:\USERS\TAHLIA\DESKTOP\GAME_ENGINE09\ENGINE\LIBRARY\INCLUDE\BOOST\PREPROCESSOR\REPETITION\ENUM.HPP
C:\USERS\TAHLIA\DESKTOP\GAME_ENGINE09\ENGINE\LIBRARY\INCLUDE\BOOST\PREPROCESSOR\ENUM_PARAMS.HPP
C:\USERS\TAHLIA\DESKTOP\GAME_ENGINE09\ENGINE\LIBRARY\INCLUDE\BOOST\PREPROCESSOR\ITERATION\DETAIL\ITER\FORWARD1.HPP
C:\USERS\TAHLIA\DESKTOP\GAME_ENGINE09\ENGINE\LIBRARY\INCLUDE\BOOST\PREPROCESSOR\ITERATION\DETAIL\BOUNDS\LOWER1.HPP
C:\USERS\TAHLIA\DESKTOP\GAME_ENGINE09\ENGINE\LIBRARY\INCLUDE\BOOST\PREPROCESSOR\SLOT\DETAIL\SHARED.HPP
C:\USERS\TAHLIA\DESKTOP\GAME_ENGINE09\ENGINE\LIBRARY\INCLUDE\BOOST\PREPROCESSOR\ITERATION\DETAIL\BOUNDS\UPPER1.HPP
C:\USERS\TAHLIA\DESKTOP\GAME_ENGINE09\ENGINE\LIBRARY\INCLUDE\BOOST\FUNCTION\DETAIL\FUNCTION_ITERATE.HPP
C:\USERS\TAHLIA\DESKTOP\GAME_ENGINE09\ENGINE\LIBRARY\INCLUDE\BOOST\FUNCTION\DETAIL\MAYBE_INCLUDE.HPP
C:\USERS\TAHLIA\DESKTOP\GAME_ENGINE09\ENGINE\LIBRARY\INCLUDE\BOOST\FUNCTION\FUNCTION_TEMPLATE.HPP
C:\USERS\TAHLIA\DESKTOP\GAME_ENGINE09\ENGINE\LIBRARY\INCLUDE\BOOST\DETAIL\NO_EXCEPTIONS_SUPPORT.HPP
C:\USERS\TAHLIA\DESKTOP\GAME_ENGINE09\ENGINE\LIBRARY\INCLUDE\BOOST\BIND.HPP
C:\USERS\TAHLIA\DESKTOP\GAME_ENGINE09\ENGINE\LIBRARY\INCLUDE\BOOST\BIND\BIND.HPP
C:\USERS\TAHLIA\DESKTOP\GAME_ENGINE09\ENGINE\LIBRARY\INCLUDE\BOOST\TYPE.HPP
C:\USERS\TAHLIA\DESKTOP\GAME_ENGINE09\ENGINE\LIBRARY\INCLUDE\BOOST\IS_PLACEHOLDER.HPP
C:\USERS\TAHLIA\DESKTOP\GAME_ENGINE09\ENGINE\LIBRARY\INCLUDE\BOOST\BIND\ARG.HPP
C:\USERS\TAHLIA\DESKTOP\GAME_ENGINE09\ENGINE\LIBRARY\INCLUDE\BOOST\VISIT_EACH.HPP
C:\USERS\TAHLIA\DESKTOP\GAME_ENGINE09\ENGINE\LIBRARY\INCLUDE\BOOST\CORE\IS_SAME.HPP
C:\USERS\TAHLIA\DESKTOP\GAME_ENGINE09\ENGINE\LIBRARY\INCLUDE\BOOST\BIND\STORAGE.HPP
C:\USERS\TAHLIA\DESKTOP\GAME_ENGINE09\ENGINE\LIBRARY\INCLUDE\BOOST\BIND\BIND_CC.HPP
C:\USERS\TAHLIA\DESKTOP\GAME_ENGINE09\ENGINE\LIBRARY\INCLUDE\BOOST\BIND\BIND_MF_CC.HPP
C:\USERS\TAHLIA\DESKTOP\GAME_ENGINE09\ENGINE\LIBRARY\INCLUDE\BOOST\BIND\BIND_MF2_CC.HPP
C:\USERS\TAHLIA\DESKTOP\GAME_ENGINE09\ENGINE\LIBRARY\INCLUDE\BOOST\BIND\PLACEHOLDERS.HPP
C:\USERS\TAHLIA\DESKTOP\GAME_ENGINE09\ENGINE\LIBRARY\INCLUDE\BOOST\ANY.HPP
C:\USERS\TAHLIA\DESKTOP\GAME_ENGINE09\ENGINE\LIBRARY\INCLUDE\BOOST\TYPE_TRAITS\DECAY.HPP
C:\USERS\TAHLIA\DESKTOP\GAME_ENGINE09\ENGINE\LIBRARY\INCLUDE\BOOST\TYPE_TRAITS\IS_FUNCTION.HPP
C:\USERS\TAHLIA\DESKTOP\GAME_ENGINE09\ENGINE\LIBRARY\INCLUDE\BOOST\TYPE_TRAITS\DETAIL\IS_FUNCTION_PTR_TESTER.HPP
C:\USERS\TAHLIA\DESKTOP\GAME_ENGINE09\ENGINE\LIBRARY\INCLUDE\BOOST\TYPE_TRAITS\REMOVE_BOUNDS.HPP
C:\USERS\TAHLIA\DESKTOP\GAME_ENGINE09\ENGINE\LIBRARY\INCLUDE\BOOST\TYPE_TRAITS\ADD_POINTER.HPP
C:\USERS\TAHLIA\DESKTOP\GAME_ENGINE09\ENGINE\LIBRARY\INCLUDE\BOOST\TYPE_TRAITS\ADD_REFERENCE.HPP
C:\USERS\TAHLIA\DESKTOP\GAME_ENGINE09\ENGINE\BLACKWHALE\CAMERA.H
C:\USERS\TAHLIA\DESKTOP\GAME_ENGINE09\ENGINE\BLACKWHALE\GAMEOBJECT.H
C:\USERS\TAHLIA\DESKTOP\GAME_ENGINE09\ENGINE\BLACKWHALE\STRUCT.H
C:\USERS\TAHLIA\DESKTOP\GAME_ENGINE09\ENGINE\BLACKWHALE\GRAPHICSENGINE.H
C:\USERS\TAHLIA\DESKTOP\GAME_ENGINE09\ENGINE\BLACKWHALE\GBUFFER.H
C:\USERS\TAHLIA\DESKTOP\GAME_ENGINE09\ENGINE\BLACKWHALE\FRAMEBUFFER.H
C:\USERS\TAHLIA\DESKTOP\GAME_ENGINE09\ENGINE\BLACKWHALE\INTERFACES\DIRECTMEDIALAYER.H
C:\USERS\TAHLIA\DESKTOP\GAME_ENGINE09\ENGINE\LIBRARY\INCLUDE\SDL.H
C:\USERS\TAHLIA\DESKTOP\GAME_ENGINE09\ENGINE\LIBRARY\INCLUDE\SDL_MAIN.H
C:\USERS\TAHLIA\DESKTOP\GAME_ENGINE09\ENGINE\LIBRARY\INCLUDE\SDL_STDINC.H
C:\USERS\TAHLIA\DESKTOP\GAME_ENGINE09\ENGINE\LIBRARY\INCLUDE\SDL_CONFIG.H
C:\USERS\TAHLIA\DESKTOP\GAME_ENGINE09\ENGINE\LIBRARY\INCLUDE\SDL_PLATFORM.H
C:\PROGRAM FILES (X86)\WINDOWS KITS\8.0\INCLUDE\SHARED\WINAPIFAMILY.H
C:\USERS\TAHLIA\DESKTOP\GAME_ENGINE09\ENGINE\LIBRARY\INCLUDE\BEGIN_CODE.H
C:\USERS\TAHLIA\DESKTOP\GAME_ENGINE09\ENGINE\LIBRARY\INCLUDE\CLOSE_CODE.H
C:\USERS\TAHLIA\DESKTOP\GAME_ENGINE09\ENGINE\LIBRARY\INCLUDE\SDL_ASSERT.H
C:\USERS\TAHLIA\DESKTOP\GAME_ENGINE09\ENGINE\LIBRARY\INCLUDE\SDL_ATOMIC.H
C:\USERS\TAHLIA\DESKTOP\GAME_ENGINE09\ENGINE\LIBRARY\INCLUDE\SDL_AUDIO.H
C:\USERS\TAHLIA\DESKTOP\GAME_ENGINE09\ENGINE\LIBRARY\INCLUDE\SDL_ERROR.H
C:\USERS\TAHLIA\DESKTOP\GAME_ENGINE09\ENGINE\LIBRARY\INCLUDE\SDL_ENDIAN.H
C:\USERS\TAHLIA\DESKTOP\GAME_ENGINE09\ENGINE\LIBRARY\INCLUDE\SDL_MUTEX.H
C:\USERS\TAHLIA\DESKTOP\GAME_ENGINE09\ENGINE\LIBRARY\INCLUDE\SDL_THREAD.H
C:\PROGRAM FILES (X86)\MICROSOFT VISUAL STUDIO 11.0\VC\INCLUDE\PROCESS.H
C:\USERS\TAHLIA\DESKTOP\GAME_ENGINE09\ENGINE\LIBRARY\INCLUDE\SDL_RWOPS.H
C:\USERS\TAHLIA\DESKTOP\GAME_ENGINE09\ENGINE\LIBRARY\INCLUDE\SDL_CLIPBOARD.H
C:\USERS\TAHLIA\DESKTOP\GAME_ENGINE09\ENGINE\LIBRARY\INCLUDE\SDL_CPUINFO.H
C:\USERS\TAHLIA\DESKTOP\GAME_ENGINE09\ENGINE\LIBRARY\INCLUDE\SDL_EVENTS.H
C:\USERS\TAHLIA\DESKTOP\GAME_ENGINE09\ENGINE\LIBRARY\INCLUDE\SDL_VIDEO.H
C:\USERS\TAHLIA\DESKTOP\GAME_ENGINE09\ENGINE\LIBRARY\INCLUDE\SDL_PIXELS.H
C:\USERS\TAHLIA\DESKTOP\GAME_ENGINE09\ENGINE\LIBRARY\INCLUDE\SDL_RECT.H
C:\USERS\TAHLIA\DESKTOP\GAME_ENGINE09\ENGINE\LIBRARY\INCLUDE\SDL_SURFACE.H
C:\USERS\TAHLIA\DESKTOP\GAME_ENGINE09\ENGINE\LIBRARY\INCLUDE\SDL_BLENDMODE.H
C:\USERS\TAHLIA\DESKTOP\GAME_ENGINE09\ENGINE\LIBRARY\INCLUDE\SDL_KEYBOARD.H
C:\USERS\TAHLIA\DESKTOP\GAME_ENGINE09\ENGINE\LIBRARY\INCLUDE\SDL_KEYCODE.H
C:\USERS\TAHLIA\DESKTOP\GAME_ENGINE09\ENGINE\LIBRARY\INCLUDE\SDL_SCANCODE.H
C:\USERS\TAHLIA\DESKTOP\GAME_ENGINE09\ENGINE\LIBRARY\INCLUDE\SDL_MOUSE.H
C:\USERS\TAHLIA\DESKTOP\GAME_ENGINE09\ENGINE\LIBRARY\INCLUDE\SDL_JOYSTICK.H
C:\USERS\TAHLIA\DESKTOP\GAME_ENGINE09\ENGINE\LIBRARY\INCLUDE\SDL_GAMECONTROLLER.H
C:\USERS\TAHLIA\DESKTOP\GAME_ENGINE09\ENGINE\LIBRARY\INCLUDE\SDL_QUIT.H
C:\USERS\TAHLIA\DESKTOP\GAME_ENGINE09\ENGINE\LIBRARY\INCLUDE\SDL_GESTURE.H
C:\USERS\TAHLIA\DESKTOP\GAME_ENGINE09\ENGINE\LIBRARY\INCLUDE\SDL_TOUCH.H
C:\USERS\TAHLIA\DESKTOP\GAME_ENGINE09\ENGINE\LIBRARY\INCLUDE\SDL_FILESYSTEM.H
C:\USERS\TAHLIA\DESKTOP\GAME_ENGINE09\ENGINE\LIBRARY\INCLUDE\SDL_HAPTIC.H
C:\USERS\TAHLIA\DESKTOP\GAME_ENGINE09\ENGINE\LIBRARY\INCLUDE\SDL_HINTS.H
C:\USERS\TAHLIA\DESKTOP\GAME_ENGINE09\ENGINE\LIBRARY\INCLUDE\SDL_LOADSO.H
C:\USERS\TAHLIA\DESKTOP\GAME_ENGINE09\ENGINE\LIBRARY\INCLUDE\SDL_LOG.H
C:\USERS\TAHLIA\DESKTOP\GAME_ENGINE09\ENGINE\LIBRARY\INCLUDE\SDL_MESSAGEBOX.H
C:\USERS\TAHLIA\DESKTOP\GAME_ENGINE09\ENGINE\LIBRARY\INCLUDE\SDL_POWER.H
C:\USERS\TAHLIA\DESKTOP\GAME_ENGINE09\ENGINE\LIBRARY\INCLUDE\SDL_RENDER.H
C:\USERS\TAHLIA\DESKTOP\GAME_ENGINE09\ENGINE\LIBRARY\INCLUDE\SDL_SYSTEM.H
C:\USERS\TAHLIA\DESKTOP\GAME_ENGINE09\ENGINE\LIBRARY\INCLUDE\SDL_TIMER.H
C:\USERS\TAHLIA\DESKTOP\GAME_ENGINE09\ENGINE\LIBRARY\INCLUDE\SDL_VERSION.H
C:\USERS\TAHLIA\DESKTOP\GAME_ENGINE09\ENGINE\BLACKWHALE\INOBJECT.H
C:\USERS\TAHLIA\DESKTOP\GAME_ENGINE09\ENGINE\BLACKWHALE\TRANSFORM.H
C:\USERS\TAHLIA\DESKTOP\GAME_ENGINE09\ENGINE\BLACKWHALE\COMPONENT.H
C:\USERS\TAHLIA\DESKTOP\GAME_ENGINE09\ENGINE\BLACKWHALE\SCENE.H
C:\USERS\TAHLIA\DESKTOP\GAME_ENGINE09\ENGINE\BLACKWHALE\LIGHT.H
C:\USERS\TAHLIA\DESKTOP\GAME_ENGINE09\ENGINE\BLACKWHALE\IMAGE.H
C:\USERS\TAHLIA\DESKTOP\GAME_ENGINE09\ENGINE\BLACKWHALE\MATERIAL_S.H
C:\USERS\TAHLIA\DESKTOP\GAME_ENGINE09\ENGINE\BLACKWHALE\SHADERPROGRAM.H
C:\USERS\TAHLIA\DESKTOP\GAME_ENGINE09\ENGINE\BLACKWHALE\SHADER.H
C:\USERS\TAHLIA\DESKTOP\GAME_ENGINE09\ENGINE\BLACKWHALE\USERINTERFACE.H
C:\USERS\TAHLIA\DESKTOP\GAME_ENGINE09\ENGINE\BLACKWHALE\SCENEMANAGER.H
