^C:\USERS\TAHLIA\DESKTOP\GAME_ENGINE09\UNITTESTS\STDAFX.CPP
C:\USERS\TAHLIA\DESKTOP\GAME_ENGINE09\UNITTESTS\DEBUG\UNITTESTS.PCH
C:\USERS\TAHLIA\DESKTOP\GAME_ENGINE09\UNITTESTS\DEBUG\STDAFX.OBJ
C:\USERS\TAHLIA\DESKTOP\GAME_ENGINE09\UNITTESTS\DEBUG\VC110.PDB
^C:\USERS\TAHLIA\DESKTOP\GAME_ENGINE09\UNITTESTS\SCRIPTFUNCTIONSUNITTEST.CPP
C:\USERS\TAHLIA\DESKTOP\GAME_ENGINE09\UNITTESTS\DEBUG\SCRIPTFUNCTIONSUNITTEST.OBJ
C:\USERS\TAHLIA\DESKTOP\GAME_ENGINE09\UNITTESTS\DEBUG\VC110.PDB
